[
  {
    "link_thumb": "https://live.staticflickr.com/65535/49712648592_105286dff8_n.jpg",
    "id_album": "-1126835654",
    "description": "Women_883099",
    "title": "Women_883099",
    "link_img": "https://live.staticflickr.com/65535/49712648592_9abb56c127_o.jpg",
    "id_image": "Women_883099",
    "count_view": 0
  },
  {
    "link_thumb": "https://live.staticflickr.com/65535/49710775453_6feec4646b_n.jpg",
    "id_album": "2021464556",
    "description": "Dark_152057",
    "title": "Dark_152057",
    "link_img": "https://live.staticflickr.com/65535/49710775453_7065c961d3_o.jpg",
    "id_image": "Dark_152057",
    "count_view": 0
  },
  {
    "link_thumb": "https://live.staticflickr.com/65535/49712305556_21897dc4d2_n.jpg",
    "id_album": "-1126835654",
    "description": "Women_113714",
    "title": "Women_113714",
    "link_img": "https://live.staticflickr.com/65535/49712305556_22645a2dfb_o.jpg",
    "id_image": "Women_113714",
    "count_view": 0
  },
  {
    "link_thumb": "https://live.staticflickr.com/65535/49711780207_a89aaf670d_n.jpg",
    "id_album": "850176884",
    "description": "Dragon_481266",
    "title": "Dragon_481266",
    "link_img": "https://live.staticflickr.com/65535/49711780207_0ef9354bf1_o.jpg",
    "id_image": "Dragon_481266",
    "count_view": 0
  },
  {
    "link_thumb": "https://live.staticflickr.com/65535/49711709307_33ca61945d_n.jpg",
    "id_album": "850176884",
    "description": "Dragon_214567",
    "title": "Dragon_214567",
    "link_img": "https://live.staticflickr.com/65535/49711709307_74af04d962_o.jpg",
    "id_image": "Dragon_214567",
    "count_view": 0
  },
  {
    "link_thumb": "https://live.staticflickr.com/65535/49711448597_cf1018e64c_n.jpg",
    "id_album": "-1964113117",
    "description": "City_870386",
    "title": "City_870386",
    "link_img": "https://live.staticflickr.com/65535/49711448597_847194ddf3_o.jpg",
    "id_image": "City_870386",
    "count_view": 0
  },
  {
    "link_thumb": "https://live.staticflickr.com/65535/49711945333_44904396b4_n.jpg",
    "id_album": "1861288871",
    "description": "Women_830511",
    "title": "Women_830511",
    "link_img": "https://live.staticflickr.com/65535/49711945333_1f54193474_o.jpg",
    "id_image": "Women_830511",
    "count_view": 0
  },
  {
    "link_thumb": "https://live.staticflickr.com/65535/49711308587_8a91bd05e2_n.jpg",
    "id_album": "1187037014",
    "description": "Battle_180006",
    "title": "Battle_180006",
    "link_img": "https://live.staticflickr.com/65535/49711308587_aa787d3380_o.jpg",
    "id_image": "Battle_180006",
    "count_view": 0
  },
  {
    "link_thumb": "https://live.staticflickr.com/65535/49711348327_65ff2282bc_n.jpg",
    "id_album": "406431601",
    "description": "Building_530254",
    "title": "Building_530254",
    "link_img": "https://live.staticflickr.com/65535/49711348327_1e670f88ec_o.jpg",
    "id_image": "Building_530254",
    "count_view": 0
  },
  {
    "link_thumb": "https://live.staticflickr.com/65535/49711730198_b380fb7e55_n.jpg",
    "id_album": "478331085",
    "description": "Witch_939070",
    "title": "Witch_939070",
    "link_img": "https://live.staticflickr.com/65535/49711730198_23331120f9_o.jpg",
    "id_image": "Witch_939070",
    "count_view": 0
  },
  {
    "link_thumb": "https://live.staticflickr.com/65535/49710633578_8f34992e35_n.jpg",
    "id_album": "-437872736",
    "description": "Creature_264855",
    "title": "Creature_264855",
    "link_img": "https://live.staticflickr.com/65535/49710633578_55bacb12dd_o.jpg",
    "id_image": "Creature_264855",
    "count_view": 0
  },
  {
    "link_thumb": "https://live.staticflickr.com/65535/49710667358_034310c5b8_n.jpg",
    "id_album": "-437872736",
    "description": "Creature_333305",
    "title": "Creature_333305",
    "link_img": "https://live.staticflickr.com/65535/49710667358_c24f7aa523_o.jpg",
    "id_image": "Creature_333305",
    "count_view": 0
  },
  {
    "link_thumb": "https://live.staticflickr.com/65535/49711916252_c37d1e51ce_n.jpg",
    "id_album": "850176884",
    "description": "Dragon_996037",
    "title": "Dragon_996037",
    "link_img": "https://live.staticflickr.com/65535/49711916252_773dc7f4e3_o.jpg",
    "id_image": "Dragon_996037",
    "count_view": 0
  },
  {
    "link_thumb": "https://live.staticflickr.com/65535/49710889316_f449f82d57_n.jpg",
    "id_album": "-1000175186",
    "description": "AngelWarrior_903770",
    "title": "AngelWarrior_903770",
    "link_img": "https://live.staticflickr.com/65535/49710889316_c5aebfded1_o.jpg",
    "id_image": "AngelWarrior_903770",
    "count_view": 0
  },
  {
    "link_thumb": "https://live.staticflickr.com/65535/49711911392_33462a300c_n.jpg",
    "id_album": "850176884",
    "description": "Dragon_981236",
    "title": "Dragon_981236",
    "link_img": "https://live.staticflickr.com/65535/49711911392_b21e247e3c_o.jpg",
    "id_image": "Dragon_981236",
    "count_view": 0
  },
  {
    "link_thumb": "https://live.staticflickr.com/65535/49711309017_5eaba0a5e7_n.jpg",
    "id_album": "1187037014",
    "description": "Battle_202489",
    "title": "Battle_202489",
    "link_img": "https://live.staticflickr.com/65535/49711309017_e4d47fd8c1_o.jpg",
    "id_image": "Battle_202489",
    "count_view": 0
  },
  {
    "link_thumb": "https://live.staticflickr.com/65535/49711554026_e14277e5ae_n.jpg",
    "id_album": "850176884",
    "description": "Dragon_900220",
    "title": "Dragon_900220",
    "link_img": "https://live.staticflickr.com/65535/49711554026_2e67f2a82f_o.jpg",
    "id_image": "Dragon_900220",
    "count_view": 0
  },
  {
    "link_thumb": "https://live.staticflickr.com/65535/49712107667_1e8a9cb027_n.jpg",
    "id_album": "469960528",
    "description": "Knight_703411",
    "title": "Knight_703411",
    "link_img": "https://live.staticflickr.com/65535/49712107667_2be362c9e3_o.jpg",
    "id_image": "Knight_703411",
    "count_view": 0
  },
  {
    "link_thumb": "https://live.staticflickr.com/65535/49711229112_c690508546_n.jpg",
    "id_album": "-1913845949",
    "description": "Animal_636027",
    "title": "Animal_636027",
    "link_img": "https://live.staticflickr.com/65535/49711229112_36d4245a71_o.jpg",
    "id_image": "Animal_636027",
    "count_view": 0
  },
  {
    "link_thumb": "https://live.staticflickr.com/65535/49712162842_e2b93173ea_n.jpg",
    "id_album": "1402713104",
    "description": "Landscape_867424",
    "title": "Landscape_867424",
    "link_img": "https://live.staticflickr.com/65535/49712162842_a3f3c49a9b_o.jpg",
    "id_image": "Landscape_867424",
    "count_view": 0
  },
  {
    "link_thumb": "https://live.staticflickr.com/65535/49711001053_c0dcc23066_n.jpg",
    "id_album": "850176884",
    "description": "Dragon_857304",
    "title": "Dragon_857304",
    "link_img": "https://live.staticflickr.com/65535/49711001053_1da701df47_o.jpg",
    "id_image": "Dragon_857304",
    "count_view": 0
  },
  {
    "link_thumb": "https://live.staticflickr.com/65535/49713012392_9931570515_n.jpg",
    "id_album": "-1675918237",
    "description": "WomenWarrior_865355",
    "title": "WomenWarrior_865355",
    "link_img": "https://live.staticflickr.com/65535/49713012392_4b84b9ee7b_o.jpg",
    "id_image": "WomenWarrior_865355",
    "count_view": 0
  },
  {
    "link_thumb": "https://live.staticflickr.com/65535/49711746082_3862dedc04_n.jpg",
    "id_album": "850176884",
    "description": "Dragon_329350",
    "title": "Dragon_329350",
    "link_img": "https://live.staticflickr.com/65535/49711746082_dbc3d0fe1d_o.jpg",
    "id_image": "Dragon_329350",
    "count_view": 0
  },
  {
    "link_thumb": "https://live.staticflickr.com/65535/49711310868_692ec599e8_n.jpg",
    "id_album": "1402713104",
    "description": "Landscape_871014",
    "title": "Landscape_871014",
    "link_img": "https://live.staticflickr.com/65535/49711310868_91149db9d7_o.jpg",
    "id_image": "Landscape_871014",
    "count_view": 0
  },
  {
    "link_thumb": "https://live.staticflickr.com/65535/49710959531_0118ef0169_n.jpg",
    "id_album": "523598895",
    "description": "Artistic_307078",
    "title": "Artistic_307078",
    "link_img": "https://live.staticflickr.com/65535/49710959531_2c5e476ba6_o.jpg",
    "id_image": "Artistic_307078",
    "count_view": 0
  },
  {
    "link_thumb": "https://live.staticflickr.com/65535/49710878766_64ff6fff96_n.jpg",
    "id_album": "-1000175186",
    "description": "AngelWarrior_327197",
    "title": "AngelWarrior_327197",
    "link_img": "https://live.staticflickr.com/65535/49710878766_d80d3edbf7_o.jpg",
    "id_image": "AngelWarrior_327197",
    "count_view": 0
  },
  {
    "link_thumb": "https://live.staticflickr.com/65535/49711554432_805dcff17f_n.jpg",
    "id_album": "-437872736",
    "description": "Creature_405766",
    "title": "Creature_405766",
    "link_img": "https://live.staticflickr.com/65535/49711554432_96fce8fe21_o.jpg",
    "id_image": "Creature_405766",
    "count_view": 0
  },
  {
    "link_thumb": "https://live.staticflickr.com/65535/49711606141_c596915102_n.jpg",
    "id_album": "134100487",
    "description": "Elf_251227",
    "title": "Elf_251227",
    "link_img": "https://live.staticflickr.com/65535/49711606141_98ebb30585_o.jpg",
    "id_image": "Elf_251227",
    "count_view": 0
  },
  {
    "link_thumb": "https://live.staticflickr.com/65535/49711374711_65c1b3c488_n.jpg",
    "id_album": "850176884",
    "description": "Dragon_153463",
    "title": "Dragon_153463",
    "link_img": "https://live.staticflickr.com/65535/49711374711_2b2d6b3294_o.jpg",
    "id_image": "Dragon_153463",
    "count_view": 0
  },
  {
    "link_thumb": "https://live.staticflickr.com/65535/49711742442_2f4ceefdd7_n.jpg",
    "id_album": "850176884",
    "description": "Dragon_324304",
    "title": "Dragon_324304",
    "link_img": "https://live.staticflickr.com/65535/49711742442_d96d09a9e3_o.jpg",
    "id_image": "Dragon_324304",
    "count_view": 0
  },
  {
    "link_thumb": "https://live.staticflickr.com/65535/49710509493_9d659b542f_n.jpg",
    "id_album": "-1541846310",
    "description": "Castle_378210",
    "title": "Castle_378210",
    "link_img": "https://live.staticflickr.com/65535/49710509493_764b197eff_o.jpg",
    "id_image": "Castle_378210",
    "count_view": 0
  },
  {
    "link_thumb": "https://live.staticflickr.com/65535/49711286333_61f96d1e60_n.jpg",
    "id_album": "1402713104",
    "description": "Landscape_815012",
    "title": "Landscape_815012",
    "link_img": "https://live.staticflickr.com/65535/49711286333_f2c976a974_o.jpg",
    "id_image": "Landscape_815012",
    "count_view": 0
  },
  {
    "link_thumb": "https://live.staticflickr.com/65535/49711697882_ec22435820_n.jpg",
    "id_album": "850176884",
    "description": "Dragon_166802",
    "title": "Dragon_166802",
    "link_img": "https://live.staticflickr.com/65535/49711697882_c965155ba7_o.jpg",
    "id_image": "Dragon_166802",
    "count_view": 0
  },
  {
    "link_thumb": "https://live.staticflickr.com/65535/49711467676_da42945c7f_n.jpg",
    "id_album": "850176884",
    "description": "Dragon_512815",
    "title": "Dragon_512815",
    "link_img": "https://live.staticflickr.com/65535/49711467676_c8e584e4dc_o.jpg",
    "id_image": "Dragon_512815",
    "count_view": 0
  },
  {
    "link_thumb": "https://live.staticflickr.com/65535/49712661577_cfd441c99f_n.jpg",
    "id_album": "-1126835654",
    "description": "Women_931571",
    "title": "Women_931571",
    "link_img": "https://live.staticflickr.com/65535/49712661577_006156c0a6_o.jpg",
    "id_image": "Women_931571",
    "count_view": 0
  },
  {
    "link_thumb": "https://live.staticflickr.com/65535/49710946121_3b01cb0c28_n.jpg",
    "id_album": "523598895",
    "description": "Artistic_162654",
    "title": "Artistic_162654",
    "link_img": "https://live.staticflickr.com/65535/49710946121_d8be23f53a_o.jpg",
    "id_image": "Artistic_162654",
    "count_view": 0
  },
  {
    "link_thumb": "https://live.staticflickr.com/65535/49711853313_94f37c5a5a_n.jpg",
    "id_album": "295204930",
    "description": "Women_389094",
    "title": "Women_389094",
    "link_img": "https://live.staticflickr.com/65535/49711853313_70253e6034_o.jpg",
    "id_image": "Women_389094",
    "count_view": 0
  },
  {
    "link_thumb": "https://live.staticflickr.com/65535/49712024142_b4f64ae5b6_n.jpg",
    "id_album": "-1083189875",
    "description": "Forest_590162",
    "title": "Forest_590162",
    "link_img": "https://live.staticflickr.com/65535/49712024142_a5e79a698d_o.jpg",
    "id_image": "Forest_590162",
    "count_view": 0
  },
  {
    "link_thumb": "https://live.staticflickr.com/65535/49711466443_f55557b77f_n.jpg",
    "id_album": "-1613076477",
    "description": "Magic_400138",
    "title": "Magic_400138",
    "link_img": "https://live.staticflickr.com/65535/49711466443_e2a5b5c965_o.jpg",
    "id_image": "Magic_400138",
    "count_view": 0
  },
  {
    "link_thumb": "https://live.staticflickr.com/65535/49711701452_e62e93bf3a_n.jpg",
    "id_album": "850176884",
    "description": "Dragon_188255",
    "title": "Dragon_188255",
    "link_img": "https://live.staticflickr.com/65535/49711701452_54af83e5e2_o.jpg",
    "id_image": "Dragon_188255",
    "count_view": 0
  },
  {
    "link_thumb": "https://live.staticflickr.com/65535/49710875576_aa9f002c37_n.jpg",
    "id_album": "-1000175186",
    "description": "AngelWarrior_182434",
    "title": "AngelWarrior_182434",
    "link_img": "https://live.staticflickr.com/65535/49710875576_d2aee3f3dd_o.jpg",
    "id_image": "AngelWarrior_182434",
    "count_view": 0
  },
  {
    "link_thumb": "https://live.staticflickr.com/65535/49711719861_910ae638da_n.jpg",
    "id_album": "-1083189875",
    "description": "Forest_914481",
    "title": "Forest_914481",
    "link_img": "https://live.staticflickr.com/65535/49711719861_896cb77633_o.jpg",
    "id_image": "Forest_914481",
    "count_view": 0
  },
  {
    "link_thumb": "https://live.staticflickr.com/65535/49711696223_3d7a65628f_n.jpg",
    "id_album": "-1261420436",
    "description": "Warrior_901638",
    "title": "Warrior_901638",
    "link_img": "https://live.staticflickr.com/65535/49711696223_dec2cc3470_o.jpg",
    "id_image": "Warrior_901638",
    "count_view": 0
  },
  {
    "link_thumb": "https://live.staticflickr.com/65535/49712321196_7538b236d0_n.jpg",
    "id_album": "-1126835654",
    "description": "Women_878211",
    "title": "Women_878211",
    "link_img": "https://live.staticflickr.com/65535/49712321196_5636c93e8b_o.jpg",
    "id_image": "Women_878211",
    "count_view": 0
  },
  {
    "link_thumb": "https://live.staticflickr.com/65535/49711189693_c163a94813_n.jpg",
    "id_album": "-128218148",
    "description": "Fox_721029",
    "title": "Fox_721029",
    "link_img": "https://live.staticflickr.com/65535/49711189693_4d8827355d_o.jpg",
    "id_image": "Fox_721029",
    "count_view": 0
  },
  {
    "link_thumb": "https://live.staticflickr.com/65535/49711708238_1bd6fbc21f_n.jpg",
    "id_album": "1173975892",
    "description": "Werewolf_276299",
    "title": "Werewolf_276299",
    "link_img": "https://live.staticflickr.com/65535/49711708238_b6c03ef61c_o.jpg",
    "id_image": "Werewolf_276299",
    "count_view": 0
  },
  {
    "link_thumb": "https://live.staticflickr.com/65535/49711439717_9ce57d8dbb_n.jpg",
    "id_album": "-1964113117",
    "description": "City_708220",
    "title": "City_708220",
    "link_img": "https://live.staticflickr.com/65535/49711439717_80aa3c21d3_o.jpg",
    "id_image": "City_708220",
    "count_view": 0
  },
  {
    "link_thumb": "https://live.staticflickr.com/65535/49712466402_62574b9141_n.jpg",
    "id_album": "-5356651",
    "description": "Sorcerer_635019",
    "title": "Sorcerer_635019",
    "link_img": "https://live.staticflickr.com/65535/49712466402_eaaace3de0_o.jpg",
    "id_image": "Sorcerer_635019",
    "count_view": 0
  },
  {
    "link_thumb": "https://live.staticflickr.com/65535/49711095996_49d5d785bb_n.jpg",
    "id_album": "-1964113117",
    "description": "City_314024",
    "title": "City_314024",
    "link_img": "https://live.staticflickr.com/65535/49711095996_250033b67c_o.jpg",
    "id_image": "City_314024",
    "count_view": 0
  },
  {
    "link_thumb": "https://live.staticflickr.com/65535/49711264621_d3721216ac_n.jpg",
    "id_album": "-437872736",
    "description": "Creature_720144",
    "title": "Creature_720144",
    "link_img": "https://live.staticflickr.com/65535/49711264621_559055fb12_o.jpg",
    "id_image": "Creature_720144",
    "count_view": 0
  },
  {
    "link_thumb": "https://live.staticflickr.com/65535/49711385237_653e911195_n.jpg",
    "id_album": "-1541846310",
    "description": "Castle_867579",
    "title": "Castle_867579",
    "link_img": "https://live.staticflickr.com/65535/49711385237_286731c5b4_o.jpg",
    "id_image": "Castle_867579",
    "count_view": 0
  },
  {
    "link_thumb": "https://live.staticflickr.com/65535/49710354193_d1e3a7f4d4_n.jpg",
    "id_album": "-1000175186",
    "description": "AngelWarrior_847825",
    "title": "AngelWarrior_847825",
    "link_img": "https://live.staticflickr.com/65535/49710354193_a07c23a7c3_o.jpg",
    "id_image": "AngelWarrior_847825",
    "count_view": 0
  },
  {
    "link_thumb": "https://live.staticflickr.com/65535/49710630508_ca5ff612cd_n.jpg",
    "id_album": "-437872736",
    "description": "Creature_242808",
    "title": "Creature_242808",
    "link_img": "https://live.staticflickr.com/65535/49710630508_0e3a5b77e0_o.jpg",
    "id_image": "Creature_242808",
    "count_view": 0
  },
  {
    "link_thumb": "https://live.staticflickr.com/65535/49711792371_a3e9d4c3bc_n.jpg",
    "id_album": "469960528",
    "description": "Knight_984043",
    "title": "Knight_984043",
    "link_img": "https://live.staticflickr.com/65535/49711792371_a9fa9e6304_o.jpg",
    "id_image": "Knight_984043",
    "count_view": 0
  },
  {
    "link_thumb": "https://live.staticflickr.com/65535/49710958958_385dcfc40c_n.jpg",
    "id_album": "850176884",
    "description": "Dragon_600843",
    "title": "Dragon_600843",
    "link_img": "https://live.staticflickr.com/65535/49710958958_b8164e0856_o.jpg",
    "id_image": "Dragon_600843",
    "count_view": 0
  },
  {
    "link_thumb": "https://live.staticflickr.com/65535/49711184961_a24e3e505d_n.jpg",
    "id_album": "-437872736",
    "description": "Creature_307414",
    "title": "Creature_307414",
    "link_img": "https://live.staticflickr.com/65535/49711184961_f85885d395_o.jpg",
    "id_image": "Creature_307414",
    "count_view": 0
  },
  {
    "link_thumb": "https://live.staticflickr.com/65535/49712220007_50d33321d4_n.jpg",
    "id_album": "-833110404",
    "description": "Landscape_242061",
    "title": "Landscape_242061",
    "link_img": "https://live.staticflickr.com/65535/49712220007_b558010ba1_o.jpg",
    "id_image": "Landscape_242061",
    "count_view": 0
  },
  {
    "link_thumb": "https://live.staticflickr.com/65535/49710987371_50bf61df92_n.jpg",
    "id_album": "1187037014",
    "description": "Battle_242328",
    "title": "Battle_242328",
    "link_img": "https://live.staticflickr.com/65535/49710987371_09e2d05c8b_o.jpg",
    "id_image": "Battle_242328",
    "count_view": 0
  },
  {
    "link_thumb": "https://live.staticflickr.com/65535/49711514031_b2473b5604_n.jpg",
    "id_album": "850176884",
    "description": "Dragon_716399",
    "title": "Dragon_716399",
    "link_img": "https://live.staticflickr.com/65535/49711514031_c9c16038af_o.jpg",
    "id_image": "Dragon_716399",
    "count_view": 0
  },
  {
    "link_thumb": "https://live.staticflickr.com/65535/49711759352_e7ce46294a_n.jpg",
    "id_album": "850176884",
    "description": "Dragon_386168",
    "title": "Dragon_386168",
    "link_img": "https://live.staticflickr.com/65535/49711759352_18bca411e7_o.jpg",
    "id_image": "Dragon_386168",
    "count_view": 0
  },
  {
    "link_thumb": "https://live.staticflickr.com/65535/49711201616_6761d947d7_n.jpg",
    "id_album": "-437872736",
    "description": "Creature_331853",
    "title": "Creature_331853",
    "link_img": "https://live.staticflickr.com/65535/49711201616_51dd6caa31_o.jpg",
    "id_image": "Creature_331853",
    "count_view": 0
  },
  {
    "link_thumb": "https://live.staticflickr.com/65535/49711256853_02d664966f_n.jpg",
    "id_album": "469960528",
    "description": "Knight_983991",
    "title": "Knight_983991",
    "link_img": "https://live.staticflickr.com/65535/49711256853_b993fbb7f7_o.jpg",
    "id_image": "Knight_983991",
    "count_view": 0
  },
  {
    "link_thumb": "https://live.staticflickr.com/65535/49710488738_c4dc7a4eac_n.jpg",
    "id_album": "406431601",
    "description": "Building_269425",
    "title": "Building_269425",
    "link_img": "https://live.staticflickr.com/65535/49710488738_40faa79abf_o.jpg",
    "id_image": "Building_269425",
    "count_view": 0
  },
  {
    "link_thumb": "https://live.staticflickr.com/65535/49710749268_f11a3f6455_n.jpg",
    "id_album": "-437872736",
    "description": "Creature_958698",
    "title": "Creature_958698",
    "link_img": "https://live.staticflickr.com/65535/49710749268_5d67832bee_o.jpg",
    "id_image": "Creature_958698",
    "count_view": 0
  },
  {
    "link_thumb": "https://live.staticflickr.com/65535/49711465523_e9c61ac122_n.jpg",
    "id_album": "-1613076477",
    "description": "Magic_350153",
    "title": "Magic_350153",
    "link_img": "https://live.staticflickr.com/65535/49711465523_1628d36439_o.jpg",
    "id_image": "Magic_350153",
    "count_view": 0
  },
  {
    "link_thumb": "https://live.staticflickr.com/65535/49711629101_35c11547e8_n.jpg",
    "id_album": "134100487",
    "description": "Elf_691328",
    "title": "Elf_691328",
    "link_img": "https://live.staticflickr.com/65535/49711629101_ba772f691c_o.jpg",
    "id_image": "Elf_691328",
    "count_view": 0
  },
  {
    "link_thumb": "https://live.staticflickr.com/65535/49710640993_b6aee15491_n.jpg",
    "id_album": "-437872736",
    "description": "Creature_284315",
    "title": "Creature_284315",
    "link_img": "https://live.staticflickr.com/65535/49710640993_83e105e5ca_o.jpg",
    "id_image": "Creature_284315",
    "count_view": 0
  },
  {
    "link_thumb": "https://live.staticflickr.com/65535/49711841167_2b548049c0_n.jpg",
    "id_album": "850176884",
    "description": "Dragon_747959",
    "title": "Dragon_747959",
    "link_img": "https://live.staticflickr.com/65535/49711841167_3277d36470_o.jpg",
    "id_image": "Dragon_747959",
    "count_view": 0
  },
  {
    "link_thumb": "https://live.staticflickr.com/65535/49711265952_9725db2ffe_n.jpg",
    "id_album": "523598895",
    "description": "Artistic_126435",
    "title": "Artistic_126435",
    "link_img": "https://live.staticflickr.com/65535/49711265952_a4c6ea3510_o.jpg",
    "id_image": "Artistic_126435",
    "count_view": 0
  },
  {
    "link_thumb": "https://live.staticflickr.com/65535/49710330283_6649362a2f_n.jpg",
    "id_album": "-2109465612",
    "description": "Adventure_251105",
    "title": "Adventure_251105",
    "link_img": "https://live.staticflickr.com/65535/49710330283_70c9f4f5cd_o.jpg",
    "id_image": "Adventure_251105",
    "count_view": 0
  },
  {
    "link_thumb": "https://live.staticflickr.com/65535/49712656927_b88c82dccf_n.jpg",
    "id_album": "-1126835654",
    "description": "Women_904406",
    "title": "Women_904406",
    "link_img": "https://live.staticflickr.com/65535/49712656927_281472cfa5_o.jpg",
    "id_image": "Women_904406",
    "count_view": 0
  },
  {
    "link_thumb": "https://live.staticflickr.com/65535/49712690271_5b0b2cdd8e_n.jpg",
    "id_album": "-1675918237",
    "description": "WomenWarrior_877114",
    "title": "WomenWarrior_877114",
    "link_img": "https://live.staticflickr.com/65535/49712690271_c44806853d_o.jpg",
    "id_image": "WomenWarrior_877114",
    "count_view": 0
  },
  {
    "link_thumb": "https://live.staticflickr.com/65535/49711482777_44351e0d2b_n.jpg",
    "id_album": "-437872736",
    "description": "Creature_210654",
    "title": "Creature_210654",
    "link_img": "https://live.staticflickr.com/65535/49711482777_f35cc30147_o.jpg",
    "id_image": "Creature_210654",
    "count_view": 0
  },
  {
    "link_thumb": "https://live.staticflickr.com/65535/49711478496_3e43c475a2_n.jpg",
    "id_album": "850176884",
    "description": "Dragon_547746",
    "title": "Dragon_547746",
    "link_img": "https://live.staticflickr.com/65535/49711478496_e24ae7e2f3_o.jpg",
    "id_image": "Dragon_547746",
    "count_view": 0
  },
  {
    "link_thumb": "https://live.staticflickr.com/65535/49711346291_600a292410_n.jpg",
    "id_album": "850176884",
    "description": "DRAGON2610191649378",
    "title": "DRAGON2610191649378",
    "link_img": "https://live.staticflickr.com/65535/49711346291_eaa9873888_o.jpg",
    "id_image": "DRAGON2610191649378",
    "count_view": 0
  },
  {
    "link_thumb": "https://live.staticflickr.com/65535/49711187341_1f2bc75919_n.jpg",
    "id_album": "-437872736",
    "description": "Creature_310718",
    "title": "Creature_310718",
    "link_img": "https://live.staticflickr.com/65535/49711187341_4999e86566_o.jpg",
    "id_image": "Creature_310718",
    "count_view": 0
  },
  {
    "link_thumb": "https://live.staticflickr.com/65535/49711889092_2ec213d1e3_n.jpg",
    "id_album": "850176884",
    "description": "Dragon_921704",
    "title": "Dragon_921704",
    "link_img": "https://live.staticflickr.com/65535/49711889092_30a8864c4d_o.jpg",
    "id_image": "Dragon_921704",
    "count_view": 0
  },
  {
    "link_thumb": "https://live.staticflickr.com/65535/49711040098_a95ded388d_n.jpg",
    "id_album": "850176884",
    "description": "Dragon_945748",
    "title": "Dragon_945748",
    "link_img": "https://live.staticflickr.com/65535/49711040098_4ea45f2e66_o.jpg",
    "id_image": "Dragon_945748",
    "count_view": 0
  },
  {
    "link_thumb": "https://live.staticflickr.com/65535/49712173621_a6d67852b1_n.jpg",
    "id_album": "46520366",
    "description": "Turtle_858501",
    "title": "Turtle_858501",
    "link_img": "https://live.staticflickr.com/65535/49712173621_85d90a3ab5_o.jpg",
    "id_image": "Turtle_858501",
    "count_view": 0
  },
  {
    "link_thumb": "https://live.staticflickr.com/65535/49711092316_18d7ca6752_n.jpg",
    "id_album": "-1964113117",
    "description": "City_220568",
    "title": "City_220568",
    "link_img": "https://live.staticflickr.com/65535/49711092316_e519b01574_o.jpg",
    "id_image": "City_220568",
    "count_view": 0
  },
  {
    "link_thumb": "https://live.staticflickr.com/65535/49712173431_454b01defa_n.jpg",
    "id_album": "46520366",
    "description": "Turtle_728463",
    "title": "Turtle_728463",
    "link_img": "https://live.staticflickr.com/65535/49712173431_bdce2b63e7_o.jpg",
    "id_image": "Turtle_728463",
    "count_view": 0
  },
  {
    "link_thumb": "https://live.staticflickr.com/65535/49710566703_84cb96ec07_n.jpg",
    "id_album": "-1964113117",
    "description": "City_459404",
    "title": "City_459404",
    "link_img": "https://live.staticflickr.com/65535/49710566703_16abd82671_o.jpg",
    "id_image": "City_459404",
    "count_view": 0
  },
  {
    "link_thumb": "https://live.staticflickr.com/65535/49710504923_4c61d1df62_n.jpg",
    "id_album": "-1541846310",
    "description": "Castle_249897",
    "title": "Castle_249897",
    "link_img": "https://live.staticflickr.com/65535/49710504923_f8afeea389_o.jpg",
    "id_image": "Castle_249897",
    "count_view": 0
  },
  {
    "link_thumb": "https://live.staticflickr.com/65535/49711650043_924b621096_n.jpg",
    "id_album": "431597977",
    "description": "Unicorn_96705",
    "title": "Unicorn_96705",
    "link_img": "https://live.staticflickr.com/65535/49711650043_44d6d4fcb8_o.jpg",
    "id_image": "Unicorn_96705",
    "count_view": 0
  },
  {
    "link_thumb": "https://live.staticflickr.com/65535/49711592463_deb21355c7_n.jpg",
    "id_album": "-395228614",
    "description": "Ship_115201",
    "title": "Ship_115201",
    "link_img": "https://live.staticflickr.com/65535/49711592463_bac0122616_o.jpg",
    "id_image": "Ship_115201",
    "count_view": 0
  },
  {
    "link_thumb": "https://live.staticflickr.com/65535/49710542378_8f7d535662_n.jpg",
    "id_album": "430704260",
    "description": "Child_686948",
    "title": "Child_686948",
    "link_img": "https://live.staticflickr.com/65535/49710542378_c1d459bda8_o.jpg",
    "id_image": "Child_686948",
    "count_view": 0
  },
  {
    "link_thumb": "https://live.staticflickr.com/65535/49711501327_05be76711b_n.jpg",
    "id_album": "-437872736",
    "description": "Creature_282615",
    "title": "Creature_282615",
    "link_img": "https://live.staticflickr.com/65535/49711501327_acba770e93_o.jpg",
    "id_image": "Creature_282615",
    "count_view": 0
  },
  {
    "link_thumb": "https://live.staticflickr.com/65535/49712466941_6d9f0361c3_n.jpg",
    "id_album": "1861288871",
    "description": "Women_783853",
    "title": "Women_783853",
    "link_img": "https://live.staticflickr.com/65535/49712466941_b9a18b7c80_o.jpg",
    "id_image": "Women_783853",
    "count_view": 0
  },
  {
    "link_thumb": "https://live.staticflickr.com/65535/49711631502_f5016de318_n.jpg",
    "id_album": "-437872736",
    "description": "Creature_962102",
    "title": "Creature_962102",
    "link_img": "https://live.staticflickr.com/65535/49711631502_815b1ed9a4_o.jpg",
    "id_image": "Creature_962102",
    "count_view": 0
  },
  {
    "link_thumb": "https://live.staticflickr.com/65535/49711178423_4f5a089594_n.jpg",
    "id_album": "-1083189875",
    "description": "Forest_827404",
    "title": "Forest_827404",
    "link_img": "https://live.staticflickr.com/65535/49711178423_9e00c37e40_o.jpg",
    "id_image": "Forest_827404",
    "count_view": 0
  },
  {
    "link_thumb": "https://live.staticflickr.com/65535/49711963362_07652bb326_n.jpg",
    "id_album": "134100487",
    "description": "Elf_901166",
    "title": "Elf_901166",
    "link_img": "https://live.staticflickr.com/65535/49711963362_f05e606582_o.jpg",
    "id_image": "Elf_901166",
    "count_view": 0
  },
  {
    "link_thumb": "https://live.staticflickr.com/65535/49711183436_e4d09ddfd2_n.jpg",
    "id_album": "-437872736",
    "description": "Creature_304257",
    "title": "Creature_304257",
    "link_img": "https://live.staticflickr.com/65535/49711183436_bef45c8f4e_o.jpg",
    "id_image": "Creature_304257",
    "count_view": 0
  },
  {
    "link_thumb": "https://live.staticflickr.com/65535/49712493287_2b38948387_n.jpg",
    "id_album": "46520366",
    "description": "Turtle_376580",
    "title": "Turtle_376580",
    "link_img": "https://live.staticflickr.com/65535/49712493287_e9688e442e_o.jpg",
    "id_image": "Turtle_376580",
    "count_view": 0
  },
  {
    "link_thumb": "https://live.staticflickr.com/65535/49712426851_c69075a537_n.jpg",
    "id_album": "1861288871",
    "description": "Women_137083",
    "title": "Women_137083",
    "link_img": "https://live.staticflickr.com/65535/49712426851_8d06184366_o.jpg",
    "id_image": "Women_137083",
    "count_view": 0
  },
  {
    "link_thumb": "https://live.staticflickr.com/65535/49711247583_a56c487756_n.jpg",
    "id_album": "469960528",
    "description": "Knight_514088",
    "title": "Knight_514088",
    "link_img": "https://live.staticflickr.com/65535/49711247583_b22cbb321b_o.jpg",
    "id_image": "Knight_514088",
    "count_view": 0
  },
  {
    "link_thumb": "https://live.staticflickr.com/65535/49710410943_8076e14e75_n.jpg",
    "id_album": "523598895",
    "description": "Artistic_151980",
    "title": "Artistic_151980",
    "link_img": "https://live.staticflickr.com/65535/49710410943_656f9effab_o.jpg",
    "id_image": "Artistic_151980",
    "count_view": 0
  },
  {
    "link_thumb": "https://live.staticflickr.com/65535/49710719993_761de9b38f_n.jpg",
    "id_album": "-437872736",
    "description": "Creature_655692",
    "title": "Creature_655692",
    "link_img": "https://live.staticflickr.com/65535/49710719993_5f74370551_o.jpg",
    "id_image": "Creature_655692",
    "count_view": 0
  },
  {
    "link_thumb": "https://live.staticflickr.com/65535/49712607757_a0d6fcb191_n.jpg",
    "id_album": "-709711865",
    "description": "Wolf_676256",
    "title": "Wolf_676256",
    "link_img": "https://live.staticflickr.com/65535/49712607757_be0a8aae5d_o.jpg",
    "id_image": "Wolf_676256",
    "count_view": 0
  },
  {
    "link_thumb": "https://live.staticflickr.com/65535/49711880293_a1024e3164_n.jpg",
    "id_album": "295204930",
    "description": "Women_725329",
    "title": "Women_725329",
    "link_img": "https://live.staticflickr.com/65535/49711880293_103d3a2c8e_o.jpg",
    "id_image": "Women_725329",
    "count_view": 0
  },
  {
    "link_thumb": "https://live.staticflickr.com/65535/49710926728_912b38f507_n.jpg",
    "id_album": "850176884",
    "description": "Dragon_495615",
    "title": "Dragon_495615",
    "link_img": "https://live.staticflickr.com/65535/49710926728_ccd51473d0_o.jpg",
    "id_image": "Dragon_495615",
    "count_view": 0
  },
  {
    "link_thumb": "https://live.staticflickr.com/65535/49712269337_a3f3235188_n.jpg",
    "id_album": "-833110404",
    "description": "Landscape_439042",
    "title": "Landscape_439042",
    "link_img": "https://live.staticflickr.com/65535/49712269337_28c2182248_o.jpg",
    "id_image": "Landscape_439042",
    "count_view": 0
  },
  {
    "link_thumb": "https://live.staticflickr.com/65535/49710650313_590e73f797_n.jpg",
    "id_album": "-437872736",
    "description": "Creature_307950",
    "title": "Creature_307950",
    "link_img": "https://live.staticflickr.com/65535/49710650313_1933179e01_o.jpg",
    "id_image": "Creature_307950",
    "count_view": 0
  },
  {
    "link_thumb": "https://live.staticflickr.com/65535/49712382406_84e78a932e_n.jpg",
    "id_album": "295204930",
    "description": "Women_345169",
    "title": "Women_345169",
    "link_img": "https://live.staticflickr.com/65535/49712382406_b6213234bc_o.jpg",
    "id_image": "Women_345169",
    "count_view": 0
  },
  {
    "link_thumb": "https://live.staticflickr.com/65535/49711031266_ced1aed5a9_n.jpg",
    "id_album": "-1541846310",
    "description": "Castle_121897",
    "title": "Castle_121897",
    "link_img": "https://live.staticflickr.com/65535/49711031266_5a433460a9_o.jpg",
    "id_image": "Castle_121897",
    "count_view": 0
  },
  {
    "link_thumb": "https://live.staticflickr.com/65535/49711899247_0efda6b666_n.jpg",
    "id_album": "850176884",
    "description": "Dragon_954035",
    "title": "Dragon_954035",
    "link_img": "https://live.staticflickr.com/65535/49711899247_8726b1bf20_o.jpg",
    "id_image": "Dragon_954035",
    "count_view": 0
  },
  {
    "link_thumb": "https://live.staticflickr.com/65535/49710680523_a178406df4_n.jpg",
    "id_album": "-437872736",
    "description": "Creature_367504",
    "title": "Creature_367504",
    "link_img": "https://live.staticflickr.com/65535/49710680523_56bfcd0bb6_o.jpg",
    "id_image": "Creature_367504",
    "count_view": 0
  },
  {
    "link_thumb": "https://live.staticflickr.com/65535/49711936346_beb2c9b0be_n.jpg",
    "id_album": "-833110404",
    "description": "Landscape_402878",
    "title": "Landscape_402878",
    "link_img": "https://live.staticflickr.com/65535/49711936346_9f4f4efba6_o.jpg",
    "id_image": "Landscape_402878",
    "count_view": 0
  },
  {
    "link_thumb": "https://live.staticflickr.com/65535/49710642288_96b5a1df5b_n.jpg",
    "id_album": "-437872736",
    "description": "Creature_291886",
    "title": "Creature_291886",
    "link_img": "https://live.staticflickr.com/65535/49710642288_f10b42770e_o.jpg",
    "id_image": "Creature_291886",
    "count_view": 0
  },
  {
    "link_thumb": "https://live.staticflickr.com/65535/49712511982_426645c87e_n.jpg",
    "id_album": "43335239",
    "description": "Vampire_697650",
    "title": "Vampire_697650",
    "link_img": "https://live.staticflickr.com/65535/49712511982_01efb06dc4_o.jpg",
    "id_image": "Vampire_697650",
    "count_view": 0
  },
  {
    "link_thumb": "https://live.staticflickr.com/65535/49712425222_387736922a_n.jpg",
    "id_album": "-1611961467",
    "description": "Samurai_169088",
    "title": "Samurai_169088",
    "link_img": "https://live.staticflickr.com/65535/49712425222_16d1f503a5_o.jpg",
    "id_image": "Samurai_169088",
    "count_view": 0
  },
  {
    "link_thumb": "https://live.staticflickr.com/65535/49711845542_a8439af600_n.jpg",
    "id_album": "850176884",
    "description": "Dragon_78319",
    "title": "Dragon_78319",
    "link_img": "https://live.staticflickr.com/65535/49711845542_a532c77294_o.jpg",
    "id_image": "Dragon_78319",
    "count_view": 0
  },
  {
    "link_thumb": "https://live.staticflickr.com/65535/49711344127_40abeaf248_n.jpg",
    "id_album": "-1846011410",
    "description": "Bird_958940",
    "title": "Bird_958940",
    "link_img": "https://live.staticflickr.com/65535/49711344127_ecd04a2ab7_o.jpg",
    "id_image": "Bird_958940",
    "count_view": 0
  },
  {
    "link_thumb": "https://live.staticflickr.com/65535/49712787682_ed9174eb7f_n.jpg",
    "id_album": "1861288871",
    "description": "Women_778331",
    "title": "Women_778331",
    "link_img": "https://live.staticflickr.com/65535/49712787682_2d3e4d04b9_o.jpg",
    "id_image": "Women_778331",
    "count_view": 0
  },
  {
    "link_thumb": "https://live.staticflickr.com/65535/49710968563_960a871ab4_n.jpg",
    "id_album": "850176884",
    "description": "Dragon_681012",
    "title": "Dragon_681012",
    "link_img": "https://live.staticflickr.com/65535/49710968563_2658d03497_o.jpg",
    "id_image": "Dragon_681012",
    "count_view": 0
  },
  {
    "link_thumb": "https://live.staticflickr.com/65535/49711850078_51919df51c_n.jpg",
    "id_album": "295204930",
    "description": "Women_372385",
    "title": "Women_372385",
    "link_img": "https://live.staticflickr.com/65535/49711850078_660c958bd0_o.jpg",
    "id_image": "Women_372385",
    "count_view": 0
  },
  {
    "link_thumb": "https://live.staticflickr.com/65535/49710497333_4d8690d3b6_n.jpg",
    "id_album": "-1541846310",
    "description": "Castle_145205",
    "title": "Castle_145205",
    "link_img": "https://live.staticflickr.com/65535/49710497333_352aa754dd_o.jpg",
    "id_image": "Castle_145205",
    "count_view": 0
  },
  {
    "link_thumb": "https://live.staticflickr.com/65535/49711952953_d46233b50b_n.jpg",
    "id_album": "-867594484",
    "description": "Women_507428",
    "title": "Women_507428",
    "link_img": "https://live.staticflickr.com/65535/49711952953_c1cf648ab6_o.jpg",
    "id_image": "Women_507428",
    "count_view": 0
  },
  {
    "link_thumb": "https://live.staticflickr.com/65535/49710657693_bfe1c05dc4_n.jpg",
    "id_album": "-437872736",
    "description": "Creature_320767",
    "title": "Creature_320767",
    "link_img": "https://live.staticflickr.com/65535/49710657693_de65102c25_o.jpg",
    "id_image": "Creature_320767",
    "count_view": 0
  },
  {
    "link_thumb": "https://live.staticflickr.com/65535/49711053538_af0d964228_n.jpg",
    "id_album": "850176884",
    "description": "Dragon_980601",
    "title": "Dragon_980601",
    "link_img": "https://live.staticflickr.com/65535/49711053538_b430520d59_o.jpg",
    "id_image": "Dragon_980601",
    "count_view": 0
  },
  {
    "link_thumb": "https://live.staticflickr.com/65535/49712517602_4c299e4302_n.jpg",
    "id_album": "1215289234",
    "description": "WARIOR26101916513011",
    "title": "WARIOR26101916513011",
    "link_img": "https://live.staticflickr.com/65535/49712517602_c56726f009_o.jpg",
    "id_image": "WARIOR26101916513011",
    "count_view": 0
  },
  {
    "link_thumb": "https://live.staticflickr.com/65535/49711051196_b0f5d2ca03_n.jpg",
    "id_album": "-1541846310",
    "description": "Castle_669201",
    "title": "Castle_669201",
    "link_img": "https://live.staticflickr.com/65535/49711051196_258e51224a_o.jpg",
    "id_image": "Castle_669201",
    "count_view": 0
  },
  {
    "link_thumb": "https://live.staticflickr.com/65535/49712599522_a2a04f6803_n.jpg",
    "id_album": "-709711865",
    "description": "Wolf_558909",
    "title": "Wolf_558909",
    "link_img": "https://live.staticflickr.com/65535/49712599522_6066638eef_o.jpg",
    "id_image": "Wolf_558909",
    "count_view": 0
  },
  {
    "link_thumb": "https://live.staticflickr.com/65535/49710704983_8f67b75701_n.jpg",
    "id_album": "-437872736",
    "description": "Creature_511829",
    "title": "Creature_511829",
    "link_img": "https://live.staticflickr.com/65535/49710704983_f4dcdb832d_o.jpg",
    "id_image": "Creature_511829",
    "count_view": 0
  },
  {
    "link_thumb": "https://live.staticflickr.com/65535/49710952861_e78492a08d_n.jpg",
    "id_album": "523598895",
    "description": "Artistic_211328",
    "title": "Artistic_211328",
    "link_img": "https://live.staticflickr.com/65535/49710952861_ddf851c765_o.jpg",
    "id_image": "Artistic_211328",
    "count_view": 0
  },
  {
    "link_thumb": "https://live.staticflickr.com/65535/49711538781_acfb3021f3_n.jpg",
    "id_album": "850176884",
    "description": "Dragon_863087",
    "title": "Dragon_863087",
    "link_img": "https://live.staticflickr.com/65535/49711538781_e807b296e9_o.jpg",
    "id_image": "Dragon_863087",
    "count_view": 0
  },
  {
    "link_thumb": "https://live.staticflickr.com/65535/49711450131_7633ec85c4_n.jpg",
    "id_album": "850176884",
    "description": "Dragon_448898",
    "title": "Dragon_448898",
    "link_img": "https://live.staticflickr.com/65535/49711450131_5bffc08c41_o.jpg",
    "id_image": "Dragon_448898",
    "count_view": 0
  },
  {
    "link_thumb": "https://live.staticflickr.com/65535/49711199746_43ca054f2f_n.jpg",
    "id_album": "-437872736",
    "description": "Creature_329080",
    "title": "Creature_329080",
    "link_img": "https://live.staticflickr.com/65535/49711199746_d593410573_o.jpg",
    "id_image": "Creature_329080",
    "count_view": 0
  },
  {
    "link_thumb": "https://live.staticflickr.com/65535/49711890972_1aa7d2c37a_n.jpg",
    "id_album": "850176884",
    "description": "Dragon_926857",
    "title": "Dragon_926857",
    "link_img": "https://live.staticflickr.com/65535/49711890972_7bdbda537a_o.jpg",
    "id_image": "Dragon_926857",
    "count_view": 0
  },
  {
    "link_thumb": "https://live.staticflickr.com/65535/49710861416_6a1518141c_n.jpg",
    "id_album": "-2109465612",
    "description": "Adventure_239328",
    "title": "Adventure_239328",
    "link_img": "https://live.staticflickr.com/65535/49710861416_648090411f_o.jpg",
    "id_image": "Adventure_239328",
    "count_view": 0
  },
  {
    "link_thumb": "https://live.staticflickr.com/65535/49711163136_e40b1fd18d_n.jpg",
    "id_album": "-437872736",
    "description": "Creature_235382",
    "title": "Creature_235382",
    "link_img": "https://live.staticflickr.com/65535/49711163136_d27e000e08_o.jpg",
    "id_image": "Creature_235382",
    "count_view": 0
  },
  {
    "link_thumb": "https://live.staticflickr.com/65535/49711423217_390821bfa9_n.jpg",
    "id_album": "-1964113117",
    "description": "City_387175",
    "title": "City_387175",
    "link_img": "https://live.staticflickr.com/65535/49711423217_6ccd71a751_o.jpg",
    "id_image": "City_387175",
    "count_view": 0
  },
  {
    "link_thumb": "https://live.staticflickr.com/65535/49711367187_4f63fde93f_n.jpg",
    "id_album": "-1541846310",
    "description": "Castle_340819",
    "title": "Castle_340819",
    "link_img": "https://live.staticflickr.com/65535/49711367187_67d0a68a26_o.jpg",
    "id_image": "Castle_340819",
    "count_view": 0
  },
  {
    "link_thumb": "https://live.staticflickr.com/65535/49711250212_357af59790_n.jpg",
    "id_album": "-1913845949",
    "description": "Animal_984051",
    "title": "Animal_984051",
    "link_img": "https://live.staticflickr.com/65535/49711250212_1d33dd995c_o.jpg",
    "id_image": "Animal_984051",
    "count_view": 0
  },
  {
    "link_thumb": "https://live.staticflickr.com/65535/49798814491_758980e91a_n.jpg",
    "id_album": "-1703946758",
    "description": "ANIME_PIC_3be12582b785a06cd4668480ca7742a4",
    "title": "ANIME_PIC_3be12582b785a06cd4668480ca7742a4",
    "link_img": "https://live.staticflickr.com/65535/49798814491_a7eeff25c7_o.jpg",
    "id_image": "ANIME_PIC_3be12582b785a06cd4668480ca7742a4",
    "count_view": 0
  },
  {
    "link_thumb": "https://live.staticflickr.com/65535/49711715256_5d92f8d7fc_n.jpg",
    "id_album": "-1083189875",
    "description": "Forest_866901",
    "title": "Forest_866901",
    "link_img": "https://live.staticflickr.com/65535/49711715256_98732015d3_o.jpg",
    "id_image": "Forest_866901",
    "count_view": 0
  },
  {
    "link_thumb": "https://live.staticflickr.com/65535/49712120758_993b37a755_n.jpg",
    "id_album": "-1675918237",
    "description": "WomenWarrior_694648",
    "title": "WomenWarrior_694648",
    "link_img": "https://live.staticflickr.com/65535/49712120758_45cdc8c4e2_o.jpg",
    "id_image": "WomenWarrior_694648",
    "count_view": 0
  },
  {
    "link_thumb": "https://live.staticflickr.com/65535/49711015968_716f2077ae_n.jpg",
    "id_album": "850176884",
    "description": "Dragon_884813",
    "title": "Dragon_884813",
    "link_img": "https://live.staticflickr.com/65535/49711015968_51d35be4c7_o.jpg",
    "id_image": "Dragon_884813",
    "count_view": 0
  },
  {
    "link_thumb": "https://live.staticflickr.com/65535/49711481861_ec1570ace6_n.jpg",
    "id_album": "850176884",
    "description": "Dragon_560476",
    "title": "Dragon_560476",
    "link_img": "https://live.staticflickr.com/65535/49711481861_f1b4e4cf39_o.jpg",
    "id_image": "Dragon_560476",
    "count_view": 0
  },
  {
    "link_thumb": "https://live.staticflickr.com/65535/49711009776_04a1c54431_n.jpg",
    "id_album": "1187037014",
    "description": "Battle_804960",
    "title": "Battle_804960",
    "link_img": "https://live.staticflickr.com/65535/49711009776_5812ebbd30_o.jpg",
    "id_image": "Battle_804960",
    "count_view": 0
  },
  {
    "link_thumb": "https://live.staticflickr.com/65535/49711196732_466d2e23d2_n.jpg",
    "id_album": "-956471126",
    "description": "AliceInWonderland_876336",
    "title": "AliceInWonderland_876336",
    "link_img": "https://live.staticflickr.com/65535/49711196732_aef8b63ea9_o.jpg",
    "id_image": "AliceInWonderland_876336",
    "count_view": 0
  },
  {
    "link_thumb": "https://live.staticflickr.com/65535/49710772928_87cd1327ba_n.jpg",
    "id_album": "-437872736",
    "description": "Creature_984496",
    "title": "Creature_984496",
    "link_img": "https://live.staticflickr.com/65535/49710772928_5c4eaf0afe_o.jpg",
    "id_image": "Creature_984496",
    "count_view": 0
  },
  {
    "link_thumb": "https://live.staticflickr.com/65535/49712099232_cde053865e_n.jpg",
    "id_album": "-1967191405",
    "description": "Hydra_875284",
    "title": "Hydra_875284",
    "link_img": "https://live.staticflickr.com/65535/49712099232_886b40ce75_o.jpg",
    "id_image": "Hydra_875284",
    "count_view": 0
  },
  {
    "link_thumb": "https://live.staticflickr.com/65535/49710445048_3eb62b4a3a_n.jpg",
    "id_album": "523598895",
    "description": "Artistic_708265",
    "title": "Artistic_708265",
    "link_img": "https://live.staticflickr.com/65535/49710445048_dfb8370a80_o.jpg",
    "id_image": "Artistic_708265",
    "count_view": 0
  },
  {
    "link_thumb": "https://live.staticflickr.com/65535/49710939946_ccb932191d_n.jpg",
    "id_album": "523598895",
    "description": "Artistic_121546",
    "title": "Artistic_121546",
    "link_img": "https://live.staticflickr.com/65535/49710939946_ab222c3c0c_o.jpg",
    "id_image": "Artistic_121546",
    "count_view": 0
  },
  {
    "link_thumb": "https://live.staticflickr.com/65535/49711224412_a2378ab621_n.jpg",
    "id_album": "-1913845949",
    "description": "Animal_348475",
    "title": "Animal_348475",
    "link_img": "https://live.staticflickr.com/65535/49711224412_4845c83b72_o.jpg",
    "id_image": "Animal_348475",
    "count_view": 0
  },
  {
    "link_thumb": "https://live.staticflickr.com/65535/49711356246_3d1a446178_n.jpg",
    "id_album": "850176884",
    "description": "Dragon_115464",
    "title": "Dragon_115464",
    "link_img": "https://live.staticflickr.com/65535/49711356246_418ccaf5b7_o.jpg",
    "id_image": "Dragon_115464",
    "count_view": 0
  },
  {
    "link_thumb": "https://live.staticflickr.com/65535/49711797277_0aa18547f0_n.jpg",
    "id_album": "850176884",
    "description": "Dragon_534722",
    "title": "Dragon_534722",
    "link_img": "https://live.staticflickr.com/65535/49711797277_f8462b6efd_o.jpg",
    "id_image": "Dragon_534722",
    "count_view": 0
  },
  {
    "link_thumb": "https://live.staticflickr.com/65535/49711478843_82256a5b22_n.jpg",
    "id_album": "-222719689",
    "description": "Men_256911",
    "title": "Men_256911",
    "link_img": "https://live.staticflickr.com/65535/49711478843_d33c1ce5da_o.jpg",
    "id_image": "Men_256911",
    "count_view": 0
  },
  {
    "link_thumb": "https://live.staticflickr.com/65535/49712074861_4d4a181749_n.jpg",
    "id_album": "-1326601535",
    "description": "Phoenix_569097",
    "title": "Phoenix_569097",
    "link_img": "https://live.staticflickr.com/65535/49712074861_34c5ca091e_o.jpg",
    "id_image": "Phoenix_569097",
    "count_view": 0
  },
  {
    "link_thumb": "https://live.staticflickr.com/65535/49710617478_14c8a95604_n.jpg",
    "id_album": "-437872736",
    "description": "Creature_183323",
    "title": "Creature_183323",
    "link_img": "https://live.staticflickr.com/65535/49710617478_04731cbb58_o.jpg",
    "id_image": "Creature_183323",
    "count_view": 0
  },
  {
    "link_thumb": "https://live.staticflickr.com/65535/49711266492_bb78a72fc9_n.jpg",
    "id_album": "523598895",
    "description": "Artistic_143297",
    "title": "Artistic_143297",
    "link_img": "https://live.staticflickr.com/65535/49711266492_b3b3c2cc88_o.jpg",
    "id_image": "Artistic_143297",
    "count_view": 0
  },
  {
    "link_thumb": "https://live.staticflickr.com/65535/49711373833_33902ec517_n.jpg",
    "id_album": "-833110404",
    "description": "Landscape_283714",
    "title": "Landscape_283714",
    "link_img": "https://live.staticflickr.com/65535/49711373833_747fb01242_o.jpg",
    "id_image": "Landscape_283714",
    "count_view": 0
  },
  {
    "link_thumb": "https://live.staticflickr.com/65535/49711760607_f8b0004c87_n.jpg",
    "id_album": "850176884",
    "description": "Dragon_388652",
    "title": "Dragon_388652",
    "link_img": "https://live.staticflickr.com/65535/49711760607_392ef81bb3_o.jpg",
    "id_image": "Dragon_388652",
    "count_view": 0
  },
  {
    "link_thumb": "https://live.staticflickr.com/65535/49711201377_088d92256d_n.jpg",
    "id_album": "-1000175186",
    "description": "AngelWarrior_264307",
    "title": "AngelWarrior_264307",
    "link_img": "https://live.staticflickr.com/65535/49711201377_6252fba222_o.jpg",
    "id_image": "AngelWarrior_264307",
    "count_view": 0
  },
  {
    "link_thumb": "https://live.staticflickr.com/65535/49710877786_ae9d9fb246_n.jpg",
    "id_album": "-1000175186",
    "description": "AngelWarrior_271202",
    "title": "AngelWarrior_271202",
    "link_img": "https://live.staticflickr.com/65535/49710877786_f191e1db24_o.jpg",
    "id_image": "AngelWarrior_271202",
    "count_view": 0
  },
  {
    "link_thumb": "https://live.staticflickr.com/65535/49712566627_25d4d6c968_n.jpg",
    "id_album": "1173975892",
    "description": "Werewolf_487348",
    "title": "Werewolf_487348",
    "link_img": "https://live.staticflickr.com/65535/49712566627_e00df5cf64_o.jpg",
    "id_image": "Werewolf_487348",
    "count_view": 0
  },
  {
    "link_thumb": "https://live.staticflickr.com/65535/49711759992_04e954ebf2_n.jpg",
    "id_album": "850176884",
    "description": "Dragon_387810",
    "title": "Dragon_387810",
    "link_img": "https://live.staticflickr.com/65535/49711759992_a2d5462dcc_o.jpg",
    "id_image": "Dragon_387810",
    "count_view": 0
  },
  {
    "link_thumb": "https://live.staticflickr.com/65535/49710863313_a9375e6d1f_n.jpg",
    "id_album": "850176884",
    "description": "Dragon_248637",
    "title": "Dragon_248637",
    "link_img": "https://live.staticflickr.com/65535/49710863313_56cb3c3f37_o.jpg",
    "id_image": "Dragon_248637",
    "count_view": 0
  },
  {
    "link_thumb": "https://live.staticflickr.com/65535/49713026447_d96d6745e8_n.jpg",
    "id_album": "-1675918237",
    "description": "WomenWarrior_954036",
    "title": "WomenWarrior_954036",
    "link_img": "https://live.staticflickr.com/65535/49713026447_45627c0a69_o.jpg",
    "id_image": "WomenWarrior_954036",
    "count_view": 0
  },
  {
    "link_thumb": "https://live.staticflickr.com/65535/49711032711_1b2b1ecde1_n.jpg",
    "id_album": "-1541846310",
    "description": "Castle_146467",
    "title": "Castle_146467",
    "link_img": "https://live.staticflickr.com/65535/49711032711_973db82689_o.jpg",
    "id_image": "Castle_146467",
    "count_view": 0
  },
  {
    "link_thumb": "https://live.staticflickr.com/65535/49711642063_cb3a94637b_n.jpg",
    "id_album": "431597977",
    "description": "Unicorn_239474",
    "title": "Unicorn_239474",
    "link_img": "https://live.staticflickr.com/65535/49711642063_7e16e15dca_o.jpg",
    "id_image": "Unicorn_239474",
    "count_view": 0
  },
  {
    "link_thumb": "https://live.staticflickr.com/65535/49711355761_3a45f22594_n.jpg",
    "id_album": "850176884",
    "description": "Dragon_11460",
    "title": "Dragon_11460",
    "link_img": "https://live.staticflickr.com/65535/49711355761_4b646cbc56_o.jpg",
    "id_image": "Dragon_11460",
    "count_view": 0
  },
  {
    "link_thumb": "https://live.staticflickr.com/65535/49713021247_f0af99d9f1_n.jpg",
    "id_album": "-1675918237",
    "description": "WomenWarrior_900221",
    "title": "WomenWarrior_900221",
    "link_img": "https://live.staticflickr.com/65535/49713021247_4dd2498271_o.jpg",
    "id_image": "WomenWarrior_900221",
    "count_view": 0
  },
  {
    "link_thumb": "https://live.staticflickr.com/65535/49711792781_663a19b74b_n.jpg",
    "id_album": "469960528",
    "description": "Knight_984677",
    "title": "Knight_984677",
    "link_img": "https://live.staticflickr.com/65535/49711792781_319cd20750_o.jpg",
    "id_image": "Knight_984677",
    "count_view": 0
  },
  {
    "link_thumb": "https://live.staticflickr.com/65535/49711660262_8ab24e0857_n.jpg",
    "id_album": "7198985",
    "description": "Demon_489605",
    "title": "Demon_489605",
    "link_img": "https://live.staticflickr.com/65535/49711660262_e6b06213c2_o.jpg",
    "id_image": "Demon_489605",
    "count_view": 0
  },
  {
    "link_thumb": "https://live.staticflickr.com/65535/49711129511_2d8d5622bd_n.jpg",
    "id_album": "-1964113117",
    "description": "City_918806",
    "title": "City_918806",
    "link_img": "https://live.staticflickr.com/65535/49711129511_651372769c_o.jpg",
    "id_image": "City_918806",
    "count_view": 0
  },
  {
    "link_thumb": "https://live.staticflickr.com/65535/49712718267_b7a268c2d0_n.jpg",
    "id_album": "295204930",
    "description": "Women_409809",
    "title": "Women_409809",
    "link_img": "https://live.staticflickr.com/65535/49712718267_300bd2d75a_o.jpg",
    "id_image": "Women_409809",
    "count_view": 0
  },
  {
    "link_thumb": "https://live.staticflickr.com/65535/49710974281_a3511a5887_n.jpg",
    "id_album": "523598895",
    "description": "Artistic_589821",
    "title": "Artistic_589821",
    "link_img": "https://live.staticflickr.com/65535/49710974281_15732378ba_o.jpg",
    "id_image": "Artistic_589821",
    "count_view": 0
  },
  {
    "link_thumb": "https://live.staticflickr.com/65535/49711418077_aab6c837db_n.jpg",
    "id_album": "-1964113117",
    "description": "City_271235",
    "title": "City_271235",
    "link_img": "https://live.staticflickr.com/65535/49711418077_204249c047_o.jpg",
    "id_image": "City_271235",
    "count_view": 0
  },
  {
    "link_thumb": "https://live.staticflickr.com/65535/49711817418_3b7b0dbb99_n.jpg",
    "id_album": "-1126835654",
    "description": "Women_994274",
    "title": "Women_994274",
    "link_img": "https://live.staticflickr.com/65535/49711817418_defea66cf9_o.jpg",
    "id_image": "Women_994274",
    "count_view": 0
  },
  {
    "link_thumb": "https://live.staticflickr.com/65535/49710715568_79d56533f9_n.jpg",
    "id_album": "-437872736",
    "description": "Creature_592378",
    "title": "Creature_592378",
    "link_img": "https://live.staticflickr.com/65535/49710715568_5682606bd2_o.jpg",
    "id_image": "Creature_592378",
    "count_view": 0
  },
  {
    "link_thumb": "https://live.staticflickr.com/65535/49711818226_284979af50_n.jpg",
    "id_album": "1402713104",
    "description": "Landscape_778726",
    "title": "Landscape_778726",
    "link_img": "https://live.staticflickr.com/65535/49711818226_5797a57442_o.jpg",
    "id_image": "Landscape_778726",
    "count_view": 0
  },
  {
    "link_thumb": "https://live.staticflickr.com/65535/49711337562_50bfe55164_n.jpg",
    "id_album": "1187037014",
    "description": "Battle_930292",
    "title": "Battle_930292",
    "link_img": "https://live.staticflickr.com/65535/49711337562_cab69ce325_o.jpg",
    "id_image": "Battle_930292",
    "count_view": 0
  },
  {
    "link_thumb": "https://live.staticflickr.com/65535/49710355478_15296842f0_n.jpg",
    "id_album": "-1000175186",
    "description": "AngelWarrior_899564",
    "title": "AngelWarrior_899564",
    "link_img": "https://live.staticflickr.com/65535/49710355478_8b74fd50d2_o.jpg",
    "id_image": "AngelWarrior_899564",
    "count_view": 0
  },
  {
    "link_thumb": "https://live.staticflickr.com/65535/49711395221_d43f824ceb_n.jpg",
    "id_album": "850176884",
    "description": "Dragon_240782",
    "title": "Dragon_240782",
    "link_img": "https://live.staticflickr.com/65535/49711395221_8ba52880ae_o.jpg",
    "id_image": "Dragon_240782",
    "count_view": 0
  },
  {
    "link_thumb": "https://live.staticflickr.com/65535/49711234827_c152e81019_n.jpg",
    "id_album": "-1913845949",
    "description": "Animal_636074",
    "title": "Animal_636074",
    "link_img": "https://live.staticflickr.com/65535/49711234827_cc84576f73_o.jpg",
    "id_image": "Animal_636074",
    "count_view": 0
  },
  {
    "link_thumb": "https://live.staticflickr.com/65535/49711063736_55ca38f91a_n.jpg",
    "id_album": "-1541846310",
    "description": "Castle_878221",
    "title": "Castle_878221",
    "link_img": "https://live.staticflickr.com/65535/49711063736_2490326a65_o.jpg",
    "id_image": "Castle_878221",
    "count_view": 0
  },
  {
    "link_thumb": "https://live.staticflickr.com/65535/49711326626_094195b0e6_n.jpg",
    "id_album": "1903411565",
    "description": "Deer_546320",
    "title": "Deer_546320",
    "link_img": "https://live.staticflickr.com/65535/49711326626_ca5eb4ff35_o.jpg",
    "id_image": "Deer_546320",
    "count_view": 0
  },
  {
    "link_thumb": "https://live.staticflickr.com/65535/49712417747_94840249a5_n.jpg",
    "id_album": "1223576123",
    "description": "Ruin_677226",
    "title": "Ruin_677226",
    "link_img": "https://live.staticflickr.com/65535/49712417747_6f8ea18a5e_o.jpg",
    "id_image": "Ruin_677226",
    "count_view": 0
  },
  {
    "link_thumb": "https://live.staticflickr.com/65535/49712106841_9356c324db_n.jpg",
    "id_album": "-1611961467",
    "description": "Samurai_411852",
    "title": "Samurai_411852",
    "link_img": "https://live.staticflickr.com/65535/49712106841_cd275e393a_o.jpg",
    "id_image": "Samurai_411852",
    "count_view": 0
  },
  {
    "link_thumb": "https://live.staticflickr.com/65535/49711939907_a86e8b4f72_n.jpg",
    "id_album": "134100487",
    "description": "Elf_506362",
    "title": "Elf_506362",
    "link_img": "https://live.staticflickr.com/65535/49711939907_8177b78de9_o.jpg",
    "id_image": "Elf_506362",
    "count_view": 0
  },
  {
    "link_thumb": "https://live.staticflickr.com/65535/49712060057_f81c55865c_n.jpg",
    "id_album": "402434752",
    "description": "Giant_81275",
    "title": "Giant_81275",
    "link_img": "https://live.staticflickr.com/65535/49712060057_cb3bb0e5c3_o.jpg",
    "id_image": "Giant_81275",
    "count_view": 0
  },
  {
    "link_thumb": "https://live.staticflickr.com/65535/49711971411_7e8e50ffd2_n.jpg",
    "id_album": "-833110404",
    "description": "Landscape_559371",
    "title": "Landscape_559371",
    "link_img": "https://live.staticflickr.com/65535/49711971411_749daa0fc1_o.jpg",
    "id_image": "Landscape_559371",
    "count_view": 0
  },
  {
    "link_thumb": "https://live.staticflickr.com/65535/49710555808_d60440ca19_n.jpg",
    "id_album": "-1964113117",
    "description": "City_205234",
    "title": "City_205234",
    "link_img": "https://live.staticflickr.com/65535/49710555808_6cc8710d30_o.jpg",
    "id_image": "City_205234",
    "count_view": 0
  },
  {
    "link_thumb": "https://live.staticflickr.com/65535/49711400441_c8cedc4b05_n.jpg",
    "id_album": "850176884",
    "description": "Dragon_249383",
    "title": "Dragon_249383",
    "link_img": "https://live.staticflickr.com/65535/49711400441_fb0a96d0d3_o.jpg",
    "id_image": "Dragon_249383",
    "count_view": 0
  },
  {
    "link_thumb": "https://live.staticflickr.com/65535/49711671628_7d5a10e447_n.jpg",
    "id_album": "-1261420436",
    "description": "Warrior_383472",
    "title": "Warrior_383472",
    "link_img": "https://live.staticflickr.com/65535/49711671628_c43576f4d7_o.jpg",
    "id_image": "Warrior_383472",
    "count_view": 0
  },
  {
    "link_thumb": "https://live.staticflickr.com/65535/49711994561_779ece1e76_n.jpg",
    "id_album": "-1859457952",
    "description": "Love_283594",
    "title": "Love_283594",
    "link_img": "https://live.staticflickr.com/65535/49711994561_08fdb783b0_o.jpg",
    "id_image": "Love_283594",
    "count_view": 0
  },
  {
    "link_thumb": "https://live.staticflickr.com/65535/49710979223_eabd13b31e_n.jpg",
    "id_album": "850176884",
    "description": "Dragon_720211",
    "title": "Dragon_720211",
    "link_img": "https://live.staticflickr.com/65535/49710979223_c2c16720f7_o.jpg",
    "id_image": "Dragon_720211",
    "count_view": 0
  },
  {
    "link_thumb": "https://live.staticflickr.com/65535/49711956602_a91f8affcc_n.jpg",
    "id_album": "134100487",
    "description": "Elf_777816",
    "title": "Elf_777816",
    "link_img": "https://live.staticflickr.com/65535/49711956602_44e2a3e6f1_o.jpg",
    "id_image": "Elf_777816",
    "count_view": 0
  },
  {
    "link_thumb": "https://live.staticflickr.com/65535/49710730528_6536d63f0e_n.jpg",
    "id_album": "-437872736",
    "description": "Creature_764681",
    "title": "Creature_764681",
    "link_img": "https://live.staticflickr.com/65535/49710730528_8e2997a123_o.jpg",
    "id_image": "Creature_764681",
    "count_view": 0
  },
  {
    "link_thumb": "https://live.staticflickr.com/65535/49711400556_8f4a8cdba2_n.jpg",
    "id_album": "850176884",
    "description": "Dragon_249464",
    "title": "Dragon_249464",
    "link_img": "https://live.staticflickr.com/65535/49711400556_4c140c2cfe_o.jpg",
    "id_image": "Dragon_249464",
    "count_view": 0
  },
  {
    "link_thumb": "https://live.staticflickr.com/65535/49711579123_1594d14abd_n.jpg",
    "id_album": "-1611961467",
    "description": "Samurai_934644",
    "title": "Samurai_934644",
    "link_img": "https://live.staticflickr.com/65535/49711579123_e6a8dd2105_o.jpg",
    "id_image": "Samurai_934644",
    "count_view": 0
  },
  {
    "link_thumb": "https://live.staticflickr.com/65535/49712336957_0c85ca034f_n.jpg",
    "id_album": "-222719689",
    "description": "Men_249559",
    "title": "Men_249559",
    "link_img": "https://live.staticflickr.com/65535/49712336957_48a50f1d06_o.jpg",
    "id_image": "Men_249559",
    "count_view": 0
  },
  {
    "link_thumb": "https://live.staticflickr.com/65535/49711514657_01fbe0c7a5_n.jpg",
    "id_album": "-437872736",
    "description": "Creature_313364",
    "title": "Creature_313364",
    "link_img": "https://live.staticflickr.com/65535/49711514657_aedcabf31f_o.jpg",
    "id_image": "Creature_313364",
    "count_view": 0
  },
  {
    "link_thumb": "https://live.staticflickr.com/65535/49710604613_c9b5a166cf_n.jpg",
    "id_album": "-437872736",
    "description": "Creature_116359",
    "title": "Creature_116359",
    "link_img": "https://live.staticflickr.com/65535/49710604613_13369e8594_o.jpg",
    "id_image": "Creature_116359",
    "count_view": 0
  },
  {
    "link_thumb": "https://live.staticflickr.com/65535/49711819456_7c400ee233_n.jpg",
    "id_album": "1402713104",
    "description": "Landscape_783629",
    "title": "Landscape_783629",
    "link_img": "https://live.staticflickr.com/65535/49711819456_4a8b926a5c_o.jpg",
    "id_image": "Landscape_783629",
    "count_view": 0
  },
  {
    "link_thumb": "https://live.staticflickr.com/65535/49711105791_abe0423690_n.jpg",
    "id_album": "-1964113117",
    "description": "City_528597",
    "title": "City_528597",
    "link_img": "https://live.staticflickr.com/65535/49711105791_a0822d7a0b_o.jpg",
    "id_image": "City_528597",
    "count_view": 0
  },
  {
    "link_thumb": "https://live.staticflickr.com/65535/49711292566_7b83035169_n.jpg",
    "id_album": "-437872736",
    "description": "Creature_958882",
    "title": "Creature_958882",
    "link_img": "https://live.staticflickr.com/65535/49711292566_5fa86a3d28_o.jpg",
    "id_image": "Creature_958882",
    "count_view": 0
  },
  {
    "link_thumb": "https://live.staticflickr.com/65535/49710647708_bb94359cdb_n.jpg",
    "id_album": "-437872736",
    "description": "Creature_302919",
    "title": "Creature_302919",
    "link_img": "https://live.staticflickr.com/65535/49710647708_55e474a9ce_o.jpg",
    "id_image": "Creature_302919",
    "count_view": 0
  },
  {
    "link_thumb": "https://live.staticflickr.com/65535/49711726036_c1e6420651_n.jpg",
    "id_album": "-128218148",
    "description": "Fox_927681",
    "title": "Fox_927681",
    "link_img": "https://live.staticflickr.com/65535/49711726036_9d4998f0aa_o.jpg",
    "id_image": "Fox_927681",
    "count_view": 0
  },
  {
    "link_thumb": "https://live.staticflickr.com/65535/49711696473_1a2d614860_n.jpg",
    "id_album": "-1261420436",
    "description": "Warrior_901639",
    "title": "Warrior_901639",
    "link_img": "https://live.staticflickr.com/65535/49711696473_129b78ff56_o.jpg",
    "id_image": "Warrior_901639",
    "count_view": 0
  },
  {
    "link_thumb": "https://live.staticflickr.com/65535/49711556148_c36de690fb_n.jpg",
    "id_album": "606798642",
    "description": "RedRidingHood_854055",
    "title": "RedRidingHood_854055",
    "link_img": "https://live.staticflickr.com/65535/49711556148_1f8d70327e_o.jpg",
    "id_image": "RedRidingHood_854055",
    "count_view": 0
  },
  {
    "link_thumb": "https://live.staticflickr.com/65535/49711489817_136ea6ba19_n.jpg",
    "id_album": "-437872736",
    "description": "Creature_239886",
    "title": "Creature_239886",
    "link_img": "https://live.staticflickr.com/65535/49711489817_8ef8b36c7e_o.jpg",
    "id_image": "Creature_239886",
    "count_view": 0
  },
  {
    "link_thumb": "https://live.staticflickr.com/65535/49711777822_50d3e68492_n.jpg",
    "id_album": "850176884",
    "description": "Dragon_476382",
    "title": "Dragon_476382",
    "link_img": "https://live.staticflickr.com/65535/49711777822_03e8b14ff1_o.jpg",
    "id_image": "Dragon_476382",
    "count_view": 0
  },
  {
    "link_thumb": "https://live.staticflickr.com/65535/49710479173_0a633cb524_n.jpg",
    "id_album": "1187037014",
    "description": "Battle_926209",
    "title": "Battle_926209",
    "link_img": "https://live.staticflickr.com/65535/49710479173_117c097e87_o.jpg",
    "id_image": "Battle_926209",
    "count_view": 0
  },
  {
    "link_thumb": "https://live.staticflickr.com/65535/49711742923_fffce333d6_n.jpg",
    "id_album": "-709711865",
    "description": "Wolf_558910",
    "title": "Wolf_558910",
    "link_img": "https://live.staticflickr.com/65535/49711742923_3cc32d8a18_o.jpg",
    "id_image": "Wolf_558910",
    "count_view": 0
  },
  {
    "link_thumb": "https://live.staticflickr.com/65535/49711400062_cd00c7603b_n.jpg",
    "id_album": "-1741487325",
    "description": "Cat_995231",
    "title": "Cat_995231",
    "link_img": "https://live.staticflickr.com/65535/49711400062_32aaba9808_o.jpg",
    "id_image": "Cat_995231",
    "count_view": 0
  },
  {
    "link_thumb": "https://live.staticflickr.com/65535/49711965557_ce398fb03c_n.jpg",
    "id_album": "134100487",
    "description": "Elf_963975",
    "title": "Elf_963975",
    "link_img": "https://live.staticflickr.com/65535/49711965557_dc40bac1be_o.jpg",
    "id_image": "Elf_963975",
    "count_view": 0
  },
  {
    "link_thumb": "https://live.staticflickr.com/65535/49711084511_20922d5287_n.jpg",
    "id_album": "430704260",
    "description": "Child_919144",
    "title": "Child_919144",
    "link_img": "https://live.staticflickr.com/65535/49711084511_5ea514dd61_o.jpg",
    "id_image": "Child_919144",
    "count_view": 0
  },
  {
    "link_thumb": "https://live.staticflickr.com/65535/49711041098_94b25cce7a_n.jpg",
    "id_album": "850176884",
    "description": "Dragon_949822",
    "title": "Dragon_949822",
    "link_img": "https://live.staticflickr.com/65535/49711041098_07f24b27b0_o.jpg",
    "id_image": "Dragon_949822",
    "count_view": 0
  },
  {
    "link_thumb": "https://live.staticflickr.com/65535/49711693382_7690a1936a_n.jpg",
    "id_album": "850176884",
    "description": "Dragon_142045",
    "title": "Dragon_142045",
    "link_img": "https://live.staticflickr.com/65535/49711693382_0f0453c79e_o.jpg",
    "id_image": "Dragon_142045",
    "count_view": 0
  },
  {
    "link_thumb": "https://live.staticflickr.com/65535/49711376341_6df17362fb_n.jpg",
    "id_album": "850176884",
    "description": "Dragon_173316",
    "title": "Dragon_173316",
    "link_img": "https://live.staticflickr.com/65535/49711376341_67caa78e7c_o.jpg",
    "id_image": "Dragon_173316",
    "count_view": 0
  },
  {
    "link_thumb": "https://live.staticflickr.com/65535/49712011488_9714e193bf_n.jpg",
    "id_album": "-1675918237",
    "description": "WomenWarrior_232971",
    "title": "WomenWarrior_232971",
    "link_img": "https://live.staticflickr.com/65535/49712011488_bafbf35487_o.jpg",
    "id_image": "WomenWarrior_232971",
    "count_view": 0
  },
  {
    "link_thumb": "https://live.staticflickr.com/65535/49710504808_06da6f2d28_n.jpg",
    "id_album": "-1541846310",
    "description": "Castle_248499",
    "title": "Castle_248499",
    "link_img": "https://live.staticflickr.com/65535/49710504808_0d10194e06_o.jpg",
    "id_image": "Castle_248499",
    "count_view": 0
  },
  {
    "link_thumb": "https://live.staticflickr.com/65535/49711415321_ca35b9842f_n.jpg",
    "id_album": "850176884",
    "description": "Dragon_309822",
    "title": "Dragon_309822",
    "link_img": "https://live.staticflickr.com/65535/49711415321_a06798cd73_o.jpg",
    "id_image": "Dragon_309822",
    "count_view": 0
  },
  {
    "link_thumb": "https://live.staticflickr.com/65535/49710826323_6c16ff0eda_n.jpg",
    "id_album": "850176884",
    "description": "Dragon_122311",
    "title": "Dragon_122311",
    "link_img": "https://live.staticflickr.com/65535/49710826323_1a383f20c1_o.jpg",
    "id_image": "Dragon_122311",
    "count_view": 0
  },
  {
    "link_thumb": "https://live.staticflickr.com/65535/49711676713_b8de424720_n.jpg",
    "id_album": "-1261420436",
    "description": "Warrior_582405",
    "title": "Warrior_582405",
    "link_img": "https://live.staticflickr.com/65535/49711676713_e008bcaf7d_o.jpg",
    "id_image": "Warrior_582405",
    "count_view": 0
  },
  {
    "link_thumb": "https://live.staticflickr.com/65535/49711219441_9778f87738_n.jpg",
    "id_album": "-437872736",
    "description": "Creature_375734",
    "title": "Creature_375734",
    "link_img": "https://live.staticflickr.com/65535/49711219441_be89a3d647_o.jpg",
    "id_image": "Creature_375734",
    "count_view": 0
  },
  {
    "link_thumb": "https://live.staticflickr.com/65535/49911831918_3879f00015_n.jpg",
    "id_album": "-1703946758",
    "description": "ANIME_PIC_ade1a0fd92152cdfbc4e17f45040aa3c",
    "title": "ANIME_PIC_ade1a0fd92152cdfbc4e17f45040aa3c",
    "link_img": "https://live.staticflickr.com/65535/49911831918_c527b00ee9_o.jpg",
    "id_image": "ANIME_PIC_ade1a0fd92152cdfbc4e17f45040aa3c",
    "count_view": 0
  },
  {
    "link_thumb": "https://live.staticflickr.com/65535/49711536392_94bfaa9b8e_n.jpg",
    "id_album": "-437872736",
    "description": "Creature_342927",
    "title": "Creature_342927",
    "link_img": "https://live.staticflickr.com/65535/49711536392_498d50915a_o.jpg",
    "id_image": "Creature_342927",
    "count_view": 0
  },
  {
    "link_thumb": "https://live.staticflickr.com/65535/49712532762_514e018e5c_n.jpg",
    "id_album": "-1261420436",
    "description": "Warrior_552716",
    "title": "Warrior_552716",
    "link_img": "https://live.staticflickr.com/65535/49712532762_f055cd36f1_o.jpg",
    "id_image": "Warrior_552716",
    "count_view": 0
  },
  {
    "link_thumb": "https://live.staticflickr.com/65535/49711304221_675b793703_n.jpg",
    "id_album": "-437872736",
    "description": "Creature_958975",
    "title": "Creature_958975",
    "link_img": "https://live.staticflickr.com/65535/49711304221_ce9a9f7095_o.jpg",
    "id_image": "Creature_958975",
    "count_view": 0
  },
  {
    "link_thumb": "https://live.staticflickr.com/65535/49711049771_1c5688570d_n.jpg",
    "id_album": "-1541846310",
    "description": "Castle_600289",
    "title": "Castle_600289",
    "link_img": "https://live.staticflickr.com/65535/49711049771_b3a02fa05a_o.jpg",
    "id_image": "Castle_600289",
    "count_view": 0
  },
  {
    "link_thumb": "https://live.staticflickr.com/65535/49712533467_7f372566d2_n.jpg",
    "id_album": "-1261420436",
    "description": "Warrior_567037",
    "title": "Warrior_567037",
    "link_img": "https://live.staticflickr.com/65535/49712533467_c62117454f_o.jpg",
    "id_image": "Warrior_567037",
    "count_view": 0
  },
  {
    "link_thumb": "https://live.staticflickr.com/65535/49712077642_0e826cc2f3_n.jpg",
    "id_album": "857581314",
    "description": "Griffin_903638",
    "title": "Griffin_903638",
    "link_img": "https://live.staticflickr.com/65535/49712077642_18a106517f_o.jpg",
    "id_image": "Griffin_903638",
    "count_view": 0
  },
  {
    "link_thumb": "https://live.staticflickr.com/65535/49710854483_f5f3e41d19_n.jpg",
    "id_album": "850176884",
    "description": "Dragon_232105",
    "title": "Dragon_232105",
    "link_img": "https://live.staticflickr.com/65535/49710854483_e71b5101f6_o.jpg",
    "id_image": "Dragon_232105",
    "count_view": 0
  },
  {
    "link_thumb": "https://live.staticflickr.com/65535/49711218932_40f980d4ce_n.jpg",
    "id_album": "-1913845949",
    "description": "Animal_196503",
    "title": "Animal_196503",
    "link_img": "https://live.staticflickr.com/65535/49711218932_56545167ec_o.jpg",
    "id_image": "Animal_196503",
    "count_view": 0
  },
  {
    "link_thumb": "https://live.staticflickr.com/65535/49995075748_9848dcb530_n.jpg",
    "id_album": "-1703946758",
    "description": "ANIME_PIC_edc713485bc9f52b0ab811b668c942a4",
    "title": "ANIME_PIC_edc713485bc9f52b0ab811b668c942a4",
    "link_img": "https://live.staticflickr.com/65535/49995075748_e1ae11e7e8_o.jpg",
    "id_image": "ANIME_PIC_edc713485bc9f52b0ab811b668c942a4",
    "count_view": 0
  },
  {
    "link_thumb": "https://live.staticflickr.com/65535/49711863318_9ea4d97e73_n.jpg",
    "id_album": "295204930",
    "description": "Women_430771",
    "title": "Women_430771",
    "link_img": "https://live.staticflickr.com/65535/49711863318_5c53ff1f93_o.jpg",
    "id_image": "Women_430771",
    "count_view": 0
  },
  {
    "link_thumb": "https://live.staticflickr.com/65535/49711736027_b9992c6ded_n.jpg",
    "id_album": "850176884",
    "description": "Dragon_306970",
    "title": "Dragon_306970",
    "link_img": "https://live.staticflickr.com/65535/49711736027_d037ece931_o.jpg",
    "id_image": "Dragon_306970",
    "count_view": 0
  },
  {
    "link_thumb": "https://live.staticflickr.com/65535/49711202392_358cf76325_n.jpg",
    "id_album": "-1000175186",
    "description": "AngelWarrior_293462",
    "title": "AngelWarrior_293462",
    "link_img": "https://live.staticflickr.com/65535/49711202392_4323fe3897_o.jpg",
    "id_image": "AngelWarrior_293462",
    "count_view": 0
  },
  {
    "link_thumb": "https://live.staticflickr.com/65535/49711753601_e861a78f50_n.jpg",
    "id_album": "857581314",
    "description": "Griffin_611277",
    "title": "Griffin_611277",
    "link_img": "https://live.staticflickr.com/65535/49711753601_e003350cce_o.jpg",
    "id_image": "Griffin_611277",
    "count_view": 0
  },
  {
    "link_thumb": "https://live.staticflickr.com/65535/49711054796_e89bd81ba7_n.jpg",
    "id_album": "-1541846310",
    "description": "Castle_705143",
    "title": "Castle_705143",
    "link_img": "https://live.staticflickr.com/65535/49711054796_1b1464b4d5_o.jpg",
    "id_image": "Castle_705143",
    "count_view": 0
  },
  {
    "link_thumb": "https://live.staticflickr.com/65535/49711033161_abe355864e_n.jpg",
    "id_album": "-1541846310",
    "description": "Castle_153421",
    "title": "Castle_153421",
    "link_img": "https://live.staticflickr.com/65535/49711033161_7454802bb7_o.jpg",
    "id_image": "Castle_153421",
    "count_view": 0
  },
  {
    "link_thumb": "https://live.staticflickr.com/65535/49711574717_7959587859_n.jpg",
    "id_album": "-437872736",
    "description": "Creature_56876",
    "title": "Creature_56876",
    "link_img": "https://live.staticflickr.com/65535/49711574717_ca518d0300_o.jpg",
    "id_image": "Creature_56876",
    "count_view": 0
  },
  {
    "link_thumb": "https://live.staticflickr.com/65535/49711581833_1d2c03c1fa_n.jpg",
    "id_album": "407101116",
    "description": "SeaMonster_109537",
    "title": "SeaMonster_109537",
    "link_img": "https://live.staticflickr.com/65535/49711581833_d71fea7f9c_o.jpg",
    "id_image": "SeaMonster_109537",
    "count_view": 0
  },
  {
    "link_thumb": "https://live.staticflickr.com/65535/49712192961_7a22f5b24a_n.jpg",
    "id_album": "19263973",
    "description": "Viking_529250",
    "title": "Viking_529250",
    "link_img": "https://live.staticflickr.com/65535/49712192961_342e434a8f_o.jpg",
    "id_image": "Viking_529250",
    "count_view": 0
  },
  {
    "link_thumb": "https://live.staticflickr.com/65535/49712628642_c9dae4cd9d_n.jpg",
    "id_album": "-1126835654",
    "description": "Women_114231",
    "title": "Women_114231",
    "link_img": "https://live.staticflickr.com/65535/49712628642_d6a59272ed_o.jpg",
    "id_image": "Women_114231",
    "count_view": 0
  },
  {
    "link_thumb": "https://live.staticflickr.com/65535/49711357506_70877faa00_n.jpg",
    "id_album": "850176884",
    "description": "Dragon_118561",
    "title": "Dragon_118561",
    "link_img": "https://live.staticflickr.com/65535/49711357506_c4f7903849_o.jpg",
    "id_image": "Dragon_118561",
    "count_view": 0
  },
  {
    "link_thumb": "https://live.staticflickr.com/65535/49711318352_377364cd38_n.jpg",
    "id_album": "1187037014",
    "description": "Battle_333283",
    "title": "Battle_333283",
    "link_img": "https://live.staticflickr.com/65535/49711318352_421de24534_o.jpg",
    "id_image": "Battle_333283",
    "count_view": 0
  },
  {
    "link_thumb": "https://live.staticflickr.com/65535/49711228298_8138af6ba0_n.jpg",
    "id_album": "-1933715543",
    "description": "Horse_925241",
    "title": "Horse_925241",
    "link_img": "https://live.staticflickr.com/65535/49711228298_5ab67e8289_o.jpg",
    "id_image": "Horse_925241",
    "count_view": 0
  },
  {
    "link_thumb": "https://live.staticflickr.com/65535/49711490156_159d8b1015_n.jpg",
    "id_album": "850176884",
    "description": "Dragon_593856",
    "title": "Dragon_593856",
    "link_img": "https://live.staticflickr.com/65535/49711490156_a180d07f33_o.jpg",
    "id_image": "Dragon_593856",
    "count_view": 0
  },
  {
    "link_thumb": "https://live.staticflickr.com/65535/49711192726_ef983899fc_n.jpg",
    "id_album": "-437872736",
    "description": "Creature_320764",
    "title": "Creature_320764",
    "link_img": "https://live.staticflickr.com/65535/49711192726_8c9dfa3376_o.jpg",
    "id_image": "Creature_320764",
    "count_view": 0
  },
  {
    "link_thumb": "https://live.staticflickr.com/65535/49711479177_fca5d0f520_n.jpg",
    "id_album": "-437872736",
    "description": "Creature_184149",
    "title": "Creature_184149",
    "link_img": "https://live.staticflickr.com/65535/49711479177_b27a462c78_o.jpg",
    "id_image": "Creature_184149",
    "count_view": 0
  },
  {
    "link_thumb": "https://live.staticflickr.com/65535/49712796467_9518d95bc9_n.jpg",
    "id_album": "1861288871",
    "description": "Women_805726",
    "title": "Women_805726",
    "link_img": "https://live.staticflickr.com/65535/49712796467_f23d38ca47_o.jpg",
    "id_image": "Women_805726",
    "count_view": 0
  },
  {
    "link_thumb": "https://live.staticflickr.com/65535/49798809851_10d837e67a_n.jpg",
    "id_album": "-1703946758",
    "description": "ANIME_PIC_1c5307de2c56ac4a1f28dc6df2f07127",
    "title": "ANIME_PIC_1c5307de2c56ac4a1f28dc6df2f07127",
    "link_img": "https://live.staticflickr.com/65535/49798809851_b2de783894_o.jpg",
    "id_image": "ANIME_PIC_1c5307de2c56ac4a1f28dc6df2f07127",
    "count_view": 0
  },
  {
    "link_thumb": "https://live.staticflickr.com/65535/49711174133_b77e5d6c56_n.jpg",
    "id_album": "-1083189875",
    "description": "Forest_711460",
    "title": "Forest_711460",
    "link_img": "https://live.staticflickr.com/65535/49711174133_8201de6c62_o.jpg",
    "id_image": "Forest_711460",
    "count_view": 0
  },
  {
    "link_thumb": "https://live.staticflickr.com/65535/49710544863_482d068a16_n.jpg",
    "id_album": "430704260",
    "description": "Child_727578",
    "title": "Child_727578",
    "link_img": "https://live.staticflickr.com/65535/49710544863_68427256ea_o.jpg",
    "id_image": "Child_727578",
    "count_view": 0
  },
  {
    "link_thumb": "https://live.staticflickr.com/65535/49711906363_15ebae8c64_n.jpg",
    "id_album": "1861288871",
    "description": "Women_263786",
    "title": "Women_263786",
    "link_img": "https://live.staticflickr.com/65535/49711906363_45def95c17_o.jpg",
    "id_image": "Women_263786",
    "count_view": 0
  },
  {
    "link_thumb": "https://live.staticflickr.com/65535/49711471591_77daf4c3df_n.jpg",
    "id_album": "850176884",
    "description": "Dragon_522934",
    "title": "Dragon_522934",
    "link_img": "https://live.staticflickr.com/65535/49711471591_959be51f1d_o.jpg",
    "id_image": "Dragon_522934",
    "count_view": 0
  }
]