[
  {
    "link_thumb": "https://live.staticflickr.com/65535/49711296073_e4d9e415e9_n.jpg",
    "id_album": "1402713104",
    "description": "Landscape_861563",
    "title": "Landscape_861563",
    "link_img": "https://live.staticflickr.com/65535/49711296073_432a7098a6_o.jpg",
    "id_image": "Landscape_861563",
    "count_view": 0
  },
  {
    "link_thumb": "https://live.staticflickr.com/65535/49711269423_292cd7bfc2_n.jpg",
    "id_album": "1402713104",
    "description": "Landscape_697592",
    "title": "Landscape_697592",
    "link_img": "https://live.staticflickr.com/65535/49711269423_24f3935621_o.jpg",
    "id_image": "Landscape_697592",
    "count_view": 0
  },
  {
    "link_thumb": "https://live.staticflickr.com/65535/49712869672_5e5c34ed23_n.jpg",
    "id_album": "-1675918237",
    "description": "WomenWarrior_241603",
    "title": "WomenWarrior_241603",
    "link_img": "https://live.staticflickr.com/65535/49712869672_c6279a34c0_o.jpg",
    "id_image": "WomenWarrior_241603",
    "count_view": 0
  },
  {
    "link_thumb": "https://live.staticflickr.com/65535/49711311486_73b0d59427_n.jpg",
    "id_album": "2021464556",
    "description": "Dark_101613",
    "title": "Dark_101613",
    "link_img": "https://live.staticflickr.com/65535/49711311486_c6f2d9dafa_o.jpg",
    "id_image": "Dark_101613",
    "count_view": 0
  },
  {
    "link_thumb": "https://live.staticflickr.com/65535/49710908673_2409e20f3f_n.jpg",
    "id_album": "850176884",
    "description": "Dragon_429138",
    "title": "Dragon_429138",
    "link_img": "https://live.staticflickr.com/65535/49710908673_bccd760d65_o.jpg",
    "id_image": "Dragon_429138",
    "count_view": 0
  },
  {
    "link_thumb": "https://live.staticflickr.com/65535/49712961002_66c23b0faa_n.jpg",
    "id_album": "-1675918237",
    "description": "WomenWarrior_554349",
    "title": "WomenWarrior_554349",
    "link_img": "https://live.staticflickr.com/65535/49712961002_18bf9ae1d5_o.jpg",
    "id_image": "WomenWarrior_554349",
    "count_view": 0
  },
  {
    "link_thumb": "https://live.staticflickr.com/65535/49711589761_0049b1ae98_n.jpg",
    "id_album": "850176884",
    "description": "Dragon_984038",
    "title": "Dragon_984038",
    "link_img": "https://live.staticflickr.com/65535/49711589761_815b1d9a81_o.jpg",
    "id_image": "Dragon_984038",
    "count_view": 0
  },
  {
    "link_thumb": "https://live.staticflickr.com/65535/49711552416_f75cfb17b0_n.jpg",
    "id_album": "850176884",
    "description": "Dragon_894092",
    "title": "Dragon_894092",
    "link_img": "https://live.staticflickr.com/65535/49711552416_43e34fc9e4_o.jpg",
    "id_image": "Dragon_894092",
    "count_view": 0
  },
  {
    "link_thumb": "https://live.staticflickr.com/65535/49711689131_730697b8e9_n.jpg",
    "id_album": "-1083189875",
    "description": "Forest_145943",
    "title": "Forest_145943",
    "link_img": "https://live.staticflickr.com/65535/49711689131_bf904a42c8_o.jpg",
    "id_image": "Forest_145943",
    "count_view": 0
  },
  {
    "link_thumb": "https://live.staticflickr.com/65535/49711977002_97cd3e7702_n.jpg",
    "id_album": "-1972042284",
    "description": "Fairy_288636",
    "title": "Fairy_288636",
    "link_img": "https://live.staticflickr.com/65535/49711977002_4b07016905_o.jpg",
    "id_image": "Fairy_288636",
    "count_view": 0
  },
  {
    "link_thumb": "https://live.staticflickr.com/65535/49712624802_4a47634ac3_n.jpg",
    "id_album": "-362161606",
    "description": "WOMAN2610191652114",
    "title": "WOMAN2610191652114",
    "link_img": "https://live.staticflickr.com/65535/49712624802_8915aef2b3_o.jpg",
    "id_image": "WOMAN2610191652114",
    "count_view": 0
  },
  {
    "link_thumb": "https://live.staticflickr.com/65535/49712844667_81711abc02_n.jpg",
    "id_album": "-867594484",
    "description": "Women_610257",
    "title": "Women_610257",
    "link_img": "https://live.staticflickr.com/65535/49712844667_9941f60558_o.jpg",
    "id_image": "Women_610257",
    "count_view": 0
  },
  {
    "link_thumb": "https://live.staticflickr.com/65535/49712110987_f73869f363_n.jpg",
    "id_album": "469960528",
    "description": "Knight_872952",
    "title": "Knight_872952",
    "link_img": "https://live.staticflickr.com/65535/49712110987_44334979b2_o.jpg",
    "id_image": "Knight_872952",
    "count_view": 0
  },
  {
    "link_thumb": "https://live.staticflickr.com/65535/49710772928_87cd1327ba_n.jpg",
    "id_album": "-437872736",
    "description": "Creature_984496",
    "title": "Creature_984496",
    "link_img": "https://live.staticflickr.com/65535/49710772928_5c4eaf0afe_o.jpg",
    "id_image": "Creature_984496",
    "count_view": 0
  },
  {
    "link_thumb": "https://live.staticflickr.com/65535/49710982138_338855a727_n.jpg",
    "id_album": "850176884",
    "description": "Dragon_732346",
    "title": "Dragon_732346",
    "link_img": "https://live.staticflickr.com/65535/49710982138_0fa9d39a1b_o.jpg",
    "id_image": "Dragon_732346",
    "count_view": 0
  },
  {
    "link_thumb": "https://live.staticflickr.com/65535/49712727222_e0db094d84_n.jpg",
    "id_album": "295204930",
    "description": "Women_697679",
    "title": "Women_697679",
    "link_img": "https://live.staticflickr.com/65535/49712727222_a196547f51_o.jpg",
    "id_image": "Women_697679",
    "count_view": 0
  },
  {
    "link_thumb": "https://live.staticflickr.com/65535/49712091642_de95a0a3a4_n.jpg",
    "id_album": "1957967226",
    "description": "House_681179",
    "title": "House_681179",
    "link_img": "https://live.staticflickr.com/65535/49712091642_1b8f571df2_o.jpg",
    "id_image": "House_681179",
    "count_view": 0
  },
  {
    "link_thumb": "https://live.staticflickr.com/65535/49710785163_c06c01d7de_n.jpg",
    "id_album": "2021464556",
    "description": "Dark_681019",
    "title": "Dark_681019",
    "link_img": "https://live.staticflickr.com/65535/49710785163_5d1f94b7fd_o.jpg",
    "id_image": "Dark_681019",
    "count_view": 0
  },
  {
    "link_thumb": "https://live.staticflickr.com/65535/49710833208_76e3c92750_n.jpg",
    "id_album": "850176884",
    "description": "Dragon_140173",
    "title": "Dragon_140173",
    "link_img": "https://live.staticflickr.com/65535/49710833208_5ccc8b4a62_o.jpg",
    "id_image": "Dragon_140173",
    "count_view": 0
  },
  {
    "link_thumb": "https://live.staticflickr.com/65535/49712084701_cb71afc30d_n.jpg",
    "id_album": "1587588550",
    "description": "Place_221043",
    "title": "Place_221043",
    "link_img": "https://live.staticflickr.com/65535/49712084701_8293f7d701_o.jpg",
    "id_image": "Place_221043",
    "count_view": 0
  },
  {
    "link_thumb": "https://live.staticflickr.com/65535/49798845836_8acf621c7a_n.jpg",
    "id_album": "-1703946758",
    "description": "ANIME_PIC_e76fde923cd979b454cacd3ce4865cc5",
    "title": "ANIME_PIC_e76fde923cd979b454cacd3ce4865cc5",
    "link_img": "https://live.staticflickr.com/65535/49798845836_097a2530dc_o.jpg",
    "id_image": "ANIME_PIC_e76fde923cd979b454cacd3ce4865cc5",
    "count_view": 0
  },
  {
    "link_thumb": "https://live.staticflickr.com/65535/49711266956_9a3dcb4f23_n.jpg",
    "id_album": "-437872736",
    "description": "Creature_778721",
    "title": "Creature_778721",
    "link_img": "https://live.staticflickr.com/65535/49711266956_348c24940b_o.jpg",
    "id_image": "Creature_778721",
    "count_view": 0
  },
  {
    "link_thumb": "https://live.staticflickr.com/65535/49712628062_dc15061246_n.jpg",
    "id_album": "-1126835654",
    "description": "Women_114198",
    "title": "Women_114198",
    "link_img": "https://live.staticflickr.com/65535/49712628062_99e7aaf935_o.jpg",
    "id_image": "Women_114198",
    "count_view": 0
  },
  {
    "link_thumb": "https://live.staticflickr.com/65535/49711348166_aa1ea366c2_n.jpg",
    "id_album": "850176884",
    "description": "DRAGON26101916495932",
    "title": "DRAGON26101916495932",
    "link_img": "https://live.staticflickr.com/65535/49711348166_1424512a11_o.jpg",
    "id_image": "DRAGON26101916495932",
    "count_view": 0
  },
  {
    "link_thumb": "https://live.staticflickr.com/65535/49711356407_2062db5e10_n.jpg",
    "id_album": "-1541846310",
    "description": "Castle_146497",
    "title": "Castle_146497",
    "link_img": "https://live.staticflickr.com/65535/49711356407_82b7ef4378_o.jpg",
    "id_image": "Castle_146497",
    "count_view": 0
  },
  {
    "link_thumb": "https://live.staticflickr.com/65535/49711924458_2f22c465fb_n.jpg",
    "id_album": "1861288871",
    "description": "Women_764840",
    "title": "Women_764840",
    "link_img": "https://live.staticflickr.com/65535/49711924458_d339c5462c_o.jpg",
    "id_image": "Women_764840",
    "count_view": 0
  },
  {
    "link_thumb": "https://live.staticflickr.com/65535/49711138411_48f2ec2189_n.jpg",
    "id_album": "-437872736",
    "description": "Creature_108955",
    "title": "Creature_108955",
    "link_img": "https://live.staticflickr.com/65535/49711138411_0320f57731_o.jpg",
    "id_image": "Creature_108955",
    "count_view": 0
  },
  {
    "link_thumb": "https://live.staticflickr.com/65535/49711326733_192625ebcb_n.jpg",
    "id_album": "1402713104",
    "description": "Landscape_938633",
    "title": "Landscape_938633",
    "link_img": "https://live.staticflickr.com/65535/49711326733_9537189b93_o.jpg",
    "id_image": "Landscape_938633",
    "count_view": 0
  },
  {
    "link_thumb": "https://live.staticflickr.com/65535/49712161832_b8d5d9718b_n.jpg",
    "id_album": "1402713104",
    "description": "Landscape_866895",
    "title": "Landscape_866895",
    "link_img": "https://live.staticflickr.com/65535/49712161832_8d14bf756f_o.jpg",
    "id_image": "Landscape_866895",
    "count_view": 0
  },
  {
    "link_thumb": "https://live.staticflickr.com/65535/49712756192_6f76f70146_n.jpg",
    "id_album": "1861288871",
    "description": "Women_208448",
    "title": "Women_208448",
    "link_img": "https://live.staticflickr.com/65535/49712756192_49a6352e56_o.jpg",
    "id_image": "Women_208448",
    "count_view": 0
  },
  {
    "link_thumb": "https://live.staticflickr.com/65535/49711580981_cb1b39ae9f_n.jpg",
    "id_album": "850176884",
    "description": "Dragon_96628",
    "title": "Dragon_96628",
    "link_img": "https://live.staticflickr.com/65535/49711580981_ecda80b060_o.jpg",
    "id_image": "Dragon_96628",
    "count_view": 0
  },
  {
    "link_thumb": "https://live.staticflickr.com/65535/49712128933_e8a4e32442_n.jpg",
    "id_album": "-1675918237",
    "description": "WomenWarrior_737935",
    "title": "WomenWarrior_737935",
    "link_img": "https://live.staticflickr.com/65535/49712128933_16e3e2108c_o.jpg",
    "id_image": "WomenWarrior_737935",
    "count_view": 0
  },
  {
    "link_thumb": "https://live.staticflickr.com/65535/49711274007_4cdfc93771_n.jpg",
    "id_album": "523598895",
    "description": "Artistic_196162",
    "title": "Artistic_196162",
    "link_img": "https://live.staticflickr.com/65535/49711274007_f2a8a36a0e_o.jpg",
    "id_image": "Artistic_196162",
    "count_view": 0
  },
  {
    "link_thumb": "https://live.staticflickr.com/65535/49710730528_6536d63f0e_n.jpg",
    "id_album": "-437872736",
    "description": "Creature_764681",
    "title": "Creature_764681",
    "link_img": "https://live.staticflickr.com/65535/49710730528_8e2997a123_o.jpg",
    "id_image": "Creature_764681",
    "count_view": 0
  },
  {
    "link_thumb": "https://live.staticflickr.com/65535/49711356126_d823e52df0_n.jpg",
    "id_album": "850176884",
    "description": "Dragon_115202",
    "title": "Dragon_115202",
    "link_img": "https://live.staticflickr.com/65535/49711356126_ecbfe85474_o.jpg",
    "id_image": "Dragon_115202",
    "count_view": 0
  },
  {
    "link_thumb": "https://live.staticflickr.com/65535/49712597036_2650764c8f_n.jpg",
    "id_album": "-1675918237",
    "description": "WomenWarrior_455988",
    "title": "WomenWarrior_455988",
    "link_img": "https://live.staticflickr.com/65535/49712597036_127abb1b06_o.jpg",
    "id_image": "WomenWarrior_455988",
    "count_view": 0
  },
  {
    "link_thumb": "https://live.staticflickr.com/65535/49711728451_d87bf3309d_n.jpg",
    "id_album": "402434752",
    "description": "Giant_114000",
    "title": "Giant_114000",
    "link_img": "https://live.staticflickr.com/65535/49711728451_a8a6f5a5cb_o.jpg",
    "id_image": "Giant_114000",
    "count_view": 0
  },
  {
    "link_thumb": "https://live.staticflickr.com/65535/49711210306_dd2e339aaa_n.jpg",
    "id_album": "-437872736",
    "description": "Creature_343960",
    "title": "Creature_343960",
    "link_img": "https://live.staticflickr.com/65535/49711210306_1384aa095e_o.jpg",
    "id_image": "Creature_343960",
    "count_view": 0
  },
  {
    "link_thumb": "https://live.staticflickr.com/65535/49710941146_6a9003fec2_n.jpg",
    "id_album": "523598895",
    "description": "Artistic_122702",
    "title": "Artistic_122702",
    "link_img": "https://live.staticflickr.com/65535/49710941146_07aa344818_o.jpg",
    "id_image": "Artistic_122702",
    "count_view": 0
  },
  {
    "link_thumb": "https://live.staticflickr.com/65535/49711907962_7bb8ccaeba_n.jpg",
    "id_album": "850176884",
    "description": "Dragon_975734",
    "title": "Dragon_975734",
    "link_img": "https://live.staticflickr.com/65535/49711907962_a780030023_o.jpg",
    "id_image": "Dragon_975734",
    "count_view": 0
  },
  {
    "link_thumb": "https://live.staticflickr.com/65535/49710445643_91637147b1_n.jpg",
    "id_album": "523598895",
    "description": "Artistic_75741",
    "title": "Artistic_75741",
    "link_img": "https://live.staticflickr.com/65535/49710445643_77e70c7522_o.jpg",
    "id_image": "Artistic_75741",
    "count_view": 0
  },
  {
    "link_thumb": "https://live.staticflickr.com/65535/49711350558_6f60a4ecf4_n.jpg",
    "id_album": "1402713104",
    "description": "Landscape_994582",
    "title": "Landscape_994582",
    "link_img": "https://live.staticflickr.com/65535/49711350558_0d55e0d679_o.jpg",
    "id_image": "Landscape_994582",
    "count_view": 0
  },
  {
    "link_thumb": "https://live.staticflickr.com/65535/49711635073_aa9e340e21_n.jpg",
    "id_album": "46520366",
    "description": "Turtle_225722",
    "title": "Turtle_225722",
    "link_img": "https://live.staticflickr.com/65535/49711635073_de90035423_o.jpg",
    "id_image": "Turtle_225722",
    "count_view": 0
  },
  {
    "link_thumb": "https://live.staticflickr.com/65535/49711336007_00603d5cb3_n.jpg",
    "id_album": "1187037014",
    "description": "Battle_888588",
    "title": "Battle_888588",
    "link_img": "https://live.staticflickr.com/65535/49711336007_5c35c5bb6c_o.jpg",
    "id_image": "Battle_888588",
    "count_view": 0
  },
  {
    "link_thumb": "https://live.staticflickr.com/65535/49711873783_8bea32dd65_n.jpg",
    "id_album": "295204930",
    "description": "Women_704774",
    "title": "Women_704774",
    "link_img": "https://live.staticflickr.com/65535/49711873783_4916f34629_o.jpg",
    "id_image": "Women_704774",
    "count_view": 0
  },
  {
    "link_thumb": "https://live.staticflickr.com/65535/49710695233_dc1efaf077_n.jpg",
    "id_album": "-437872736",
    "description": "Creature_447622",
    "title": "Creature_447622",
    "link_img": "https://live.staticflickr.com/65535/49710695233_3d77c9f075_o.jpg",
    "id_image": "Creature_447622",
    "count_view": 0
  },
  {
    "link_thumb": "https://live.staticflickr.com/65535/49711614363_5880d55c34_n.jpg",
    "id_album": "1209361954",
    "description": "Sylvan_419374",
    "title": "Sylvan_419374",
    "link_img": "https://live.staticflickr.com/65535/49711614363_1d4aea178c_o.jpg",
    "id_image": "Sylvan_419374",
    "count_view": 0
  },
  {
    "link_thumb": "https://live.staticflickr.com/65535/49711178423_4f5a089594_n.jpg",
    "id_album": "-1083189875",
    "description": "Forest_827404",
    "title": "Forest_827404",
    "link_img": "https://live.staticflickr.com/65535/49711178423_9e00c37e40_o.jpg",
    "id_image": "Forest_827404",
    "count_view": 0
  },
  {
    "link_thumb": "https://live.staticflickr.com/65535/49711664773_40a495b705_n.jpg",
    "id_album": "-1261420436",
    "description": "Warrior_220341",
    "title": "Warrior_220341",
    "link_img": "https://live.staticflickr.com/65535/49711664773_87556c56da_o.jpg",
    "id_image": "Warrior_220341",
    "count_view": 0
  },
  {
    "link_thumb": "https://live.staticflickr.com/65535/49711149083_21200ecbfa_n.jpg",
    "id_album": "-1972042284",
    "description": "Fairy_874996",
    "title": "Fairy_874996",
    "link_img": "https://live.staticflickr.com/65535/49711149083_4ea4027397_o.jpg",
    "id_image": "Fairy_874996",
    "count_view": 0
  },
  {
    "link_thumb": "https://live.staticflickr.com/65535/49711434652_7ab5aeb1f3_n.jpg",
    "id_album": "-1964113117",
    "description": "City_665328",
    "title": "City_665328",
    "link_img": "https://live.staticflickr.com/65535/49711434652_bdaeb1b056_o.jpg",
    "id_image": "City_665328",
    "count_view": 0
  },
  {
    "link_thumb": "https://live.staticflickr.com/65535/49711367877_57a258b1c4_n.jpg",
    "id_album": "-1541846310",
    "description": "Castle_375443",
    "title": "Castle_375443",
    "link_img": "https://live.staticflickr.com/65535/49711367877_144163af28_o.jpg",
    "id_image": "Castle_375443",
    "count_view": 0
  },
  {
    "link_thumb": "https://live.staticflickr.com/65535/49711008773_7070740d00_n.jpg",
    "id_album": "850176884",
    "description": "Dragon_871436",
    "title": "Dragon_871436",
    "link_img": "https://live.staticflickr.com/65535/49711008773_9425c3f70a_o.jpg",
    "id_image": "Dragon_871436",
    "count_view": 0
  },
  {
    "link_thumb": "https://live.staticflickr.com/65535/49711852516_f6f3f4f7a1_n.jpg",
    "id_album": "1402713104",
    "description": "Landscape_898728",
    "title": "Landscape_898728",
    "link_img": "https://live.staticflickr.com/65535/49711852516_349b20b966_o.jpg",
    "id_image": "Landscape_898728",
    "count_view": 0
  },
  {
    "link_thumb": "https://live.staticflickr.com/65535/49711728957_e697859a8f_n.jpg",
    "id_album": "850176884",
    "description": "Dragon_270903",
    "title": "Dragon_270903",
    "link_img": "https://live.staticflickr.com/65535/49711728957_bdb9637d91_o.jpg",
    "id_image": "Dragon_270903",
    "count_view": 0
  },
  {
    "link_thumb": "https://live.staticflickr.com/65535/49711476036_a38be026ab_n.jpg",
    "id_album": "850176884",
    "description": "Dragon_534066",
    "title": "Dragon_534066",
    "link_img": "https://live.staticflickr.com/65535/49711476036_543ff5e0d2_o.jpg",
    "id_image": "Dragon_534066",
    "count_view": 0
  },
  {
    "link_thumb": "https://live.staticflickr.com/65535/49711870052_af472a10b4_n.jpg",
    "id_album": "850176884",
    "description": "Dragon_878059",
    "title": "Dragon_878059",
    "link_img": "https://live.staticflickr.com/65535/49711870052_18ca7b5dd8_o.jpg",
    "id_image": "Dragon_878059",
    "count_view": 0
  },
  {
    "link_thumb": "https://live.staticflickr.com/65535/49711391057_2a5a44741b_n.jpg",
    "id_album": "-1541846310",
    "description": "Castle_907768",
    "title": "Castle_907768",
    "link_img": "https://live.staticflickr.com/65535/49711391057_c385019587_o.jpg",
    "id_image": "Castle_907768",
    "count_view": 0
  },
  {
    "link_thumb": "https://live.staticflickr.com/65535/49710527558_cc46bfb6a8_n.jpg",
    "id_album": "-1541846310",
    "description": "Castle_869188",
    "title": "Castle_869188",
    "link_img": "https://live.staticflickr.com/65535/49710527558_87f39eef02_o.jpg",
    "id_image": "Castle_869188",
    "count_view": 0
  },
  {
    "link_thumb": "https://live.staticflickr.com/65535/49711159606_f1fedd1be0_n.jpg",
    "id_album": "-437872736",
    "description": "Creature_221438",
    "title": "Creature_221438",
    "link_img": "https://live.staticflickr.com/65535/49711159606_078a68c8ae_o.jpg",
    "id_image": "Creature_221438",
    "count_view": 0
  },
  {
    "link_thumb": "https://live.staticflickr.com/65535/49711515847_b2cc39878d_n.jpg",
    "id_album": "-437872736",
    "description": "Creature_315079",
    "title": "Creature_315079",
    "link_img": "https://live.staticflickr.com/65535/49711515847_cd3fa019b0_o.jpg",
    "id_image": "Creature_315079",
    "count_view": 0
  },
  {
    "link_thumb": "https://live.staticflickr.com/65535/49711420191_1b3a3fec08_n.jpg",
    "id_album": "850176884",
    "description": "Dragon_323480",
    "title": "Dragon_323480",
    "link_img": "https://live.staticflickr.com/65535/49711420191_87b7437799_o.jpg",
    "id_image": "Dragon_323480",
    "count_view": 0
  },
  {
    "link_thumb": "https://live.staticflickr.com/65535/49711542797_85d18daf59_n.jpg",
    "id_album": "-437872736",
    "description": "Creature_370366",
    "title": "Creature_370366",
    "link_img": "https://live.staticflickr.com/65535/49711542797_5766db28d2_o.jpg",
    "id_image": "Creature_370366",
    "count_view": 0
  },
  {
    "link_thumb": "https://live.staticflickr.com/65535/49712479327_98c29e1aa3_n.jpg",
    "id_album": "405170427",
    "description": "Tiger_364128",
    "title": "Tiger_364128",
    "link_img": "https://live.staticflickr.com/65535/49712479327_1cd0cd0a6b_o.jpg",
    "id_image": "Tiger_364128",
    "count_view": 0
  },
  {
    "link_thumb": "https://live.staticflickr.com/65535/49711385616_59ba8bce3c_n.jpg",
    "id_album": "850176884",
    "description": "Dragon_208699",
    "title": "Dragon_208699",
    "link_img": "https://live.staticflickr.com/65535/49711385616_257fa7178e_o.jpg",
    "id_image": "Dragon_208699",
    "count_view": 0
  },
  {
    "link_thumb": "https://live.staticflickr.com/65535/49711094366_c896e77040_n.jpg",
    "id_album": "-1964113117",
    "description": "City_287774",
    "title": "City_287774",
    "link_img": "https://live.staticflickr.com/65535/49711094366_e5df01a76f_o.jpg",
    "id_image": "City_287774",
    "count_view": 0
  },
  {
    "link_thumb": "https://live.staticflickr.com/65535/49711993393_b4dcffb339_n.jpg",
    "id_album": "-867594484",
    "description": "Women_659604",
    "title": "Women_659604",
    "link_img": "https://live.staticflickr.com/65535/49711993393_214c17d64d_o.jpg",
    "id_image": "Women_659604",
    "count_view": 0
  },
  {
    "link_thumb": "https://live.staticflickr.com/65535/49712414542_ae318e00d3_n.jpg",
    "id_album": "606798642",
    "description": "RedRidingHood_902711",
    "title": "RedRidingHood_902711",
    "link_img": "https://live.staticflickr.com/65535/49712414542_8863ec0258_o.jpg",
    "id_image": "RedRidingHood_902711",
    "count_view": 0
  },
  {
    "link_thumb": "https://live.staticflickr.com/65535/49711663748_f95114c632_n.jpg",
    "id_album": "-1261420436",
    "description": "Warrior_188381",
    "title": "Warrior_188381",
    "link_img": "https://live.staticflickr.com/65535/49711663748_53019f2ee6_o.jpg",
    "id_image": "Warrior_188381",
    "count_view": 0
  },
  {
    "link_thumb": "https://live.staticflickr.com/65535/49712090832_c545d798e6_n.jpg",
    "id_album": "1957967226",
    "description": "House_676829",
    "title": "House_676829",
    "link_img": "https://live.staticflickr.com/65535/49712090832_4a54b39524_o.jpg",
    "id_image": "House_676829",
    "count_view": 0
  },
  {
    "link_thumb": "https://live.staticflickr.com/65535/49711342081_0759f7e13a_n.jpg",
    "id_album": "7198985",
    "description": "Demon_805231",
    "title": "Demon_805231",
    "link_img": "https://live.staticflickr.com/65535/49711342081_58bfb0f3ff_o.jpg",
    "id_image": "Demon_805231",
    "count_view": 0
  },
  {
    "link_thumb": "https://live.staticflickr.com/65535/49710989891_99fdea0f7e_n.jpg",
    "id_album": "1187037014",
    "description": "Battle_291387",
    "title": "Battle_291387",
    "link_img": "https://live.staticflickr.com/65535/49710989891_05f161af55_o.jpg",
    "id_image": "Battle_291387",
    "count_view": 0
  },
  {
    "link_thumb": "https://live.staticflickr.com/65535/49711907037_634243026b_n.jpg",
    "id_album": "850176884",
    "description": "Dragon_974463",
    "title": "Dragon_974463",
    "link_img": "https://live.staticflickr.com/65535/49711907037_0015d3cb77_o.jpg",
    "id_image": "Dragon_974463",
    "count_view": 0
  },
  {
    "link_thumb": "https://live.staticflickr.com/65535/49711574717_7959587859_n.jpg",
    "id_album": "-437872736",
    "description": "Creature_56876",
    "title": "Creature_56876",
    "link_img": "https://live.staticflickr.com/65535/49711574717_ca518d0300_o.jpg",
    "id_image": "Creature_56876",
    "count_view": 0
  },
  {
    "link_thumb": "https://live.staticflickr.com/65535/49711837121_96ae312279_n.jpg",
    "id_album": "1402713104",
    "description": "Landscape_864949",
    "title": "Landscape_864949",
    "link_img": "https://live.staticflickr.com/65535/49711837121_fc89c9f17c_o.jpg",
    "id_image": "Landscape_864949",
    "count_view": 0
  },
  {
    "link_thumb": "https://live.staticflickr.com/65535/49710383913_0a57ded825_n.jpg",
    "id_album": "-1913845949",
    "description": "Animal_843351",
    "title": "Animal_843351",
    "link_img": "https://live.staticflickr.com/65535/49710383913_7021c2ebfa_o.jpg",
    "id_image": "Animal_843351",
    "count_view": 0
  },
  {
    "link_thumb": "https://live.staticflickr.com/65535/49711055498_b74c161eef_n.jpg",
    "id_album": "850176884",
    "description": "Dragon_982826",
    "title": "Dragon_982826",
    "link_img": "https://live.staticflickr.com/65535/49711055498_742c54a0aa_o.jpg",
    "id_image": "Dragon_982826",
    "count_view": 0
  },
  {
    "link_thumb": "https://live.staticflickr.com/65535/49712346077_067e55a732_n.jpg",
    "id_album": "1721880108",
    "description": "Mermaid_116164",
    "title": "Mermaid_116164",
    "link_img": "https://live.staticflickr.com/65535/49712346077_8cac4dd839_o.jpg",
    "id_image": "Mermaid_116164",
    "count_view": 0
  },
  {
    "link_thumb": "https://live.staticflickr.com/65535/49711238976_cb41bf4e88_n.jpg",
    "id_album": "-437872736",
    "description": "Creature_511377",
    "title": "Creature_511377",
    "link_img": "https://live.staticflickr.com/65535/49711238976_d24edb0375_o.jpg",
    "id_image": "Creature_511377",
    "count_view": 0
  },
  {
    "link_thumb": "https://live.staticflickr.com/65535/49711721136_264998e933_n.jpg",
    "id_album": "-1083189875",
    "description": "Forest_96360",
    "title": "Forest_96360",
    "link_img": "https://live.staticflickr.com/65535/49711721136_452bec2d5a_o.jpg",
    "id_image": "Forest_96360",
    "count_view": 0
  },
  {
    "link_thumb": "https://live.staticflickr.com/65535/49711556706_8074c00c17_n.jpg",
    "id_album": "850176884",
    "description": "Dragon_906355",
    "title": "Dragon_906355",
    "link_img": "https://live.staticflickr.com/65535/49711556706_6e0cda9618_o.jpg",
    "id_image": "Dragon_906355",
    "count_view": 0
  },
  {
    "link_thumb": "https://live.staticflickr.com/65535/49711194411_4f9901ba84_n.jpg",
    "id_album": "-437872736",
    "description": "Creature_322717",
    "title": "Creature_322717",
    "link_img": "https://live.staticflickr.com/65535/49711194411_8aceb324d5_o.jpg",
    "id_image": "Creature_322717",
    "count_view": 0
  },
  {
    "link_thumb": "https://live.staticflickr.com/65535/49711696437_5026d0ece7_n.jpg",
    "id_album": "850176884",
    "description": "Dragon_150976",
    "title": "Dragon_150976",
    "link_img": "https://live.staticflickr.com/65535/49711696437_689bc144b4_o.jpg",
    "id_image": "Dragon_150976",
    "count_view": 0
  },
  {
    "link_thumb": "https://live.staticflickr.com/65535/49711315336_60978a6281_n.jpg",
    "id_album": "2021464556",
    "description": "Dark_206136",
    "title": "Dark_206136",
    "link_img": "https://live.staticflickr.com/65535/49711315336_1f5310292b_o.jpg",
    "id_image": "Dark_206136",
    "count_view": 0
  },
  {
    "link_thumb": "https://live.staticflickr.com/65535/49711685817_ddf878317a_n.jpg",
    "id_album": "850176884",
    "description": "Dragon_122314",
    "title": "Dragon_122314",
    "link_img": "https://live.staticflickr.com/65535/49711685817_a3238e8108_o.jpg",
    "id_image": "Dragon_122314",
    "count_view": 0
  },
  {
    "link_thumb": "https://live.staticflickr.com/65535/49711793522_24cff817c6_n.jpg",
    "id_album": "850176884",
    "description": "Dragon_525073",
    "title": "Dragon_525073",
    "link_img": "https://live.staticflickr.com/65535/49711793522_278caf93fd_o.jpg",
    "id_image": "Dragon_525073",
    "count_view": 0
  },
  {
    "link_thumb": "https://live.staticflickr.com/65535/49712227851_5462a3810b_n.jpg",
    "id_album": "-1261420436",
    "description": "Warrior_876290",
    "title": "Warrior_876290",
    "link_img": "https://live.staticflickr.com/65535/49712227851_2866ac9fd3_o.jpg",
    "id_image": "Warrior_876290",
    "count_view": 0
  },
  {
    "link_thumb": "https://live.staticflickr.com/65535/49803120972_74c8960b16_n.jpg",
    "id_album": "-1703946758",
    "description": "ANIME_PIC_16ee79eba721d8fc0ec4b06921a08d2d",
    "title": "ANIME_PIC_16ee79eba721d8fc0ec4b06921a08d2d",
    "link_img": "https://live.staticflickr.com/65535/49803120972_f2c00021f7_o.jpg",
    "id_image": "ANIME_PIC_16ee79eba721d8fc0ec4b06921a08d2d",
    "count_view": 0
  },
  {
    "link_thumb": "https://live.staticflickr.com/65535/49711179261_2bb56c8157_n.jpg",
    "id_album": "-437872736",
    "description": "Creature_297801",
    "title": "Creature_297801",
    "link_img": "https://live.staticflickr.com/65535/49711179261_db32882baf_o.jpg",
    "id_image": "Creature_297801",
    "count_view": 0
  },
  {
    "link_thumb": "https://live.staticflickr.com/65535/49711518007_6004af642c_n.jpg",
    "id_album": "-437872736",
    "description": "Creature_320200",
    "title": "Creature_320200",
    "link_img": "https://live.staticflickr.com/65535/49711518007_bba8314dc6_o.jpg",
    "id_image": "Creature_320200",
    "count_view": 0
  },
  {
    "link_thumb": "https://live.staticflickr.com/65535/49711573057_3016113b1b_n.jpg",
    "id_album": "-437872736",
    "description": "Creature_560222",
    "title": "Creature_560222",
    "link_img": "https://live.staticflickr.com/65535/49711573057_dd8d8eec3f_o.jpg",
    "id_image": "Creature_560222",
    "count_view": 0
  },
  {
    "link_thumb": "https://live.staticflickr.com/65535/49710926113_a26f8d9f16_n.jpg",
    "id_album": "850176884",
    "description": "Dragon_493976",
    "title": "Dragon_493976",
    "link_img": "https://live.staticflickr.com/65535/49710926113_159f994bbe_o.jpg",
    "id_image": "Dragon_493976",
    "count_view": 0
  },
  {
    "link_thumb": "https://live.staticflickr.com/65535/49712511722_7daa7e6cb0_n.jpg",
    "id_album": "43335239",
    "description": "Vampire_695010",
    "title": "Vampire_695010",
    "link_img": "https://live.staticflickr.com/65535/49712511722_601f6aac35_o.jpg",
    "id_image": "Vampire_695010",
    "count_view": 0
  },
  {
    "link_thumb": "https://live.staticflickr.com/65535/49712219137_0253a1ec5e_n.jpg",
    "id_album": "-833110404",
    "description": "Landscape_239871",
    "title": "Landscape_239871",
    "link_img": "https://live.staticflickr.com/65535/49712219137_6990880cae_o.jpg",
    "id_image": "Landscape_239871",
    "count_view": 0
  },
  {
    "link_thumb": "https://live.staticflickr.com/65535/49711518113_3bc04dbeec_n.jpg",
    "id_album": "-1862561193",
    "description": "Other_142713",
    "title": "Other_142713",
    "link_img": "https://live.staticflickr.com/65535/49711518113_6c75df14b2_o.jpg",
    "id_image": "Other_142713",
    "count_view": 0
  },
  {
    "link_thumb": "https://live.staticflickr.com/65535/49711266791_9bccfc2cf2_n.jpg",
    "id_album": "-437872736",
    "description": "Creature_778720",
    "title": "Creature_778720",
    "link_img": "https://live.staticflickr.com/65535/49711266791_9cd312bb5b_o.jpg",
    "id_image": "Creature_778720",
    "count_view": 0
  },
  {
    "link_thumb": "https://live.staticflickr.com/65535/49798257483_557406473d_n.jpg",
    "id_album": "-1703946758",
    "description": "ANIME_PIC_1c5aeb010ce508627c0b0488e6640e8d",
    "title": "ANIME_PIC_1c5aeb010ce508627c0b0488e6640e8d",
    "link_img": "https://live.staticflickr.com/65535/49798257483_837ae138b2_o.jpg",
    "id_image": "ANIME_PIC_1c5aeb010ce508627c0b0488e6640e8d",
    "count_view": 0
  },
  {
    "link_thumb": "https://live.staticflickr.com/65535/49712044821_a9b270c904_n.jpg",
    "id_album": "1892085513",
    "description": "Oriental_329384",
    "title": "Oriental_329384",
    "link_img": "https://live.staticflickr.com/65535/49712044821_a44e5398d9_o.jpg",
    "id_image": "Oriental_329384",
    "count_view": 0
  },
  {
    "link_thumb": "https://live.staticflickr.com/65535/49710627038_457f661454_n.jpg",
    "id_album": "-437872736",
    "description": "Creature_232935",
    "title": "Creature_232935",
    "link_img": "https://live.staticflickr.com/65535/49710627038_df624d2b4a_o.jpg",
    "id_image": "Creature_232935",
    "count_view": 0
  },
  {
    "link_thumb": "https://live.staticflickr.com/65535/49712672122_9766c1b5ea_n.jpg",
    "id_album": "-1126835654",
    "description": "Women_992088",
    "title": "Women_992088",
    "link_img": "https://live.staticflickr.com/65535/49712672122_b0f4ba7d83_o.jpg",
    "id_image": "Women_992088",
    "count_view": 0
  },
  {
    "link_thumb": "https://live.staticflickr.com/65535/49712019267_1be7d85e28_n.jpg",
    "id_album": "-1083189875",
    "description": "Forest_418195",
    "title": "Forest_418195",
    "link_img": "https://live.staticflickr.com/65535/49712019267_df524b259d_o.jpg",
    "id_image": "Forest_418195",
    "count_view": 0
  },
  {
    "link_thumb": "https://live.staticflickr.com/65535/49710906418_e139e8709b_n.jpg",
    "id_album": "850176884",
    "description": "Dragon_413626",
    "title": "Dragon_413626",
    "link_img": "https://live.staticflickr.com/65535/49710906418_3625a0924c_o.jpg",
    "id_image": "Dragon_413626",
    "count_view": 0
  },
  {
    "link_thumb": "https://live.staticflickr.com/65535/49710814633_c1015a39c5_n.jpg",
    "id_album": "850176884",
    "description": "DRAGON26101916500837",
    "title": "DRAGON26101916500837",
    "link_img": "https://live.staticflickr.com/65535/49710814633_b04e5513e1_o.jpg",
    "id_image": "DRAGON26101916500837",
    "count_view": 0
  },
  {
    "link_thumb": "https://live.staticflickr.com/65535/49711562961_d6619d9f93_n.jpg",
    "id_album": "850176884",
    "description": "Dragon_912998",
    "title": "Dragon_912998",
    "link_img": "https://live.staticflickr.com/65535/49711562961_0538a68b7d_o.jpg",
    "id_image": "Dragon_912998",
    "count_view": 0
  },
  {
    "link_thumb": "https://live.staticflickr.com/65535/49711571922_3774b0b0f2_n.jpg",
    "id_album": "-437872736",
    "description": "Creature_553800",
    "title": "Creature_553800",
    "link_img": "https://live.staticflickr.com/65535/49711571922_b422611d39_o.jpg",
    "id_image": "Creature_553800",
    "count_view": 0
  },
  {
    "link_thumb": "https://live.staticflickr.com/65535/49710501353_de80498aab_n.jpg",
    "id_album": "-1541846310",
    "description": "Castle_187149",
    "title": "Castle_187149",
    "link_img": "https://live.staticflickr.com/65535/49710501353_b3a25a0e58_o.jpg",
    "id_image": "Castle_187149",
    "count_view": 0
  },
  {
    "link_thumb": "https://live.staticflickr.com/65535/49711362132_0b3c983edc_n.jpg",
    "id_album": "-1541846310",
    "description": "Castle_222021",
    "title": "Castle_222021",
    "link_img": "https://live.staticflickr.com/65535/49711362132_a2256591cb_o.jpg",
    "id_image": "Castle_222021",
    "count_view": 0
  },
  {
    "link_thumb": "https://live.staticflickr.com/65535/49710995153_78cbe08f71_n.jpg",
    "id_album": "850176884",
    "description": "Dragon_82362",
    "title": "Dragon_82362",
    "link_img": "https://live.staticflickr.com/65535/49710995153_57c1a0f5d7_o.jpg",
    "id_image": "Dragon_82362",
    "count_view": 0
  },
  {
    "link_thumb": "https://live.staticflickr.com/65535/49711601526_c82ff569c4_n.jpg",
    "id_album": "134100487",
    "description": "Elf_146030",
    "title": "Elf_146030",
    "link_img": "https://live.staticflickr.com/65535/49711601526_bd7888a32e_o.jpg",
    "id_image": "Elf_146030",
    "count_view": 0
  },
  {
    "link_thumb": "https://live.staticflickr.com/65535/49711841718_9e4d56a947_n.jpg",
    "id_album": "295204930",
    "description": "Women_324980",
    "title": "Women_324980",
    "link_img": "https://live.staticflickr.com/65535/49711841718_d9db8da427_o.jpg",
    "id_image": "Women_324980",
    "count_view": 0
  },
  {
    "link_thumb": "https://live.staticflickr.com/65535/49712892547_690a85b9d7_n.jpg",
    "id_album": "-1675918237",
    "description": "WomenWarrior_304893",
    "title": "WomenWarrior_304893",
    "link_img": "https://live.staticflickr.com/65535/49712892547_7b0c6361a4_o.jpg",
    "id_image": "WomenWarrior_304893",
    "count_view": 0
  },
  {
    "link_thumb": "https://live.staticflickr.com/65535/49710448923_87a904b0d8_n.jpg",
    "id_album": "1187037014",
    "description": "Battle_145394",
    "title": "Battle_145394",
    "link_img": "https://live.staticflickr.com/65535/49710448923_d0d027785c_o.jpg",
    "id_image": "Battle_145394",
    "count_view": 0
  },
  {
    "link_thumb": "https://live.staticflickr.com/65535/49710806983_6f432e9354_n.jpg",
    "id_album": "7198985",
    "description": "Demon_827422",
    "title": "Demon_827422",
    "link_img": "https://live.staticflickr.com/65535/49710806983_a31496671c_o.jpg",
    "id_image": "Demon_827422",
    "count_view": 0
  },
  {
    "link_thumb": "https://live.staticflickr.com/65535/49711342757_bb208f0bf9_n.jpg",
    "id_album": "-1846011410",
    "description": "Bird_778958",
    "title": "Bird_778958",
    "link_img": "https://live.staticflickr.com/65535/49711342757_7243e413ab_o.jpg",
    "id_image": "Bird_778958",
    "count_view": 0
  },
  {
    "link_thumb": "https://live.staticflickr.com/65535/49712403361_cd705d1c48_n.jpg",
    "id_album": "295204930",
    "description": "Women_695943",
    "title": "Women_695943",
    "link_img": "https://live.staticflickr.com/65535/49712403361_9d62b84493_o.jpg",
    "id_image": "Women_695943",
    "count_view": 0
  },
  {
    "link_thumb": "https://live.staticflickr.com/65535/49711525683_5ef81d2867_n.jpg",
    "id_album": "-639976841",
    "description": "Pegasus_28390",
    "title": "Pegasus_28390",
    "link_img": "https://live.staticflickr.com/65535/49711525683_0c272555d9_o.jpg",
    "id_image": "Pegasus_28390",
    "count_view": 0
  },
  {
    "link_thumb": "https://live.staticflickr.com/65535/49798837436_e6db2cfec1_n.jpg",
    "id_album": "-1703946758",
    "description": "ANIME_PIC_b7d1955401678a27c57b91586f1fc926",
    "title": "ANIME_PIC_b7d1955401678a27c57b91586f1fc926",
    "link_img": "https://live.staticflickr.com/65535/49798837436_576eb0e315_o.jpg",
    "id_image": "ANIME_PIC_b7d1955401678a27c57b91586f1fc926",
    "count_view": 0
  },
  {
    "link_thumb": "https://live.staticflickr.com/65535/49711783972_6f84e0b67b_n.jpg",
    "id_album": "850176884",
    "description": "Dragon_497443",
    "title": "Dragon_497443",
    "link_img": "https://live.staticflickr.com/65535/49711783972_52ccaf7778_o.jpg",
    "id_image": "Dragon_497443",
    "count_view": 0
  },
  {
    "link_thumb": "https://live.staticflickr.com/65535/49711663043_30b062d48b_n.jpg",
    "id_album": "-1261420436",
    "description": "Warrior_166720",
    "title": "Warrior_166720",
    "link_img": "https://live.staticflickr.com/65535/49711663043_4947fa1dca_o.jpg",
    "id_image": "Warrior_166720",
    "count_view": 0
  },
  {
    "link_thumb": "https://live.staticflickr.com/65535/49711671557_2cf55030ab_n.jpg",
    "id_album": "850176884",
    "description": "DRAGON26101916494516",
    "title": "DRAGON26101916494516",
    "link_img": "https://live.staticflickr.com/65535/49711671557_c8d9660433_o.jpg",
    "id_image": "DRAGON26101916494516",
    "count_view": 0
  },
  {
    "link_thumb": "https://live.staticflickr.com/65535/49710842513_8963a80d38_n.jpg",
    "id_album": "850176884",
    "description": "Dragon_188235",
    "title": "Dragon_188235",
    "link_img": "https://live.staticflickr.com/65535/49710842513_256f750d74_o.jpg",
    "id_image": "Dragon_188235",
    "count_view": 0
  },
  {
    "link_thumb": "https://live.staticflickr.com/65535/49711003236_74f29b1884_n.jpg",
    "id_album": "1187037014",
    "description": "Battle_587501",
    "title": "Battle_587501",
    "link_img": "https://live.staticflickr.com/65535/49711003236_4d23ca9410_o.jpg",
    "id_image": "Battle_587501",
    "count_view": 0
  },
  {
    "link_thumb": "https://live.staticflickr.com/65535/49710789753_752d4785a7_n.jpg",
    "id_album": "2021464556",
    "description": "Dark_983491",
    "title": "Dark_983491",
    "link_img": "https://live.staticflickr.com/65535/49710789753_6f8baf221c_o.jpg",
    "id_image": "Dark_983491",
    "count_view": 0
  },
  {
    "link_thumb": "https://live.staticflickr.com/65535/49712112472_f54ee54567_n.jpg",
    "id_album": "469960528",
    "description": "Knight_942092",
    "title": "Knight_942092",
    "link_img": "https://live.staticflickr.com/65535/49712112472_788902d454_o.jpg",
    "id_image": "Knight_942092",
    "count_view": 0
  },
  {
    "link_thumb": "https://live.staticflickr.com/65535/49711843797_86f09ce72b_n.jpg",
    "id_album": "850176884",
    "description": "Dragon_775121",
    "title": "Dragon_775121",
    "link_img": "https://live.staticflickr.com/65535/49711843797_cbd71de511_o.jpg",
    "id_image": "Dragon_775121",
    "count_view": 0
  },
  {
    "link_thumb": "https://live.staticflickr.com/65535/49711782047_32a09b9c5b_n.jpg",
    "id_album": "850176884",
    "description": "Dragon_491436",
    "title": "Dragon_491436",
    "link_img": "https://live.staticflickr.com/65535/49711782047_96e5f3a5cf_o.jpg",
    "id_image": "Dragon_491436",
    "count_view": 0
  },
  {
    "link_thumb": "https://live.staticflickr.com/65535/49711487551_4dbf6fbff6_n.jpg",
    "id_album": "850176884",
    "description": "Dragon_585535",
    "title": "Dragon_585535",
    "link_img": "https://live.staticflickr.com/65535/49711487551_998b3f6539_o.jpg",
    "id_image": "Dragon_585535",
    "count_view": 0
  },
  {
    "link_thumb": "https://live.staticflickr.com/65535/49712080521_08ecd5872e_n.jpg",
    "id_album": "-300361534",
    "description": "Pirate_21335",
    "title": "Pirate_21335",
    "link_img": "https://live.staticflickr.com/65535/49712080521_a7be7a4328_o.jpg",
    "id_image": "Pirate_21335",
    "count_view": 0
  },
  {
    "link_thumb": "https://live.staticflickr.com/65535/49711406206_0025d70f0d_n.jpg",
    "id_album": "850176884",
    "description": "Dragon_269827",
    "title": "Dragon_269827",
    "link_img": "https://live.staticflickr.com/65535/49711406206_28b830e49a_o.jpg",
    "id_image": "Dragon_269827",
    "count_view": 0
  },
  {
    "link_thumb": "https://live.staticflickr.com/65535/49712344286_49c0d0cb2b_n.jpg",
    "id_album": "-1126835654",
    "description": "Women_958999",
    "title": "Women_958999",
    "link_img": "https://live.staticflickr.com/65535/49712344286_6c019eb90f_o.jpg",
    "id_image": "Women_958999",
    "count_view": 0
  },
  {
    "link_thumb": "https://live.staticflickr.com/65535/49712608212_20c18e0f4b_n.jpg",
    "id_album": "-709711865",
    "description": "Wolf_680906",
    "title": "Wolf_680906",
    "link_img": "https://live.staticflickr.com/65535/49712608212_030a86cd22_o.jpg",
    "id_image": "Wolf_680906",
    "count_view": 0
  },
  {
    "link_thumb": "https://live.staticflickr.com/65535/49711190428_cd9eb295f9_n.jpg",
    "id_album": "-128218148",
    "description": "Fox_849248",
    "title": "Fox_849248",
    "link_img": "https://live.staticflickr.com/65535/49711190428_679435debd_o.jpg",
    "id_image": "Fox_849248",
    "count_view": 0
  },
  {
    "link_thumb": "https://live.staticflickr.com/65535/49712523941_d4f986b910_n.jpg",
    "id_album": "-867594484",
    "description": "Women_629906",
    "title": "Women_629906",
    "link_img": "https://live.staticflickr.com/65535/49712523941_b48b275ba1_o.jpg",
    "id_image": "Women_629906",
    "count_view": 0
  },
  {
    "link_thumb": "https://live.staticflickr.com/65535/49711599063_a81a0dca13_n.jpg",
    "id_album": "-395228614",
    "description": "Ship_426696",
    "title": "Ship_426696",
    "link_img": "https://live.staticflickr.com/65535/49711599063_3c19ce6ed8_o.jpg",
    "id_image": "Ship_426696",
    "count_view": 0
  },
  {
    "link_thumb": "https://live.staticflickr.com/65535/49711399737_de6dd5aa79_n.jpg",
    "id_album": "-1741487325",
    "description": "Cat_975864",
    "title": "Cat_975864",
    "link_img": "https://live.staticflickr.com/65535/49711399737_0dbefb674a_o.jpg",
    "id_image": "Cat_975864",
    "count_view": 0
  },
  {
    "link_thumb": "https://live.staticflickr.com/65535/49711318352_377364cd38_n.jpg",
    "id_album": "1187037014",
    "description": "Battle_333283",
    "title": "Battle_333283",
    "link_img": "https://live.staticflickr.com/65535/49711318352_421de24534_o.jpg",
    "id_image": "Battle_333283",
    "count_view": 0
  },
  {
    "link_thumb": "https://live.staticflickr.com/65535/49711912847_1bf229e52c_n.jpg",
    "id_album": "850176884",
    "description": "Dragon_985966",
    "title": "Dragon_985966",
    "link_img": "https://live.staticflickr.com/65535/49711912847_d776524edd_o.jpg",
    "id_image": "Dragon_985966",
    "count_view": 0
  },
  {
    "link_thumb": "https://live.staticflickr.com/65535/49711109026_83be71fd19_n.jpg",
    "id_album": "-1964113117",
    "description": "City_616241",
    "title": "City_616241",
    "link_img": "https://live.staticflickr.com/65535/49711109026_5e629c3343_o.jpg",
    "id_image": "City_616241",
    "count_view": 0
  },
  {
    "link_thumb": "https://live.staticflickr.com/65535/49710580388_4826ebf112_n.jpg",
    "id_album": "-1964113117",
    "description": "City_707111",
    "title": "City_707111",
    "link_img": "https://live.staticflickr.com/65535/49710580388_29a316bea8_o.jpg",
    "id_image": "City_707111",
    "count_view": 0
  },
  {
    "link_thumb": "https://live.staticflickr.com/65535/49727410711_34b2862cd6_n.jpg",
    "id_album": "-1541846310",
    "description": "Castle_701613",
    "title": "Castle_701613",
    "link_img": "https://live.staticflickr.com/65535/49727410711_2f106932f9_o.jpg",
    "id_image": "Castle_701613",
    "count_view": 0
  },
  {
    "link_thumb": "https://live.staticflickr.com/65535/49712478196_58289c7812_n.jpg",
    "id_album": "1861288871",
    "description": "Women_821869",
    "title": "Women_821869",
    "link_img": "https://live.staticflickr.com/65535/49712478196_c196d83e2c_o.jpg",
    "id_image": "Women_821869",
    "count_view": 0
  },
  {
    "link_thumb": "https://live.staticflickr.com/65535/49712594997_ba3074546f_n.jpg",
    "id_album": "-709711865",
    "description": "Wolf_335782",
    "title": "Wolf_335782",
    "link_img": "https://live.staticflickr.com/65535/49712594997_3bc7c3e5fc_o.jpg",
    "id_image": "Wolf_335782",
    "count_view": 0
  },
  {
    "link_thumb": "https://live.staticflickr.com/65535/49711195342_14741b9efe_n.jpg",
    "id_album": "-956471126",
    "description": "AliceInWonderland_214361",
    "title": "AliceInWonderland_214361",
    "link_img": "https://live.staticflickr.com/65535/49711195342_8fc2baba53_o.jpg",
    "id_image": "AliceInWonderland_214361",
    "count_view": 0
  },
  {
    "link_thumb": "https://live.staticflickr.com/65535/49711592607_a96f1ae6a7_n.jpg",
    "id_album": "-437872736",
    "description": "Creature_848223",
    "title": "Creature_848223",
    "link_img": "https://live.staticflickr.com/65535/49711592607_1ec7f865a7_o.jpg",
    "id_image": "Creature_848223",
    "count_view": 0
  },
  {
    "link_thumb": "https://live.staticflickr.com/65535/49711857396_15a8bebc81_n.jpg",
    "id_album": "1402713104",
    "description": "Landscape_917845",
    "title": "Landscape_917845",
    "link_img": "https://live.staticflickr.com/65535/49711857396_314290fc19_o.jpg",
    "id_image": "Landscape_917845",
    "count_view": 0
  },
  {
    "link_thumb": "https://live.staticflickr.com/65535/49712202006_f7d8174fbc_n.jpg",
    "id_album": "-1261420436",
    "description": "Warrior_231182",
    "title": "Warrior_231182",
    "link_img": "https://live.staticflickr.com/65535/49712202006_cefd5f1de3_o.jpg",
    "id_image": "Warrior_231182",
    "count_view": 0
  },
  {
    "link_thumb": "https://live.staticflickr.com/65535/49710776708_29da4e46b6_n.jpg",
    "id_album": "2021464556",
    "description": "Dark_162704",
    "title": "Dark_162704",
    "link_img": "https://live.staticflickr.com/65535/49710776708_1e48e423b9_o.jpg",
    "id_image": "Dark_162704",
    "count_view": 0
  },
  {
    "link_thumb": "https://live.staticflickr.com/65535/49711943088_eaacc014e9_n.jpg",
    "id_album": "1861288871",
    "description": "Women_816934",
    "title": "Women_816934",
    "link_img": "https://live.staticflickr.com/65535/49711943088_044c820b35_o.jpg",
    "id_image": "Women_816934",
    "count_view": 0
  },
  {
    "link_thumb": "https://live.staticflickr.com/65535/49710666778_b91db7d892_n.jpg",
    "id_album": "-437872736",
    "description": "Creature_332031",
    "title": "Creature_332031",
    "link_img": "https://live.staticflickr.com/65535/49710666778_391f21b71d_o.jpg",
    "id_image": "Creature_332031",
    "count_view": 0
  },
  {
    "link_thumb": "https://live.staticflickr.com/65535/49711126021_1e964c5b53_n.jpg",
    "id_album": "-1964113117",
    "description": "City_878043",
    "title": "City_878043",
    "link_img": "https://live.staticflickr.com/65535/49711126021_9f49b2cdd0_o.jpg",
    "id_image": "City_878043",
    "count_view": 0
  },
  {
    "link_thumb": "https://live.staticflickr.com/65535/49712766507_e4ba3ea7e4_n.jpg",
    "id_album": "1861288871",
    "description": "Women_477500",
    "title": "Women_477500",
    "link_img": "https://live.staticflickr.com/65535/49712766507_1e517cfac3_o.jpg",
    "id_image": "Women_477500",
    "count_view": 0
  },
  {
    "link_thumb": "https://live.staticflickr.com/65535/49710993123_b9bf478a69_n.jpg",
    "id_album": "850176884",
    "description": "Dragon_798362",
    "title": "Dragon_798362",
    "link_img": "https://live.staticflickr.com/65535/49710993123_ddb002e216_o.jpg",
    "id_image": "Dragon_798362",
    "count_view": 0
  },
  {
    "link_thumb": "https://live.staticflickr.com/65535/49712544527_9ac7ba68ed_n.jpg",
    "id_album": "-1261420436",
    "description": "Warrior_711463",
    "title": "Warrior_711463",
    "link_img": "https://live.staticflickr.com/65535/49712544527_b316dd60c6_o.jpg",
    "id_image": "Warrior_711463",
    "count_view": 0
  },
  {
    "link_thumb": "https://live.staticflickr.com/65535/49712267582_2b5d0c5bd6_n.jpg",
    "id_album": "-833110404",
    "description": "Landscape_435405",
    "title": "Landscape_435405",
    "link_img": "https://live.staticflickr.com/65535/49712267582_c3ec427c12_o.jpg",
    "id_image": "Landscape_435405",
    "count_view": 0
  },
  {
    "link_thumb": "https://live.staticflickr.com/65535/49711024668_a1537eccc5_n.jpg",
    "id_album": "850176884",
    "description": "Dragon_909822",
    "title": "Dragon_909822",
    "link_img": "https://live.staticflickr.com/65535/49711024668_6d766cbf40_o.jpg",
    "id_image": "Dragon_909822",
    "count_view": 0
  },
  {
    "link_thumb": "https://live.staticflickr.com/65535/49711439461_bed5afc656_n.jpg",
    "id_album": "850176884",
    "description": "Dragon_387814",
    "title": "Dragon_387814",
    "link_img": "https://live.staticflickr.com/65535/49711439461_e09be07bf6_o.jpg",
    "id_image": "Dragon_387814",
    "count_view": 0
  },
  {
    "link_thumb": "https://live.staticflickr.com/65535/49712652286_a23ee0d891_n.jpg",
    "id_album": "-1675918237",
    "description": "WomenWarrior_687157",
    "title": "WomenWarrior_687157",
    "link_img": "https://live.staticflickr.com/65535/49712652286_f3efa0dd82_o.jpg",
    "id_image": "WomenWarrior_687157",
    "count_view": 0
  },
  {
    "link_thumb": "https://live.staticflickr.com/65535/49711635558_b4219ed2b8_n.jpg",
    "id_album": "46520366",
    "description": "Turtle_366269",
    "title": "Turtle_366269",
    "link_img": "https://live.staticflickr.com/65535/49711635558_2d55b9fd37_o.jpg",
    "id_image": "Turtle_366269",
    "count_view": 0
  },
  {
    "link_thumb": "https://live.staticflickr.com/65535/49711369342_1618eb6d56_n.jpg",
    "id_album": "-1541846310",
    "description": "Castle_472818",
    "title": "Castle_472818",
    "link_img": "https://live.staticflickr.com/65535/49711369342_a944532e93_o.jpg",
    "id_image": "Castle_472818",
    "count_view": 0
  },
  {
    "link_thumb": "https://live.staticflickr.com/65535/49712383477_7a65b8c221_n.jpg",
    "id_album": "-639976841",
    "description": "Pegasus_145309",
    "title": "Pegasus_145309",
    "link_img": "https://live.staticflickr.com/65535/49712383477_056cb02f9b_o.jpg",
    "id_image": "Pegasus_145309",
    "count_view": 0
  },
  {
    "link_thumb": "https://live.staticflickr.com/65535/49712211196_0d1baf4faa_n.jpg",
    "id_album": "-1261420436",
    "description": "Warrior_562216",
    "title": "Warrior_562216",
    "link_img": "https://live.staticflickr.com/65535/49712211196_556e58a7f6_o.jpg",
    "id_image": "Warrior_562216",
    "count_view": 0
  },
  {
    "link_thumb": "https://live.staticflickr.com/65535/49712166478_ba35087d58_n.jpg",
    "id_album": "-1675918237",
    "description": "WomenWarrior_926419",
    "title": "WomenWarrior_926419",
    "link_img": "https://live.staticflickr.com/65535/49712166478_1d78b8e71b_o.jpg",
    "id_image": "WomenWarrior_926419",
    "count_view": 0
  },
  {
    "link_thumb": "https://live.staticflickr.com/65535/49711680487_7fc68f2e11_n.jpg",
    "id_album": "850176884",
    "description": "Dragon_118382",
    "title": "Dragon_118382",
    "link_img": "https://live.staticflickr.com/65535/49711680487_d296166de8_o.jpg",
    "id_image": "Dragon_118382",
    "count_view": 0
  },
  {
    "link_thumb": "https://live.staticflickr.com/65535/49711812368_915da84dff_n.jpg",
    "id_album": "-1126835654",
    "description": "Women_973361",
    "title": "Women_973361",
    "link_img": "https://live.staticflickr.com/65535/49711812368_d6d46d04b8_o.jpg",
    "id_image": "Women_973361",
    "count_view": 0
  },
  {
    "link_thumb": "https://live.staticflickr.com/65535/49712286711_40faa6f6d8_n.jpg",
    "id_album": "-709711865",
    "description": "Wolf_697373",
    "title": "Wolf_697373",
    "link_img": "https://live.staticflickr.com/65535/49712286711_03fd3eba91_o.jpg",
    "id_image": "Wolf_697373",
    "count_view": 0
  },
  {
    "link_thumb": "https://live.staticflickr.com/65535/49711789522_ec452cd28a_n.jpg",
    "id_album": "850176884",
    "description": "Dragon_517884",
    "title": "Dragon_517884",
    "link_img": "https://live.staticflickr.com/65535/49711789522_4ebfebc1f9_o.jpg",
    "id_image": "Dragon_517884",
    "count_view": 0
  },
  {
    "link_thumb": "https://live.staticflickr.com/65535/49711441623_7818b4bf66_n.jpg",
    "id_album": "-1284959130",
    "description": "LegendOfTheFiveRings_263860",
    "title": "LegendOfTheFiveRings_263860",
    "link_img": "https://live.staticflickr.com/65535/49711441623_6aeb923c14_o.jpg",
    "id_image": "LegendOfTheFiveRings_263860",
    "count_view": 0
  },
  {
    "link_thumb": "https://live.staticflickr.com/65535/49712685856_1f1a1d2d85_n.jpg",
    "id_album": "-1675918237",
    "description": "WomenWarrior_861005",
    "title": "WomenWarrior_861005",
    "link_img": "https://live.staticflickr.com/65535/49712685856_171f498c2a_o.jpg",
    "id_image": "WomenWarrior_861005",
    "count_view": 0
  },
  {
    "link_thumb": "https://live.staticflickr.com/65535/49711659608_6ef1131ffa_n.jpg",
    "id_album": "1215289234",
    "description": "WARIOR2610191651262",
    "title": "WARIOR2610191651262",
    "link_img": "https://live.staticflickr.com/65535/49711659608_27fc1701d7_o.jpg",
    "id_image": "WARIOR2610191651262",
    "count_view": 0
  },
  {
    "link_thumb": "https://live.staticflickr.com/65535/49713026862_c9f40cf8a3_n.jpg",
    "id_album": "-1675918237",
    "description": "WomenWarrior_969413",
    "title": "WomenWarrior_969413",
    "link_img": "https://live.staticflickr.com/65535/49713026862_0a2eeb83b4_o.jpg",
    "id_image": "WomenWarrior_969413",
    "count_view": 0
  },
  {
    "link_thumb": "https://live.staticflickr.com/65535/49712174251_af77d64810_n.jpg",
    "id_album": "46520366",
    "description": "Turtle_863877",
    "title": "Turtle_863877",
    "link_img": "https://live.staticflickr.com/65535/49712174251_6fae3d9aba_o.jpg",
    "id_image": "Turtle_863877",
    "count_view": 0
  },
  {
    "link_thumb": "https://live.staticflickr.com/65535/49711875422_929c89a89c_n.jpg",
    "id_album": "850176884",
    "description": "Dragon_898269",
    "title": "Dragon_898269",
    "link_img": "https://live.staticflickr.com/65535/49711875422_62aacf1de3_o.jpg",
    "id_image": "Dragon_898269",
    "count_view": 0
  },
  {
    "link_thumb": "https://live.staticflickr.com/65535/49710589588_164a80a68a_n.jpg",
    "id_album": "-1964113117",
    "description": "City_870405",
    "title": "City_870405",
    "link_img": "https://live.staticflickr.com/65535/49710589588_0232c9f874_o.jpg",
    "id_image": "City_870405",
    "count_view": 0
  },
  {
    "link_thumb": "https://live.staticflickr.com/65535/49710691448_a829580927_n.jpg",
    "id_album": "-437872736",
    "description": "Creature_400352",
    "title": "Creature_400352",
    "link_img": "https://live.staticflickr.com/65535/49710691448_a681e495f6_o.jpg",
    "id_image": "Creature_400352",
    "count_view": 0
  },
  {
    "link_thumb": "https://live.staticflickr.com/65535/49711201171_39c10821b4_n.jpg",
    "id_album": "-437872736",
    "description": "Creature_331573",
    "title": "Creature_331573",
    "link_img": "https://live.staticflickr.com/65535/49711201171_d45c1b5f73_o.jpg",
    "id_image": "Creature_331573",
    "count_view": 0
  },
  {
    "link_thumb": "https://live.staticflickr.com/65535/49711887796_b3fa0ee5c8_n.jpg",
    "id_album": "-833110404",
    "description": "Landscape_143463",
    "title": "Landscape_143463",
    "link_img": "https://live.staticflickr.com/65535/49711887796_3e0578af06_o.jpg",
    "id_image": "Landscape_143463",
    "count_view": 0
  },
  {
    "link_thumb": "https://live.staticflickr.com/65535/49711510386_db925670cc_n.jpg",
    "id_album": "850176884",
    "description": "Dragon_700117",
    "title": "Dragon_700117",
    "link_img": "https://live.staticflickr.com/65535/49711510386_d7bb8b7fac_o.jpg",
    "id_image": "Dragon_700117",
    "count_view": 0
  },
  {
    "link_thumb": "https://live.staticflickr.com/65535/49711436656_bf74647bd0_n.jpg",
    "id_album": "850176884",
    "description": "Dragon_376634",
    "title": "Dragon_376634",
    "link_img": "https://live.staticflickr.com/65535/49711436656_d505378965_o.jpg",
    "id_image": "Dragon_376634",
    "count_view": 0
  },
  {
    "link_thumb": "https://live.staticflickr.com/65535/49710650438_dea6b4ea0d_n.jpg",
    "id_album": "-437872736",
    "description": "Creature_308638",
    "title": "Creature_308638",
    "link_img": "https://live.staticflickr.com/65535/49710650438_befe76cc6d_o.jpg",
    "id_image": "Creature_308638",
    "count_view": 0
  },
  {
    "link_thumb": "https://live.staticflickr.com/65535/49711418407_c0d5b45560_n.jpg",
    "id_album": "-1964113117",
    "description": "City_275493",
    "title": "City_275493",
    "link_img": "https://live.staticflickr.com/65535/49711418407_21385c1913_o.jpg",
    "id_image": "City_275493",
    "count_view": 0
  },
  {
    "link_thumb": "https://live.staticflickr.com/65535/49712342601_8cb5380e00_n.jpg",
    "id_album": "-1126835654",
    "description": "Women_948133",
    "title": "Women_948133",
    "link_img": "https://live.staticflickr.com/65535/49712342601_9e6b2355e7_o.jpg",
    "id_image": "Women_948133",
    "count_view": 0
  },
  {
    "link_thumb": "https://live.staticflickr.com/65535/49712058922_48569c3fdf_n.jpg",
    "id_album": "402434752",
    "description": "Giant_711454",
    "title": "Giant_711454",
    "link_img": "https://live.staticflickr.com/65535/49712058922_f2557cc973_o.jpg",
    "id_image": "Giant_711454",
    "count_view": 0
  },
  {
    "link_thumb": "https://live.staticflickr.com/65535/49710739223_cee772409a_n.jpg",
    "id_album": "-437872736",
    "description": "Creature_925015",
    "title": "Creature_925015",
    "link_img": "https://live.staticflickr.com/65535/49710739223_57073b58ac_o.jpg",
    "id_image": "Creature_925015",
    "count_view": 0
  },
  {
    "link_thumb": "https://live.staticflickr.com/65535/49712103702_ae1ae3482b_n.jpg",
    "id_album": "469960528",
    "description": "Knight_448114",
    "title": "Knight_448114",
    "link_img": "https://live.staticflickr.com/65535/49712103702_6dc32afe14_o.jpg",
    "id_image": "Knight_448114",
    "count_view": 0
  },
  {
    "link_thumb": "https://live.staticflickr.com/65535/49712520937_a8d03a02b9_n.jpg",
    "id_album": "-1261420436",
    "description": "Warrior_172441",
    "title": "Warrior_172441",
    "link_img": "https://live.staticflickr.com/65535/49712520937_7f0106a376_o.jpg",
    "id_image": "Warrior_172441",
    "count_view": 0
  },
  {
    "link_thumb": "https://live.staticflickr.com/65535/49711664018_8ea4a3b7ba_n.jpg",
    "id_album": "-1261420436",
    "description": "Warrior_193570",
    "title": "Warrior_193570",
    "link_img": "https://live.staticflickr.com/65535/49711664018_b65bcb811e_o.jpg",
    "id_image": "Warrior_193570",
    "count_view": 0
  },
  {
    "link_thumb": "https://live.staticflickr.com/65535/49711506081_c3ce061e49_n.jpg",
    "id_album": "850176884",
    "description": "Dragon_685199",
    "title": "Dragon_685199",
    "link_img": "https://live.staticflickr.com/65535/49711506081_e3978ef269_o.jpg",
    "id_image": "Dragon_685199",
    "count_view": 0
  },
  {
    "link_thumb": "https://live.staticflickr.com/65535/49711542716_2c718b5b69_n.jpg",
    "id_album": "850176884",
    "description": "Dragon_870391",
    "title": "Dragon_870391",
    "link_img": "https://live.staticflickr.com/65535/49711542716_b3556ab64d_o.jpg",
    "id_image": "Dragon_870391",
    "count_view": 0
  },
  {
    "link_thumb": "https://live.staticflickr.com/65535/49711572001_d7f08fa5ef_n.jpg",
    "id_album": "850176884",
    "description": "Dragon_937793",
    "title": "Dragon_937793",
    "link_img": "https://live.staticflickr.com/65535/49711572001_42f1770d08_o.jpg",
    "id_image": "Dragon_937793",
    "count_view": 0
  },
  {
    "link_thumb": "https://live.staticflickr.com/65535/49712216986_7175a501cb_n.jpg",
    "id_album": "-1261420436",
    "description": "Warrior_625925",
    "title": "Warrior_625925",
    "link_img": "https://live.staticflickr.com/65535/49712216986_a3ea85bc0a_o.jpg",
    "id_image": "Warrior_625925",
    "count_view": 0
  },
  {
    "link_thumb": "https://live.staticflickr.com/65535/49711649651_4aff068b79_n.jpg",
    "id_album": "-1972042284",
    "description": "Fairy_212506",
    "title": "Fairy_212506",
    "link_img": "https://live.staticflickr.com/65535/49711649651_5d88618206_o.jpg",
    "id_image": "Fairy_212506",
    "count_view": 0
  },
  {
    "link_thumb": "https://live.staticflickr.com/65535/49712486911_8e19c70c1c_n.jpg",
    "id_album": "-867594484",
    "description": "Women_507410",
    "title": "Women_507410",
    "link_img": "https://live.staticflickr.com/65535/49712486911_444bdfa895_o.jpg",
    "id_image": "Women_507410",
    "count_view": 0
  },
  {
    "link_thumb": "https://live.staticflickr.com/65535/49711580992_b9273f0bc5_n.jpg",
    "id_album": "-437872736",
    "description": "Creature_655681",
    "title": "Creature_655681",
    "link_img": "https://live.staticflickr.com/65535/49711580992_992695ebd1_o.jpg",
    "id_image": "Creature_655681",
    "count_view": 0
  },
  {
    "link_thumb": "https://live.staticflickr.com/65535/49712323202_ae99b57b9d_n.jpg",
    "id_album": "-1613076477",
    "description": "Magic_320802",
    "title": "Magic_320802",
    "link_img": "https://live.staticflickr.com/65535/49712323202_cd9b2e4f43_o.jpg",
    "id_image": "Magic_320802",
    "count_view": 0
  },
  {
    "link_thumb": "https://live.staticflickr.com/65535/49711298596_dfcab33629_n.jpg",
    "id_album": "-437872736",
    "description": "Creature_958932",
    "title": "Creature_958932",
    "link_img": "https://live.staticflickr.com/65535/49711298596_e7336b8df7_o.jpg",
    "id_image": "Creature_958932",
    "count_view": 0
  },
  {
    "link_thumb": "https://live.staticflickr.com/65535/49712450252_8aa1a84486_n.jpg",
    "id_album": "-395228614",
    "description": "Ship_113894",
    "title": "Ship_113894",
    "link_img": "https://live.staticflickr.com/65535/49712450252_04353966ee_o.jpg",
    "id_image": "Ship_113894",
    "count_view": 0
  },
  {
    "link_thumb": "https://live.staticflickr.com/65535/49711589837_5f30013121_n.jpg",
    "id_album": "-437872736",
    "description": "Creature_742057",
    "title": "Creature_742057",
    "link_img": "https://live.staticflickr.com/65535/49711589837_78f81f264f_o.jpg",
    "id_image": "Creature_742057",
    "count_view": 0
  },
  {
    "link_thumb": "https://live.staticflickr.com/65535/49711679523_208cb146eb_n.jpg",
    "id_album": "-1261420436",
    "description": "Warrior_607031",
    "title": "Warrior_607031",
    "link_img": "https://live.staticflickr.com/65535/49711679523_b44e76b5e9_o.jpg",
    "id_image": "Warrior_607031",
    "count_view": 0
  },
  {
    "link_thumb": "https://live.staticflickr.com/65535/49711677073_907bc91695_n.jpg",
    "id_album": "-1261420436",
    "description": "Warrior_582454",
    "title": "Warrior_582454",
    "link_img": "https://live.staticflickr.com/65535/49711677073_fc71a6cb69_o.jpg",
    "id_image": "Warrior_582454",
    "count_view": 0
  },
  {
    "link_thumb": "https://live.staticflickr.com/65535/49710981731_32c65bf216_n.jpg",
    "id_album": "1187037014",
    "description": "Battle_112633",
    "title": "Battle_112633",
    "link_img": "https://live.staticflickr.com/65535/49710981731_c3377f6e7f_o.jpg",
    "id_image": "Battle_112633",
    "count_view": 0
  },
  {
    "link_thumb": "https://live.staticflickr.com/65535/49711005028_c780bd6591_n.jpg",
    "id_album": "850176884",
    "description": "Dragon_863857",
    "title": "Dragon_863857",
    "link_img": "https://live.staticflickr.com/65535/49711005028_b0b4836d5b_o.jpg",
    "id_image": "Dragon_863857",
    "count_view": 0
  },
  {
    "link_thumb": "https://live.staticflickr.com/65535/49712575902_9526d9ff5b_n.jpg",
    "id_album": "786934945",
    "description": "Whale_914714",
    "title": "Whale_914714",
    "link_img": "https://live.staticflickr.com/65535/49712575902_5a9e5ce458_o.jpg",
    "id_image": "Whale_914714",
    "count_view": 0
  },
  {
    "link_thumb": "https://live.staticflickr.com/65535/49711068501_8ef12ed17c_n.jpg",
    "id_album": "-1541846310",
    "description": "Castle_987110",
    "title": "Castle_987110",
    "link_img": "https://live.staticflickr.com/65535/49711068501_4aa7bebb8b_o.jpg",
    "id_image": "Castle_987110",
    "count_view": 0
  },
  {
    "link_thumb": "https://live.staticflickr.com/65535/49711511426_8f8f10a0e5_n.jpg",
    "id_album": "850176884",
    "description": "Dragon_709123",
    "title": "Dragon_709123",
    "link_img": "https://live.staticflickr.com/65535/49711511426_2c34406dab_o.jpg",
    "id_image": "Dragon_709123",
    "count_view": 0
  },
  {
    "link_thumb": "https://live.staticflickr.com/65535/49711357506_70877faa00_n.jpg",
    "id_album": "850176884",
    "description": "Dragon_118561",
    "title": "Dragon_118561",
    "link_img": "https://live.staticflickr.com/65535/49711357506_c4f7903849_o.jpg",
    "id_image": "Dragon_118561",
    "count_view": 0
  },
  {
    "link_thumb": "https://live.staticflickr.com/65535/49711844638_ab0ab4b63b_n.jpg",
    "id_album": "295204930",
    "description": "Women_337715",
    "title": "Women_337715",
    "link_img": "https://live.staticflickr.com/65535/49711844638_9dce9c35f1_o.jpg",
    "id_image": "Women_337715",
    "count_view": 0
  },
  {
    "link_thumb": "https://live.staticflickr.com/65535/49712604582_c8c769d530_n.jpg",
    "id_album": "-709711865",
    "description": "Wolf_648870",
    "title": "Wolf_648870",
    "link_img": "https://live.staticflickr.com/65535/49712604582_1a0754f04c_o.jpg",
    "id_image": "Wolf_648870",
    "count_view": 0
  },
  {
    "link_thumb": "https://live.staticflickr.com/65535/49711409406_a7ec3d199a_n.jpg",
    "id_album": "850176884",
    "description": "Dragon_280842",
    "title": "Dragon_280842",
    "link_img": "https://live.staticflickr.com/65535/49711409406_e38afb9ab5_o.jpg",
    "id_image": "Dragon_280842",
    "count_view": 0
  },
  {
    "link_thumb": "https://live.staticflickr.com/65535/49710939081_abab89d204_n.jpg",
    "id_album": "523598895",
    "description": "Artistic_118976",
    "title": "Artistic_118976",
    "link_img": "https://live.staticflickr.com/65535/49710939081_6b040e95fe_o.jpg",
    "id_image": "Artistic_118976",
    "count_view": 0
  },
  {
    "link_thumb": "https://live.staticflickr.com/65535/49711701316_5fc87229e9_n.jpg",
    "id_album": "-1083189875",
    "description": "Forest_601704",
    "title": "Forest_601704",
    "link_img": "https://live.staticflickr.com/65535/49711701316_947b661497_o.jpg",
    "id_image": "Forest_601704",
    "count_view": 0
  },
  {
    "link_thumb": "https://live.staticflickr.com/65535/49711881101_7f1d023300_n.jpg",
    "id_album": "1402713104",
    "description": "Landscape_991377",
    "title": "Landscape_991377",
    "link_img": "https://live.staticflickr.com/65535/49711881101_f45578fb1b_o.jpg",
    "id_image": "Landscape_991377",
    "count_view": 0
  },
  {
    "link_thumb": "https://live.staticflickr.com/65535/49711480203_4a6cbe47e9_n.jpg",
    "id_album": "-222719689",
    "description": "Men_372528",
    "title": "Men_372528",
    "link_img": "https://live.staticflickr.com/65535/49711480203_09c4a58c1c_o.jpg",
    "id_image": "Men_372528",
    "count_view": 0
  },
  {
    "link_thumb": "https://live.staticflickr.com/65535/49712067256_9333742619_n.jpg",
    "id_album": "-639976841",
    "description": "Pegasus_886608",
    "title": "Pegasus_886608",
    "link_img": "https://live.staticflickr.com/65535/49712067256_c61eda3193_o.jpg",
    "id_image": "Pegasus_886608",
    "count_view": 0
  },
  {
    "link_thumb": "https://live.staticflickr.com/65535/49711184317_05fe923a9d_n.jpg",
    "id_album": "-2109465612",
    "description": "Adventure_238418",
    "title": "Adventure_238418",
    "link_img": "https://live.staticflickr.com/65535/49711184317_ffbd6ce74c_o.jpg",
    "id_image": "Adventure_238418",
    "count_view": 0
  },
  {
    "link_thumb": "https://live.staticflickr.com/65535/49711095996_49d5d785bb_n.jpg",
    "id_album": "-1964113117",
    "description": "City_314024",
    "title": "City_314024",
    "link_img": "https://live.staticflickr.com/65535/49711095996_250033b67c_o.jpg",
    "id_image": "City_314024",
    "count_view": 0
  },
  {
    "link_thumb": "https://live.staticflickr.com/65535/49710881123_cfa1d32982_n.jpg",
    "id_album": "850176884",
    "description": "Dragon_314884",
    "title": "Dragon_314884",
    "link_img": "https://live.staticflickr.com/65535/49710881123_aa950a6cf6_o.jpg",
    "id_image": "Dragon_314884",
    "count_view": 0
  },
  {
    "link_thumb": "https://live.staticflickr.com/65535/49710430883_1354da6c36_n.jpg",
    "id_album": "523598895",
    "description": "Artistic_376416",
    "title": "Artistic_376416",
    "link_img": "https://live.staticflickr.com/65535/49710430883_bbdbef1c43_o.jpg",
    "id_image": "Artistic_376416",
    "count_view": 0
  },
  {
    "link_thumb": "https://live.staticflickr.com/65535/49712337986_1f57022d7c_n.jpg",
    "id_album": "-1126835654",
    "description": "Women_925006",
    "title": "Women_925006",
    "link_img": "https://live.staticflickr.com/65535/49712337986_e703ece825_o.jpg",
    "id_image": "Women_925006",
    "count_view": 0
  },
  {
    "link_thumb": "https://live.staticflickr.com/65535/49711900723_5881165135_n.jpg",
    "id_album": "1861288871",
    "description": "Women_226294",
    "title": "Women_226294",
    "link_img": "https://live.staticflickr.com/65535/49711900723_ebeee2cd4f_o.jpg",
    "id_image": "Women_226294",
    "count_view": 0
  },
  {
    "link_thumb": "https://live.staticflickr.com/65535/49711531326_e22512ca23_n.jpg",
    "id_album": "850176884",
    "description": "Dragon_829890",
    "title": "Dragon_829890",
    "link_img": "https://live.staticflickr.com/65535/49711531326_d87d6cb728_o.jpg",
    "id_image": "Dragon_829890",
    "count_view": 0
  },
  {
    "link_thumb": "https://live.staticflickr.com/65535/49710333208_4ca34dee9f_n.jpg",
    "id_album": "-2109465612",
    "description": "Adventure_301786",
    "title": "Adventure_301786",
    "link_img": "https://live.staticflickr.com/65535/49710333208_92d8618a97_o.jpg",
    "id_image": "Adventure_301786",
    "count_view": 0
  },
  {
    "link_thumb": "https://live.staticflickr.com/65535/49711652561_2329ebdf96_n.jpg",
    "id_album": "-1972042284",
    "description": "Fairy_270972",
    "title": "Fairy_270972",
    "link_img": "https://live.staticflickr.com/65535/49711652561_fb53e27529_o.jpg",
    "id_image": "Fairy_270972",
    "count_view": 0
  },
  {
    "link_thumb": "https://live.staticflickr.com/65535/49710344898_ae40bc02d0_n.jpg",
    "id_album": "-1000175186",
    "description": "AngelWarrior_328616",
    "title": "AngelWarrior_328616",
    "link_img": "https://live.staticflickr.com/65535/49710344898_1f0ca1ccca_o.jpg",
    "id_image": "AngelWarrior_328616",
    "count_view": 0
  },
  {
    "link_thumb": "https://live.staticflickr.com/65535/49711908382_e8d51611f8_n.jpg",
    "id_album": "850176884",
    "description": "Dragon_975925",
    "title": "Dragon_975925",
    "link_img": "https://live.staticflickr.com/65535/49711908382_dddf444b4a_o.jpg",
    "id_image": "Dragon_975925",
    "count_view": 0
  },
  {
    "link_thumb": "https://live.staticflickr.com/65535/49711096156_80131414c7_n.jpg",
    "id_album": "-1964113117",
    "description": "City_322072",
    "title": "City_322072",
    "link_img": "https://live.staticflickr.com/65535/49711096156_b8950b109c_o.jpg",
    "id_image": "City_322072",
    "count_view": 0
  },
  {
    "link_thumb": "https://live.staticflickr.com/65535/49711390543_cc201a5bdc_n.jpg",
    "id_album": "-833110404",
    "description": "Landscape_310498",
    "title": "Landscape_310498",
    "link_img": "https://live.staticflickr.com/65535/49711390543_9ddddb0e19_o.jpg",
    "id_image": "Landscape_310498",
    "count_view": 0
  },
  {
    "link_thumb": "https://live.staticflickr.com/65535/49712097903_3fab0f70fa_n.jpg",
    "id_album": "-1675918237",
    "description": "WomenWarrior_542968",
    "title": "WomenWarrior_542968",
    "link_img": "https://live.staticflickr.com/65535/49712097903_784cb3b88f_o.jpg",
    "id_image": "WomenWarrior_542968",
    "count_view": 0
  },
  {
    "link_thumb": "https://live.staticflickr.com/65535/49710943631_a98ac732de_n.jpg",
    "id_album": "523598895",
    "description": "Artistic_151301",
    "title": "Artistic_151301",
    "link_img": "https://live.staticflickr.com/65535/49710943631_56c3e3b015_o.jpg",
    "id_image": "Artistic_151301",
    "count_view": 0
  },
  {
    "link_thumb": "https://live.staticflickr.com/65535/49712186892_4eb222c3fd_n.jpg",
    "id_album": "1402713104",
    "description": "Landscape_943135",
    "title": "Landscape_943135",
    "link_img": "https://live.staticflickr.com/65535/49712186892_c754173753_o.jpg",
    "id_image": "Landscape_943135",
    "count_view": 0
  },
  {
    "link_thumb": "https://live.staticflickr.com/65535/49711237342_35eb7a04fc_n.jpg",
    "id_album": "-1913845949",
    "description": "Animal_637272",
    "title": "Animal_637272",
    "link_img": "https://live.staticflickr.com/65535/49711237342_e828b6848b_o.jpg",
    "id_image": "Animal_637272",
    "count_view": 0
  },
  {
    "link_thumb": "https://live.staticflickr.com/65535/49711110078_a22c739eb1_n.jpg",
    "id_album": "-1972042284",
    "description": "Fairy_111470",
    "title": "Fairy_111470",
    "link_img": "https://live.staticflickr.com/65535/49711110078_9340f01482_o.jpg",
    "id_image": "Fairy_111470",
    "count_view": 0
  },
  {
    "link_thumb": "https://live.staticflickr.com/65535/49710937158_678c5934c3_n.jpg",
    "id_album": "850176884",
    "description": "Dragon_525444",
    "title": "Dragon_525444",
    "link_img": "https://live.staticflickr.com/65535/49710937158_3bba053254_o.jpg",
    "id_image": "Dragon_525444",
    "count_view": 0
  },
  {
    "link_thumb": "https://live.staticflickr.com/65535/49711008418_a403570430_n.jpg",
    "id_album": "850176884",
    "description": "Dragon_870690",
    "title": "Dragon_870690",
    "link_img": "https://live.staticflickr.com/65535/49711008418_6b87ef96dd_o.jpg",
    "id_image": "Dragon_870690",
    "count_view": 0
  },
  {
    "link_thumb": "https://live.staticflickr.com/65535/49711337562_50bfe55164_n.jpg",
    "id_album": "1187037014",
    "description": "Battle_930292",
    "title": "Battle_930292",
    "link_img": "https://live.staticflickr.com/65535/49711337562_cab69ce325_o.jpg",
    "id_image": "Battle_930292",
    "count_view": 0
  },
  {
    "link_thumb": "https://live.staticflickr.com/65535/49712534377_937776a8e5_n.jpg",
    "id_album": "-1261420436",
    "description": "Warrior_582441",
    "title": "Warrior_582441",
    "link_img": "https://live.staticflickr.com/65535/49712534377_503d549f59_o.jpg",
    "id_image": "Warrior_582441",
    "count_view": 0
  },
  {
    "link_thumb": "https://live.staticflickr.com/65535/49712076801_043046e9ba_n.jpg",
    "id_album": "-1326601535",
    "description": "Phoenix_714704",
    "title": "Phoenix_714704",
    "link_img": "https://live.staticflickr.com/65535/49712076801_3a19486d3b_o.jpg",
    "id_image": "Phoenix_714704",
    "count_view": 0
  },
  {
    "link_thumb": "https://live.staticflickr.com/65535/49710977553_57cf722eb4_n.jpg",
    "id_album": "850176884",
    "description": "Dragon_715927",
    "title": "Dragon_715927",
    "link_img": "https://live.staticflickr.com/65535/49710977553_b31ae2c29e_o.jpg",
    "id_image": "Dragon_715927",
    "count_view": 0
  },
  {
    "link_thumb": "https://live.staticflickr.com/65535/49711381407_2bcf524e84_n.jpg",
    "id_album": "-1541846310",
    "description": "Castle_81407",
    "title": "Castle_81407",
    "link_img": "https://live.staticflickr.com/65535/49711381407_55f6c6afa9_o.jpg",
    "id_image": "Castle_81407",
    "count_view": 0
  },
  {
    "link_thumb": "https://live.staticflickr.com/65535/49712484617_cb931b55a1_n.jpg",
    "id_album": "405170427",
    "description": "Tiger_702641",
    "title": "Tiger_702641",
    "link_img": "https://live.staticflickr.com/65535/49712484617_0486e65e26_o.jpg",
    "id_image": "Tiger_702641",
    "count_view": 0
  },
  {
    "link_thumb": "https://live.staticflickr.com/65535/49712649942_68aa94f24a_n.jpg",
    "id_album": "-1126835654",
    "description": "Women_885089",
    "title": "Women_885089",
    "link_img": "https://live.staticflickr.com/65535/49712649942_e08c90dd8d_o.jpg",
    "id_image": "Women_885089",
    "count_view": 0
  },
  {
    "link_thumb": "https://live.staticflickr.com/65535/49710344118_b70c6313af_n.jpg",
    "id_album": "-1000175186",
    "description": "AngelWarrior_284313",
    "title": "AngelWarrior_284313",
    "link_img": "https://live.staticflickr.com/65535/49710344118_99e5df96f2_o.jpg",
    "id_image": "AngelWarrior_284313",
    "count_view": 0
  },
  {
    "link_thumb": "https://live.staticflickr.com/65535/49710931823_8b913dfb90_n.jpg",
    "id_album": "850176884",
    "description": "Dragon_513714",
    "title": "Dragon_513714",
    "link_img": "https://live.staticflickr.com/65535/49710931823_631e5c85dc_o.jpg",
    "id_image": "Dragon_513714",
    "count_view": 0
  },
  {
    "link_thumb": "https://live.staticflickr.com/65535/49711663012_7651c16216_n.jpg",
    "id_album": "7198985",
    "description": "Demon_616986",
    "title": "Demon_616986",
    "link_img": "https://live.staticflickr.com/65535/49711663012_8fa148f05b_o.jpg",
    "id_image": "Demon_616986",
    "count_view": 0
  },
  {
    "link_thumb": "https://live.staticflickr.com/65535/49710783853_32bf80f9f4_n.jpg",
    "id_album": "2021464556",
    "description": "Dark_656311",
    "title": "Dark_656311",
    "link_img": "https://live.staticflickr.com/65535/49710783853_43a766ce5e_o.jpg",
    "id_image": "Dark_656311",
    "count_view": 0
  },
  {
    "link_thumb": "https://live.staticflickr.com/65535/49712143081_953e9471cb_n.jpg",
    "id_album": "-5356651",
    "description": "Sorcerer_244277",
    "title": "Sorcerer_244277",
    "link_img": "https://live.staticflickr.com/65535/49712143081_898d59be6f_o.jpg",
    "id_image": "Sorcerer_244277",
    "count_view": 0
  },
  {
    "link_thumb": "https://live.staticflickr.com/65535/49710511663_c15314cb60_n.jpg",
    "id_album": "-1541846310",
    "description": "Castle_516514",
    "title": "Castle_516514",
    "link_img": "https://live.staticflickr.com/65535/49710511663_61d820b55d_o.jpg",
    "id_image": "Castle_516514",
    "count_view": 0
  },
  {
    "link_thumb": "https://live.staticflickr.com/65535/49711870532_956da91e5a_n.jpg",
    "id_album": "850176884",
    "description": "Dragon_878430",
    "title": "Dragon_878430",
    "link_img": "https://live.staticflickr.com/65535/49711870532_005de5e3ab_o.jpg",
    "id_image": "Dragon_878430",
    "count_view": 0
  },
  {
    "link_thumb": "https://live.staticflickr.com/65535/49711000976_3b4ffb19a7_n.jpg",
    "id_album": "1187037014",
    "description": "Battle_482594",
    "title": "Battle_482594",
    "link_img": "https://live.staticflickr.com/65535/49711000976_09052ffba3_o.jpg",
    "id_image": "Battle_482594",
    "count_view": 0
  },
  {
    "link_thumb": "https://live.staticflickr.com/65535/49711925142_3b1fecfa59_n.jpg",
    "id_album": "134100487",
    "description": "Elf_150254",
    "title": "Elf_150254",
    "link_img": "https://live.staticflickr.com/65535/49711925142_84bddd58d1_o.jpg",
    "id_image": "Elf_150254",
    "count_view": 0
  },
  {
    "link_thumb": "https://live.staticflickr.com/65535/49712626567_ef0df6b6bb_n.jpg",
    "id_album": "-1126835654",
    "description": "Women_107890",
    "title": "Women_107890",
    "link_img": "https://live.staticflickr.com/65535/49712626567_7c0ab54187_o.jpg",
    "id_image": "Women_107890",
    "count_view": 0
  }
]