[
  {
    "total_img": 0,
    "number_page": 0,
    "title": "Turtle",
    "tag": "Turtle,",
    "description": "Turtle",
    "link_thumb": "https://live.staticflickr.com/65535/49711634573_27489b4903_n.jpg",
    "id_album": "46520366",
    "total_view": 16
  }
]