[
  {
    "link_thumb": "https://live.staticflickr.com/65535/49711344272_1b4995dacd_n.jpg",
    "id_album": "-1846011410",
    "description": "Bird_964218",
    "title": "Bird_964218",
    "link_img": "https://live.staticflickr.com/65535/49711344272_504289f962_o.jpg",
    "id_image": "Bird_964218",
    "count_view": 0
  },
  {
    "link_thumb": "https://live.staticflickr.com/65535/49711416631_9fa68df7f1_n.jpg",
    "id_album": "850176884",
    "description": "Dragon_313324",
    "title": "Dragon_313324",
    "link_img": "https://live.staticflickr.com/65535/49711416631_ea55fe2ca0_o.jpg",
    "id_image": "Dragon_313324",
    "count_view": 0
  },
  {
    "link_thumb": "https://live.staticflickr.com/65535/49711731042_6fe36e7eab_n.jpg",
    "id_album": "850176884",
    "description": "Dragon_278234",
    "title": "Dragon_278234",
    "link_img": "https://live.staticflickr.com/65535/49711731042_24d27efd02_o.jpg",
    "id_image": "Dragon_278234",
    "count_view": 0
  },
  {
    "link_thumb": "https://live.staticflickr.com/65535/49711878263_f56720078d_n.jpg",
    "id_album": "295204930",
    "description": "Women_710089",
    "title": "Women_710089",
    "link_img": "https://live.staticflickr.com/65535/49711878263_083ef8a3f2_o.jpg",
    "id_image": "Women_710089",
    "count_view": 0
  },
  {
    "link_thumb": "https://live.staticflickr.com/65535/49712629522_154e3f98ce_n.jpg",
    "id_album": "-1126835654",
    "description": "Women_841527",
    "title": "Women_841527",
    "link_img": "https://live.staticflickr.com/65535/49712629522_0d9b5ceaaf_o.jpg",
    "id_image": "Women_841527",
    "count_view": 0
  },
  {
    "link_thumb": "https://live.staticflickr.com/65535/49711907342_54ec06e896_n.jpg",
    "id_album": "850176884",
    "description": "Dragon_974466",
    "title": "Dragon_974466",
    "link_img": "https://live.staticflickr.com/65535/49711907342_8a41cdbb14_o.jpg",
    "id_image": "Dragon_974466",
    "count_view": 0
  },
  {
    "link_thumb": "https://live.staticflickr.com/65535/49712111917_aae846897b_n.jpg",
    "id_album": "469960528",
    "description": "Knight_930288",
    "title": "Knight_930288",
    "link_img": "https://live.staticflickr.com/65535/49712111917_52d36bc8a3_o.jpg",
    "id_image": "Knight_930288",
    "count_view": 0
  },
  {
    "link_thumb": "https://live.staticflickr.com/65535/49710325628_8f926bdf72_n.jpg",
    "id_album": "-2109465612",
    "description": "Adventure_229255",
    "title": "Adventure_229255",
    "link_img": "https://live.staticflickr.com/65535/49710325628_ce69ae5e5a_o.jpg",
    "id_image": "Adventure_229255",
    "count_view": 0
  },
  {
    "link_thumb": "https://live.staticflickr.com/65535/49711718451_ae08ee92d0_n.jpg",
    "id_album": "-1083189875",
    "description": "Forest_896205",
    "title": "Forest_896205",
    "link_img": "https://live.staticflickr.com/65535/49711718451_0beedaa3c1_o.jpg",
    "id_image": "Forest_896205",
    "count_view": 0
  },
  {
    "link_thumb": "https://live.staticflickr.com/65535/49711226816_0de77c29d1_n.jpg",
    "id_album": "-437872736",
    "description": "Creature_397130",
    "title": "Creature_397130",
    "link_img": "https://live.staticflickr.com/65535/49711226816_10feb16afa_o.jpg",
    "id_image": "Creature_397130",
    "count_view": 0
  },
  {
    "link_thumb": "https://live.staticflickr.com/65535/49712457331_3ee7134d20_n.jpg",
    "id_album": "1861288871",
    "description": "Women_762385",
    "title": "Women_762385",
    "link_img": "https://live.staticflickr.com/65535/49712457331_0a48404a8a_o.jpg",
    "id_image": "Women_762385",
    "count_view": 0
  },
  {
    "link_thumb": "https://live.staticflickr.com/65535/49711682866_4a648ea9cf_n.jpg",
    "id_album": "-1972042284",
    "description": "Fairy_85334",
    "title": "Fairy_85334",
    "link_img": "https://live.staticflickr.com/65535/49711682866_fae6aa84d6_o.jpg",
    "id_image": "Fairy_85334",
    "count_view": 0
  },
  {
    "link_thumb": "https://live.staticflickr.com/65535/49712006041_ef3b560a60_n.jpg",
    "id_album": "-1613076477",
    "description": "Magic_800726",
    "title": "Magic_800726",
    "link_img": "https://live.staticflickr.com/65535/49712006041_609af04aec_o.jpg",
    "id_image": "Magic_800726",
    "count_view": 0
  },
  {
    "link_thumb": "https://live.staticflickr.com/65535/49712088732_ecbab53197_n.jpg",
    "id_album": "1957967226",
    "description": "House_511826",
    "title": "House_511826",
    "link_img": "https://live.staticflickr.com/65535/49712088732_abf8fa63e3_o.jpg",
    "id_image": "House_511826",
    "count_view": 0
  },
  {
    "link_thumb": "https://live.staticflickr.com/65535/49710654088_1caa868a46_n.jpg",
    "id_album": "-437872736",
    "description": "Creature_313377",
    "title": "Creature_313377",
    "link_img": "https://live.staticflickr.com/65535/49710654088_166a8893b6_o.jpg",
    "id_image": "Creature_313377",
    "count_view": 0
  },
  {
    "link_thumb": "https://live.staticflickr.com/65535/49711014973_22c6524587_n.jpg",
    "id_album": "850176884",
    "description": "Dragon_881762",
    "title": "Dragon_881762",
    "link_img": "https://live.staticflickr.com/65535/49711014973_f366148fc1_o.jpg",
    "id_image": "Dragon_881762",
    "count_view": 0
  },
  {
    "link_thumb": "https://live.staticflickr.com/65535/49712064526_aeb8f12494_n.jpg",
    "id_album": "-639976841",
    "description": "Pegasus_547046",
    "title": "Pegasus_547046",
    "link_img": "https://live.staticflickr.com/65535/49712064526_59b8c1e3bf_o.jpg",
    "id_image": "Pegasus_547046",
    "count_view": 0
  },
  {
    "link_thumb": "https://live.staticflickr.com/65535/49711456702_f49d32d137_n.jpg",
    "id_album": "-1964113117",
    "description": "City_940172",
    "title": "City_940172",
    "link_img": "https://live.staticflickr.com/65535/49711456702_467b4f7666_o.jpg",
    "id_image": "City_940172",
    "count_view": 0
  },
  {
    "link_thumb": "https://live.staticflickr.com/65535/49711942393_2293316231_n.jpg",
    "id_album": "1861288871",
    "description": "Women_816111",
    "title": "Women_816111",
    "link_img": "https://live.staticflickr.com/65535/49711942393_a7578659b1_o.jpg",
    "id_image": "Women_816111",
    "count_view": 0
  },
  {
    "link_thumb": "https://live.staticflickr.com/65535/49710615163_6341829a84_n.jpg",
    "id_album": "-437872736",
    "description": "Creature_169042",
    "title": "Creature_169042",
    "link_img": "https://live.staticflickr.com/65535/49710615163_21826446ea_o.jpg",
    "id_image": "Creature_169042",
    "count_view": 0
  },
  {
    "link_thumb": "https://live.staticflickr.com/65535/49711863486_35e3511d70_n.jpg",
    "id_album": "1402713104",
    "description": "Landscape_943134",
    "title": "Landscape_943134",
    "link_img": "https://live.staticflickr.com/65535/49711863486_ee35b89765_o.jpg",
    "id_image": "Landscape_943134",
    "count_view": 0
  },
  {
    "link_thumb": "https://live.staticflickr.com/65535/49710695233_dc1efaf077_n.jpg",
    "id_album": "-437872736",
    "description": "Creature_447622",
    "title": "Creature_447622",
    "link_img": "https://live.staticflickr.com/65535/49710695233_3d77c9f075_o.jpg",
    "id_image": "Creature_447622",
    "count_view": 0
  },
  {
    "link_thumb": "https://live.staticflickr.com/65535/49711575757_73a0481bf9_n.jpg",
    "id_album": "-437872736",
    "description": "Creature_576424",
    "title": "Creature_576424",
    "link_img": "https://live.staticflickr.com/65535/49711575757_8fe529718d_o.jpg",
    "id_image": "Creature_576424",
    "count_view": 0
  },
  {
    "link_thumb": "https://live.staticflickr.com/65535/49711460997_9e3e719037_n.jpg",
    "id_album": "-1964113117",
    "description": "City_983505",
    "title": "City_983505",
    "link_img": "https://live.staticflickr.com/65535/49711460997_057ebefb8b_o.jpg",
    "id_image": "City_983505",
    "count_view": 0
  },
  {
    "link_thumb": "https://live.staticflickr.com/65535/49711899028_9517b8fb45_n.jpg",
    "id_album": "1861288871",
    "description": "Women_211127",
    "title": "Women_211127",
    "link_img": "https://live.staticflickr.com/65535/49711899028_bb2dde4fca_o.jpg",
    "id_image": "Women_211127",
    "count_view": 0
  },
  {
    "link_thumb": "https://live.staticflickr.com/65535/49710907573_3ff6b83b01_n.jpg",
    "id_album": "850176884",
    "description": "Dragon_41519",
    "title": "Dragon_41519",
    "link_img": "https://live.staticflickr.com/65535/49710907573_89d08495a5_o.jpg",
    "id_image": "Dragon_41519",
    "count_view": 0
  },
  {
    "link_thumb": "https://live.staticflickr.com/65535/49711375656_fb8ee839d2_n.jpg",
    "id_album": "850176884",
    "description": "Dragon_168265",
    "title": "Dragon_168265",
    "link_img": "https://live.staticflickr.com/65535/49711375656_fbfc47d1a6_o.jpg",
    "id_image": "Dragon_168265",
    "count_view": 0
  },
  {
    "link_thumb": "https://live.staticflickr.com/65535/49711617903_4a6b4d83f9_n.jpg",
    "id_album": "1186644325",
    "description": "Tattoo_211698",
    "title": "Tattoo_211698",
    "link_img": "https://live.staticflickr.com/65535/49711617903_cde524ce8f_o.jpg",
    "id_image": "Tattoo_211698",
    "count_view": 0
  },
  {
    "link_thumb": "https://live.staticflickr.com/65535/49711952437_b3f570e755_n.jpg",
    "id_album": "134100487",
    "description": "Elf_693135",
    "title": "Elf_693135",
    "link_img": "https://live.staticflickr.com/65535/49711952437_5d3c65e993_o.jpg",
    "id_image": "Elf_693135",
    "count_view": 0
  },
  {
    "link_thumb": "https://live.staticflickr.com/65535/49711955661_489054a8d9_n.jpg",
    "id_album": "-833110404",
    "description": "Landscape_510371",
    "title": "Landscape_510371",
    "link_img": "https://live.staticflickr.com/65535/49711955661_e71daab08d_o.jpg",
    "id_image": "Landscape_510371",
    "count_view": 0
  },
  {
    "link_thumb": "https://live.staticflickr.com/65535/49712273516_70651c9ed3_n.jpg",
    "id_album": "-709711865",
    "description": "Wolf_347987",
    "title": "Wolf_347987",
    "link_img": "https://live.staticflickr.com/65535/49712273516_8cd6e0c9d6_o.jpg",
    "id_image": "Wolf_347987",
    "count_view": 0
  },
  {
    "link_thumb": "https://live.staticflickr.com/65535/49712537736_67869b4e97_n.jpg",
    "id_album": "-867594484",
    "description": "Women_691920",
    "title": "Women_691920",
    "link_img": "https://live.staticflickr.com/65535/49712537736_e51e780cf1_o.jpg",
    "id_image": "Women_691920",
    "count_view": 0
  },
  {
    "link_thumb": "https://live.staticflickr.com/65535/49711503566_1e7ac719ea_n.jpg",
    "id_album": "850176884",
    "description": "Dragon_668700",
    "title": "Dragon_668700",
    "link_img": "https://live.staticflickr.com/65535/49711503566_21391ab19f_o.jpg",
    "id_image": "Dragon_668700",
    "count_view": 0
  },
  {
    "link_thumb": "https://live.staticflickr.com/65535/49713018482_60ece738ac_n.jpg",
    "id_album": "-1675918237",
    "description": "WomenWarrior_886633",
    "title": "WomenWarrior_886633",
    "link_img": "https://live.staticflickr.com/65535/49713018482_45ff9301e2_o.jpg",
    "id_image": "WomenWarrior_886633",
    "count_view": 0
  },
  {
    "link_thumb": "https://live.staticflickr.com/65535/49711329457_c79cc0e938_n.jpg",
    "id_album": "1187037014",
    "description": "Battle_616399",
    "title": "Battle_616399",
    "link_img": "https://live.staticflickr.com/65535/49711329457_a4f0f898eb_o.jpg",
    "id_image": "Battle_616399",
    "count_view": 0
  },
  {
    "link_thumb": "https://live.staticflickr.com/65535/49712344081_653594d5c3_n.jpg",
    "id_album": "-1126835654",
    "description": "Women_958294",
    "title": "Women_958294",
    "link_img": "https://live.staticflickr.com/65535/49712344081_ae5437fb46_o.jpg",
    "id_image": "Women_958294",
    "count_view": 0
  },
  {
    "link_thumb": "https://live.staticflickr.com/65535/49711725526_e53d78c107_n.jpg",
    "id_album": "-128218148",
    "description": "Fox_903148",
    "title": "Fox_903148",
    "link_img": "https://live.staticflickr.com/65535/49711725526_a4243c20dc_o.jpg",
    "id_image": "Fox_903148",
    "count_view": 0
  },
  {
    "link_thumb": "https://live.staticflickr.com/65535/49711233681_533a7c69d4_n.jpg",
    "id_album": "-437872736",
    "description": "Creature_476369",
    "title": "Creature_476369",
    "link_img": "https://live.staticflickr.com/65535/49711233681_512a180ab9_o.jpg",
    "id_image": "Creature_476369",
    "count_view": 0
  },
  {
    "link_thumb": "https://live.staticflickr.com/65535/49711298596_dfcab33629_n.jpg",
    "id_album": "-437872736",
    "description": "Creature_958932",
    "title": "Creature_958932",
    "link_img": "https://live.staticflickr.com/65535/49711298596_e7336b8df7_o.jpg",
    "id_image": "Creature_958932",
    "count_view": 0
  },
  {
    "link_thumb": "https://live.staticflickr.com/65535/49711721323_507c801a39_n.jpg",
    "id_album": "478331085",
    "description": "Witch_176745",
    "title": "Witch_176745",
    "link_img": "https://live.staticflickr.com/65535/49711721323_45ed70b944_o.jpg",
    "id_image": "Witch_176745",
    "count_view": 0
  },
  {
    "link_thumb": "https://live.staticflickr.com/65535/49711474247_17a8dee5e4_n.jpg",
    "id_album": "-437872736",
    "description": "Creature_160650",
    "title": "Creature_160650",
    "link_img": "https://live.staticflickr.com/65535/49711474247_99aba0b457_o.jpg",
    "id_image": "Creature_160650",
    "count_view": 0
  },
  {
    "link_thumb": "https://live.staticflickr.com/65535/49710326003_76462b896a_n.jpg",
    "id_album": "-2109465612",
    "description": "Adventure_237115",
    "title": "Adventure_237115",
    "link_img": "https://live.staticflickr.com/65535/49710326003_c676e12002_o.jpg",
    "id_image": "Adventure_237115",
    "count_view": 0
  },
  {
    "link_thumb": "https://live.staticflickr.com/65535/49710414503_118f969f10_n.jpg",
    "id_album": "523598895",
    "description": "Artistic_175068",
    "title": "Artistic_175068",
    "link_img": "https://live.staticflickr.com/65535/49710414503_db6884c4a4_o.jpg",
    "id_image": "Artistic_175068",
    "count_view": 0
  },
  {
    "link_thumb": "https://live.staticflickr.com/65535/49711483603_1cfac9e5b2_n.jpg",
    "id_album": "-222719689",
    "description": "Men_724563",
    "title": "Men_724563",
    "link_img": "https://live.staticflickr.com/65535/49711483603_58e16209a9_o.jpg",
    "id_image": "Men_724563",
    "count_view": 0
  },
  {
    "link_thumb": "https://live.staticflickr.com/65535/49710398463_c01127f317_n.jpg",
    "id_album": "-1560111795",
    "description": "Archer_486529",
    "title": "Archer_486529",
    "link_img": "https://live.staticflickr.com/65535/49710398463_96180ab254_o.jpg",
    "id_image": "Archer_486529",
    "count_view": 0
  },
  {
    "link_thumb": "https://live.staticflickr.com/65535/49711238291_543a71b27f_n.jpg",
    "id_album": "-437872736",
    "description": "Creature_509621",
    "title": "Creature_509621",
    "link_img": "https://live.staticflickr.com/65535/49711238291_cf3e435a87_o.jpg",
    "id_image": "Creature_509621",
    "count_view": 0
  },
  {
    "link_thumb": "https://live.staticflickr.com/65535/49710937323_d368a115af_n.jpg",
    "id_album": "850176884",
    "description": "Dragon_526703",
    "title": "Dragon_526703",
    "link_img": "https://live.staticflickr.com/65535/49710937323_ca3f117f86_o.jpg",
    "id_image": "Dragon_526703",
    "count_view": 0
  },
  {
    "link_thumb": "https://live.staticflickr.com/65535/49711470411_95dc11d803_n.jpg",
    "id_album": "850176884",
    "description": "Dragon_518581",
    "title": "Dragon_518581",
    "link_img": "https://live.staticflickr.com/65535/49711470411_9cc94567b4_o.jpg",
    "id_image": "Dragon_518581",
    "count_view": 0
  },
  {
    "link_thumb": "https://live.staticflickr.com/65535/49710541393_92ae3f8849_n.jpg",
    "id_album": "430704260",
    "description": "Child_249225",
    "title": "Child_249225",
    "link_img": "https://live.staticflickr.com/65535/49710541393_a826163370_o.jpg",
    "id_image": "Child_249225",
    "count_view": 0
  },
  {
    "link_thumb": "https://live.staticflickr.com/65535/49711522051_d4e7e27b7f_n.jpg",
    "id_album": "850176884",
    "description": "Dragon_76707",
    "title": "Dragon_76707",
    "link_img": "https://live.staticflickr.com/65535/49711522051_4c49356414_o.jpg",
    "id_image": "Dragon_76707",
    "count_view": 0
  },
  {
    "link_thumb": "https://live.staticflickr.com/65535/49711232557_6189edaa25_n.jpg",
    "id_album": "-1913845949",
    "description": "Animal_636053",
    "title": "Animal_636053",
    "link_img": "https://live.staticflickr.com/65535/49711232557_f519dcf330_o.jpg",
    "id_image": "Animal_636053",
    "count_view": 0
  },
  {
    "link_thumb": "https://live.staticflickr.com/65535/49711838176_b601a0fa20_n.jpg",
    "id_album": "1402713104",
    "description": "Landscape_866071",
    "title": "Landscape_866071",
    "link_img": "https://live.staticflickr.com/65535/49711838176_1bec1c33a7_o.jpg",
    "id_image": "Landscape_866071",
    "count_view": 0
  },
  {
    "link_thumb": "https://live.staticflickr.com/65535/49711212791_6ac78b878b_n.jpg",
    "id_album": "-437872736",
    "description": "Creature_353834",
    "title": "Creature_353834",
    "link_img": "https://live.staticflickr.com/65535/49711212791_5a2b987cc9_o.jpg",
    "id_image": "Creature_353834",
    "count_view": 0
  },
  {
    "link_thumb": "https://live.staticflickr.com/65535/49711012596_85493902a3_n.jpg",
    "id_album": "1187037014",
    "description": "Battle_911883",
    "title": "Battle_911883",
    "link_img": "https://live.staticflickr.com/65535/49711012596_c2503a036f_o.jpg",
    "id_image": "Battle_911883",
    "count_view": 0
  },
  {
    "link_thumb": "https://live.staticflickr.com/65535/49710550413_bc74ae2c4b_n.jpg",
    "id_album": "430704260",
    "description": "Child_952598",
    "title": "Child_952598",
    "link_img": "https://live.staticflickr.com/65535/49710550413_47163a6461_o.jpg",
    "id_image": "Child_952598",
    "count_view": 0
  },
  {
    "link_thumb": "https://live.staticflickr.com/65535/49727410026_a70e974b7b_n.jpg",
    "id_album": "-1000175186",
    "description": "AngelWarrior_944486",
    "title": "AngelWarrior_944486",
    "link_img": "https://live.staticflickr.com/65535/49727410026_8aa9326dcf_o.jpg",
    "id_image": "AngelWarrior_944486",
    "count_view": 0
  },
  {
    "link_thumb": "https://live.staticflickr.com/65535/49711684342_5fc9d90008_n.jpg",
    "id_album": "850176884",
    "description": "Dragon_122304",
    "title": "Dragon_122304",
    "link_img": "https://live.staticflickr.com/65535/49711684342_e6b9375dbb_o.jpg",
    "id_image": "Dragon_122304",
    "count_view": 0
  },
  {
    "link_thumb": "https://live.staticflickr.com/65535/49711021521_12c11e1df9_n.jpg",
    "id_album": "406431601",
    "description": "Building_115195",
    "title": "Building_115195",
    "link_img": "https://live.staticflickr.com/65535/49711021521_f19c1de84d_o.jpg",
    "id_image": "Building_115195",
    "count_view": 0
  },
  {
    "link_thumb": "https://live.staticflickr.com/65535/49711802163_0a38fee2e5_n.jpg",
    "id_album": "-1126835654",
    "description": "Women_919667",
    "title": "Women_919667",
    "link_img": "https://live.staticflickr.com/65535/49711802163_a17d3fdfd9_o.jpg",
    "id_image": "Women_919667",
    "count_view": 0
  },
  {
    "link_thumb": "https://live.staticflickr.com/65535/49711837508_49758beef7_n.jpg",
    "id_album": "295204930",
    "description": "Women_291759",
    "title": "Women_291759",
    "link_img": "https://live.staticflickr.com/65535/49711837508_415d97ee10_o.jpg",
    "id_image": "Women_291759",
    "count_view": 0
  },
  {
    "link_thumb": "https://live.staticflickr.com/65535/49712542596_887e4b391f_n.jpg",
    "id_album": "-1675918237",
    "description": "WomenWarrior_113296",
    "title": "WomenWarrior_113296",
    "link_img": "https://live.staticflickr.com/65535/49712542596_9115c5cacb_o.jpg",
    "id_image": "WomenWarrior_113296",
    "count_view": 0
  },
  {
    "link_thumb": "https://live.staticflickr.com/65535/49711792952_a5b056d237_n.jpg",
    "id_album": "850176884",
    "description": "Dragon_524146",
    "title": "Dragon_524146",
    "link_img": "https://live.staticflickr.com/65535/49711792952_fbe41e7908_o.jpg",
    "id_image": "Dragon_524146",
    "count_view": 0
  },
  {
    "link_thumb": "https://live.staticflickr.com/65535/49711488192_bf59695587_n.jpg",
    "id_album": "-437872736",
    "description": "Creature_234313",
    "title": "Creature_234313",
    "link_img": "https://live.staticflickr.com/65535/49711488192_f94f8b2568_o.jpg",
    "id_image": "Creature_234313",
    "count_view": 0
  },
  {
    "link_thumb": "https://live.staticflickr.com/65535/49710923251_a445d9c158_n.jpg",
    "id_album": "-1913845949",
    "description": "Animal_948827",
    "title": "Animal_948827",
    "link_img": "https://live.staticflickr.com/65535/49710923251_a635963e90_o.jpg",
    "id_image": "Animal_948827",
    "count_view": 0
  },
  {
    "link_thumb": "https://live.staticflickr.com/65535/49712303916_98d39b166c_n.jpg",
    "id_album": "-1126835654",
    "description": "Women_103857",
    "title": "Women_103857",
    "link_img": "https://live.staticflickr.com/65535/49712303916_8d08b9a811_o.jpg",
    "id_image": "Women_103857",
    "count_view": 0
  },
  {
    "link_thumb": "https://live.staticflickr.com/65535/49711405562_b899b3c12d_n.jpg",
    "id_album": "430704260",
    "description": "Child_742504",
    "title": "Child_742504",
    "link_img": "https://live.staticflickr.com/65535/49711405562_05d69fbeb6_o.jpg",
    "id_image": "Child_742504",
    "count_view": 0
  },
  {
    "link_thumb": "https://live.staticflickr.com/65535/49711693492_b60b8da1e1_n.jpg",
    "id_album": "850176884",
    "description": "Dragon_144579",
    "title": "Dragon_144579",
    "link_img": "https://live.staticflickr.com/65535/49711693492_702f216c65_o.jpg",
    "id_image": "Dragon_144579",
    "count_view": 0
  },
  {
    "link_thumb": "https://live.staticflickr.com/65535/49799144257_57f7dfe790_n.jpg",
    "id_album": "-1703946758",
    "description": "ANIME_PIC_c7d4cac484b1176e6810722ad72eaa3a",
    "title": "ANIME_PIC_c7d4cac484b1176e6810722ad72eaa3a",
    "link_img": "https://live.staticflickr.com/65535/49799144257_cd648ce993_o.jpg",
    "id_image": "ANIME_PIC_c7d4cac484b1176e6810722ad72eaa3a",
    "count_view": 0
  },
  {
    "link_thumb": "https://live.staticflickr.com/65535/49711749228_25425b357a_n.jpg",
    "id_album": "-709711865",
    "description": "Wolf_655550",
    "title": "Wolf_655550",
    "link_img": "https://live.staticflickr.com/65535/49711749228_f1679b7f9b_o.jpg",
    "id_image": "Wolf_655550",
    "count_view": 0
  },
  {
    "link_thumb": "https://live.staticflickr.com/65535/49712287531_93b3001d90_n.jpg",
    "id_album": "-709711865",
    "description": "Wolf_724686",
    "title": "Wolf_724686",
    "link_img": "https://live.staticflickr.com/65535/49712287531_0743df704e_o.jpg",
    "id_image": "Wolf_724686",
    "count_view": 0
  },
  {
    "link_thumb": "https://live.staticflickr.com/65535/49711887796_b3fa0ee5c8_n.jpg",
    "id_album": "-833110404",
    "description": "Landscape_143463",
    "title": "Landscape_143463",
    "link_img": "https://live.staticflickr.com/65535/49711887796_3e0578af06_o.jpg",
    "id_image": "Landscape_143463",
    "count_view": 0
  },
  {
    "link_thumb": "https://live.staticflickr.com/65535/49712595877_b445b4646c_n.jpg",
    "id_album": "-709711865",
    "description": "Wolf_418940",
    "title": "Wolf_418940",
    "link_img": "https://live.staticflickr.com/65535/49712595877_67e47dc2f8_o.jpg",
    "id_image": "Wolf_418940",
    "count_view": 0
  },
  {
    "link_thumb": "https://live.staticflickr.com/65535/49711378757_c2e7fefbd9_n.jpg",
    "id_album": "-1541846310",
    "description": "Castle_707118",
    "title": "Castle_707118",
    "link_img": "https://live.staticflickr.com/65535/49711378757_fe236aaa2e_o.jpg",
    "id_image": "Castle_707118",
    "count_view": 0
  },
  {
    "link_thumb": "https://live.staticflickr.com/65535/49711651407_50af4268c7_n.jpg",
    "id_album": "1903411565",
    "description": "Deer_659151",
    "title": "Deer_659151",
    "link_img": "https://live.staticflickr.com/65535/49711651407_6e21b96f01_o.jpg",
    "id_image": "Deer_659151",
    "count_view": 0
  },
  {
    "link_thumb": "https://live.staticflickr.com/65535/49711509886_7c08fab482_n.jpg",
    "id_album": "850176884",
    "description": "Dragon_697556",
    "title": "Dragon_697556",
    "link_img": "https://live.staticflickr.com/65535/49711509886_d45d6368ef_o.jpg",
    "id_image": "Dragon_697556",
    "count_view": 0
  },
  {
    "link_thumb": "https://live.staticflickr.com/65535/49711222488_00b81c5413_n.jpg",
    "id_album": "-1933715543",
    "description": "Horse_205793",
    "title": "Horse_205793",
    "link_img": "https://live.staticflickr.com/65535/49711222488_ef4157bd4a_o.jpg",
    "id_image": "Horse_205793",
    "count_view": 0
  },
  {
    "link_thumb": "https://live.staticflickr.com/65535/49711983661_35881c1078_n.jpg",
    "id_album": "416744915",
    "description": "Lion_717748",
    "title": "Lion_717748",
    "link_img": "https://live.staticflickr.com/65535/49711983661_252f1b70b6_o.jpg",
    "id_image": "Lion_717748",
    "count_view": 0
  },
  {
    "link_thumb": "https://live.staticflickr.com/65535/49711906363_15ebae8c64_n.jpg",
    "id_album": "1861288871",
    "description": "Women_263786",
    "title": "Women_263786",
    "link_img": "https://live.staticflickr.com/65535/49711906363_45def95c17_o.jpg",
    "id_image": "Women_263786",
    "count_view": 0
  },
  {
    "link_thumb": "https://live.staticflickr.com/65535/49711330707_d9b84d98b7_n.jpg",
    "id_album": "1187037014",
    "description": "Battle_686771",
    "title": "Battle_686771",
    "link_img": "https://live.staticflickr.com/65535/49711330707_cc80b20d90_o.jpg",
    "id_image": "Battle_686771",
    "count_view": 0
  },
  {
    "link_thumb": "https://live.staticflickr.com/65535/49711301063_6eb672ff3e_n.jpg",
    "id_album": "1402713104",
    "description": "Landscape_864726",
    "title": "Landscape_864726",
    "link_img": "https://live.staticflickr.com/65535/49711301063_fa24414b2c_o.jpg",
    "id_image": "Landscape_864726",
    "count_view": 0
  },
  {
    "link_thumb": "https://live.staticflickr.com/65535/49712493807_7b774b23aa_n.jpg",
    "id_album": "46520366",
    "description": "Turtle_413980",
    "title": "Turtle_413980",
    "link_img": "https://live.staticflickr.com/65535/49712493807_c3125d0858_o.jpg",
    "id_image": "Turtle_413980",
    "count_view": 0
  },
  {
    "link_thumb": "https://live.staticflickr.com/65535/49710619403_f2755b00da_n.jpg",
    "id_album": "-437872736",
    "description": "Creature_189604",
    "title": "Creature_189604",
    "link_img": "https://live.staticflickr.com/65535/49710619403_459d41ac76_o.jpg",
    "id_image": "Creature_189604",
    "count_view": 0
  },
  {
    "link_thumb": "https://live.staticflickr.com/65535/49712021166_576e56a162_n.jpg",
    "id_album": "-222719689",
    "description": "Men_967938",
    "title": "Men_967938",
    "link_img": "https://live.staticflickr.com/65535/49712021166_66b781aa3d_o.jpg",
    "id_image": "Men_967938",
    "count_view": 0
  },
  {
    "link_thumb": "https://live.staticflickr.com/65535/49711878051_ffbc9de4ec_n.jpg",
    "id_album": "1402713104",
    "description": "Landscape_972137",
    "title": "Landscape_972137",
    "link_img": "https://live.staticflickr.com/65535/49711878051_3d123ec0cf_o.jpg",
    "id_image": "Landscape_972137",
    "count_view": 0
  },
  {
    "link_thumb": "https://live.staticflickr.com/65535/49710539788_94a0987dc0_n.jpg",
    "id_album": "-1741487325",
    "description": "Cat_970320",
    "title": "Cat_970320",
    "link_img": "https://live.staticflickr.com/65535/49710539788_cb6f166e9b_o.jpg",
    "id_image": "Cat_970320",
    "count_view": 0
  },
  {
    "link_thumb": "https://live.staticflickr.com/65535/49710893706_1475c39866_n.jpg",
    "id_album": "-1913845949",
    "description": "Animal_167033",
    "title": "Animal_167033",
    "link_img": "https://live.staticflickr.com/65535/49710893706_fa2baedb37_o.jpg",
    "id_image": "Animal_167033",
    "count_view": 0
  },
  {
    "link_thumb": "https://live.staticflickr.com/65535/49711656628_bcc7a9e9d3_n.jpg",
    "id_album": "19263973",
    "description": "Viking_509410",
    "title": "Viking_509410",
    "link_img": "https://live.staticflickr.com/65535/49711656628_dca728c5ca_o.jpg",
    "id_image": "Viking_509410",
    "count_view": 0
  },
  {
    "link_thumb": "https://live.staticflickr.com/65535/49711684948_a9a6595d12_n.jpg",
    "id_album": "-1261420436",
    "description": "Warrior_709716",
    "title": "Warrior_709716",
    "link_img": "https://live.staticflickr.com/65535/49711684948_fedc87b613_o.jpg",
    "id_image": "Warrior_709716",
    "count_view": 0
  },
  {
    "link_thumb": "https://live.staticflickr.com/65535/49711239073_51881078b2_n.jpg",
    "id_album": "1957967226",
    "description": "House_998106",
    "title": "House_998106",
    "link_img": "https://live.staticflickr.com/65535/49711239073_6d1be4038b_o.jpg",
    "id_image": "House_998106",
    "count_view": 0
  },
  {
    "link_thumb": "https://live.staticflickr.com/65535/49799134857_32e16f7763_n.jpg",
    "id_album": "-1703946758",
    "description": "ANIME_PIC_89395421708994e2ee9c1bc1693a7ab3",
    "title": "ANIME_PIC_89395421708994e2ee9c1bc1693a7ab3",
    "link_img": "https://live.staticflickr.com/65535/49799134857_e86ed692af_o.jpg",
    "id_image": "ANIME_PIC_89395421708994e2ee9c1bc1693a7ab3",
    "count_view": 0
  },
  {
    "link_thumb": "https://live.staticflickr.com/65535/49711465801_568b105296_n.jpg",
    "id_album": "850176884",
    "description": "Dragon_509424",
    "title": "Dragon_509424",
    "link_img": "https://live.staticflickr.com/65535/49711465801_0ea5319386_o.jpg",
    "id_image": "Dragon_509424",
    "count_view": 0
  },
  {
    "link_thumb": "https://live.staticflickr.com/65535/49711765401_4ba5a16a41_n.jpg",
    "id_album": "1957967226",
    "description": "House_478134",
    "title": "House_478134",
    "link_img": "https://live.staticflickr.com/65535/49711765401_877303f104_o.jpg",
    "id_image": "House_478134",
    "count_view": 0
  },
  {
    "link_thumb": "https://live.staticflickr.com/65535/49711658447_c47bc7b2d1_n.jpg",
    "id_album": "7198985",
    "description": "Demon_243263",
    "title": "Demon_243263",
    "link_img": "https://live.staticflickr.com/65535/49711658447_d503b4245b_o.jpg",
    "id_image": "Demon_243263",
    "count_view": 0
  },
  {
    "link_thumb": "https://live.staticflickr.com/65535/49710781003_aa44b702fa_n.jpg",
    "id_album": "2021464556",
    "description": "Dark_249833",
    "title": "Dark_249833",
    "link_img": "https://live.staticflickr.com/65535/49710781003_d34f9e5781_o.jpg",
    "id_image": "Dark_249833",
    "count_view": 0
  },
  {
    "link_thumb": "https://live.staticflickr.com/65535/49710966066_7d40249f41_n.jpg",
    "id_album": "523598895",
    "description": "Artistic_396994",
    "title": "Artistic_396994",
    "link_img": "https://live.staticflickr.com/65535/49710966066_640136cc0f_o.jpg",
    "id_image": "Artistic_396994",
    "count_view": 0
  },
  {
    "link_thumb": "https://live.staticflickr.com/65535/49711822216_f97e07edb3_n.jpg",
    "id_album": "1402713104",
    "description": "Landscape_816132",
    "title": "Landscape_816132",
    "link_img": "https://live.staticflickr.com/65535/49711822216_70311ef5fa_o.jpg",
    "id_image": "Landscape_816132",
    "count_view": 0
  },
  {
    "link_thumb": "https://live.staticflickr.com/65535/49711275992_25660f1726_n.jpg",
    "id_album": "523598895",
    "description": "Artistic_206705",
    "title": "Artistic_206705",
    "link_img": "https://live.staticflickr.com/65535/49711275992_91a7b3356e_o.jpg",
    "id_image": "Artistic_206705",
    "count_view": 0
  },
  {
    "link_thumb": "https://live.staticflickr.com/65535/49712626567_ef0df6b6bb_n.jpg",
    "id_album": "-1126835654",
    "description": "Women_107890",
    "title": "Women_107890",
    "link_img": "https://live.staticflickr.com/65535/49712626567_7c0ab54187_o.jpg",
    "id_image": "Women_107890",
    "count_view": 0
  },
  {
    "link_thumb": "https://live.staticflickr.com/65535/49711587861_26d849caf9_n.jpg",
    "id_album": "850176884",
    "description": "Dragon_980604",
    "title": "Dragon_980604",
    "link_img": "https://live.staticflickr.com/65535/49711587861_c4c4726314_o.jpg",
    "id_image": "Dragon_980604",
    "count_view": 0
  },
  {
    "link_thumb": "https://live.staticflickr.com/65535/49802268338_f533b597f3_n.jpg",
    "id_album": "-1703946758",
    "description": "ANIME_PIC_7609a391ecee16c9c189a645e7bc7f49",
    "title": "ANIME_PIC_7609a391ecee16c9c189a645e7bc7f49",
    "link_img": "https://live.staticflickr.com/65535/49802268338_36a9866211_o.jpg",
    "id_image": "ANIME_PIC_7609a391ecee16c9c189a645e7bc7f49",
    "count_view": 0
  },
  {
    "link_thumb": "https://live.staticflickr.com/65535/49711318666_7d5e2cb53c_n.jpg",
    "id_album": "2021464556",
    "description": "Dark_313300",
    "title": "Dark_313300",
    "link_img": "https://live.staticflickr.com/65535/49711318666_a3656f7ef7_o.jpg",
    "id_image": "Dark_313300",
    "count_view": 0
  },
  {
    "link_thumb": "https://live.staticflickr.com/65535/49711782608_c37cded4bb_n.jpg",
    "id_album": "-1126835654",
    "description": "Women_875501",
    "title": "Women_875501",
    "link_img": "https://live.staticflickr.com/65535/49711782608_7782410d19_o.jpg",
    "id_image": "Women_875501",
    "count_view": 0
  },
  {
    "link_thumb": "https://live.staticflickr.com/65535/49710558103_563e628721_n.jpg",
    "id_album": "-1964113117",
    "description": "City_244610",
    "title": "City_244610",
    "link_img": "https://live.staticflickr.com/65535/49710558103_9f58151f57_o.jpg",
    "id_image": "City_244610",
    "count_view": 0
  },
  {
    "link_thumb": "https://live.staticflickr.com/65535/49711671628_7d5a10e447_n.jpg",
    "id_album": "-1261420436",
    "description": "Warrior_383472",
    "title": "Warrior_383472",
    "link_img": "https://live.staticflickr.com/65535/49711671628_c43576f4d7_o.jpg",
    "id_image": "Warrior_383472",
    "count_view": 0
  },
  {
    "link_thumb": "https://live.staticflickr.com/65535/49710676073_34a810c0de_n.jpg",
    "id_album": "-437872736",
    "description": "Creature_350128",
    "title": "Creature_350128",
    "link_img": "https://live.staticflickr.com/65535/49710676073_b138a78128_o.jpg",
    "id_image": "Creature_350128",
    "count_view": 0
  },
  {
    "link_thumb": "https://live.staticflickr.com/65535/49711789808_b5e9ddb888_n.jpg",
    "id_album": "-1126835654",
    "description": "Women_880523",
    "title": "Women_880523",
    "link_img": "https://live.staticflickr.com/65535/49711789808_eec0e693fd_o.jpg",
    "id_image": "Women_880523",
    "count_view": 0
  },
  {
    "link_thumb": "https://live.staticflickr.com/65535/49711300208_432e0578a3_n.jpg",
    "id_album": "1402713104",
    "description": "Landscape_864270",
    "title": "Landscape_864270",
    "link_img": "https://live.staticflickr.com/65535/49711300208_339807bace_o.jpg",
    "id_image": "Landscape_864270",
    "count_view": 0
  },
  {
    "link_thumb": "https://live.staticflickr.com/65535/49711689148_4d60cf42ae_n.jpg",
    "id_album": "-1261420436",
    "description": "Warrior_779391",
    "title": "Warrior_779391",
    "link_img": "https://live.staticflickr.com/65535/49711689148_2d079724d6_o.jpg",
    "id_image": "Warrior_779391",
    "count_view": 0
  },
  {
    "link_thumb": "https://live.staticflickr.com/65535/49710591298_80aefedd28_n.jpg",
    "id_album": "-1964113117",
    "description": "City_878051",
    "title": "City_878051",
    "link_img": "https://live.staticflickr.com/65535/49710591298_beb7fec601_o.jpg",
    "id_image": "City_878051",
    "count_view": 0
  },
  {
    "link_thumb": "https://live.staticflickr.com/65535/49711658927_87a5101b80_n.jpg",
    "id_album": "7198985",
    "description": "Demon_273106",
    "title": "Demon_273106",
    "link_img": "https://live.staticflickr.com/65535/49711658927_47054b9c4d_o.jpg",
    "id_image": "Demon_273106",
    "count_view": 0
  },
  {
    "link_thumb": "https://live.staticflickr.com/65535/49711973098_8851162896_n.jpg",
    "id_album": "-867594484",
    "description": "Women_562234",
    "title": "Women_562234",
    "link_img": "https://live.staticflickr.com/65535/49711973098_9ec45d9a13_o.jpg",
    "id_image": "Women_562234",
    "count_view": 0
  },
  {
    "link_thumb": "https://live.staticflickr.com/65535/49712237946_46a34fcbd5_n.jpg",
    "id_album": "-1261420436",
    "description": "Warrior_928586",
    "title": "Warrior_928586",
    "link_img": "https://live.staticflickr.com/65535/49712237946_172e45e7e6_o.jpg",
    "id_image": "Warrior_928586",
    "count_view": 0
  },
  {
    "link_thumb": "https://live.staticflickr.com/65535/49710937158_678c5934c3_n.jpg",
    "id_album": "850176884",
    "description": "Dragon_525444",
    "title": "Dragon_525444",
    "link_img": "https://live.staticflickr.com/65535/49710937158_3bba053254_o.jpg",
    "id_image": "Dragon_525444",
    "count_view": 0
  },
  {
    "link_thumb": "https://live.staticflickr.com/65535/49711471342_510d655dfa_n.jpg",
    "id_album": "-437872736",
    "description": "Creature_154776",
    "title": "Creature_154776",
    "link_img": "https://live.staticflickr.com/65535/49711471342_28e4f6e16c_o.jpg",
    "id_image": "Creature_154776",
    "count_view": 0
  },
  {
    "link_thumb": "https://live.staticflickr.com/65535/49711901622_7f5e46dc11_n.jpg",
    "id_album": "850176884",
    "description": "Dragon_959077",
    "title": "Dragon_959077",
    "link_img": "https://live.staticflickr.com/65535/49711901622_32cfd2264e_o.jpg",
    "id_image": "Dragon_959077",
    "count_view": 0
  },
  {
    "link_thumb": "https://live.staticflickr.com/65535/49712412252_2c7c4cbab1_n.jpg",
    "id_album": "606798642",
    "description": "RedRidingHood_753961",
    "title": "RedRidingHood_753961",
    "link_img": "https://live.staticflickr.com/65535/49712412252_6f5bb8baf7_o.jpg",
    "id_image": "RedRidingHood_753961",
    "count_view": 0
  },
  {
    "link_thumb": "https://live.staticflickr.com/65535/49711278261_72d59f05c9_n.jpg",
    "id_album": "-437872736",
    "description": "Creature_958643",
    "title": "Creature_958643",
    "link_img": "https://live.staticflickr.com/65535/49711278261_d7b69f8feb_o.jpg",
    "id_image": "Creature_958643",
    "count_view": 0
  },
  {
    "link_thumb": "https://live.staticflickr.com/65535/49712082198_0ee2b84691_n.jpg",
    "id_album": "-1675918237",
    "description": "WomenWarrior_494086",
    "title": "WomenWarrior_494086",
    "link_img": "https://live.staticflickr.com/65535/49712082198_54289fda14_o.jpg",
    "id_image": "WomenWarrior_494086",
    "count_view": 0
  },
  {
    "link_thumb": "https://live.staticflickr.com/65535/49710381433_9c80f9622a_n.jpg",
    "id_album": "-1913845949",
    "description": "Animal_724329",
    "title": "Animal_724329",
    "link_img": "https://live.staticflickr.com/65535/49710381433_9136f97cdc_o.jpg",
    "id_image": "Animal_724329",
    "count_view": 0
  },
  {
    "link_thumb": "https://live.staticflickr.com/65535/49711717557_087fda36a0_n.jpg",
    "id_album": "850176884",
    "description": "Dragon_241916",
    "title": "Dragon_241916",
    "link_img": "https://live.staticflickr.com/65535/49711717557_dc5f0f730e_o.jpg",
    "id_image": "Dragon_241916",
    "count_view": 0
  },
  {
    "link_thumb": "https://live.staticflickr.com/65535/49710984361_b60646a951_n.jpg",
    "id_album": "1187037014",
    "description": "Battle_176704",
    "title": "Battle_176704",
    "link_img": "https://live.staticflickr.com/65535/49710984361_ed862bbc8a_o.jpg",
    "id_image": "Battle_176704",
    "count_view": 0
  },
  {
    "link_thumb": "https://live.staticflickr.com/65535/49710819058_031a7e40e3_n.jpg",
    "id_album": "850176884",
    "description": "Dragon_104286",
    "title": "Dragon_104286",
    "link_img": "https://live.staticflickr.com/65535/49710819058_2f1e077702_o.jpg",
    "id_image": "Dragon_104286",
    "count_view": 0
  },
  {
    "link_thumb": "https://live.staticflickr.com/65535/49711281683_40d2cf5549_n.jpg",
    "id_album": "1402713104",
    "description": "Landscape_746410",
    "title": "Landscape_746410",
    "link_img": "https://live.staticflickr.com/65535/49711281683_6f82e795c1_o.jpg",
    "id_image": "Landscape_746410",
    "count_view": 0
  },
  {
    "link_thumb": "https://live.staticflickr.com/65535/49711410692_3236ea420b_n.jpg",
    "id_album": "430704260",
    "description": "Child_987625",
    "title": "Child_987625",
    "link_img": "https://live.staticflickr.com/65535/49711410692_4a3c912fb3_o.jpg",
    "id_image": "Child_987625",
    "count_view": 0
  },
  {
    "link_thumb": "https://live.staticflickr.com/65535/49711784172_affef9ce0a_n.jpg",
    "id_album": "850176884",
    "description": "Dragon_497450",
    "title": "Dragon_497450",
    "link_img": "https://live.staticflickr.com/65535/49711784172_22c1abd501_o.jpg",
    "id_image": "Dragon_497450",
    "count_view": 0
  },
  {
    "link_thumb": "https://live.staticflickr.com/65535/49712140796_bfd32c4935_n.jpg",
    "id_album": "-395228614",
    "description": "Ship_991833",
    "title": "Ship_991833",
    "link_img": "https://live.staticflickr.com/65535/49712140796_dd7c9557a1_o.jpg",
    "id_image": "Ship_991833",
    "count_view": 0
  },
  {
    "link_thumb": "https://live.staticflickr.com/65535/49712766507_e4ba3ea7e4_n.jpg",
    "id_album": "1861288871",
    "description": "Women_477500",
    "title": "Women_477500",
    "link_img": "https://live.staticflickr.com/65535/49712766507_1e517cfac3_o.jpg",
    "id_image": "Women_477500",
    "count_view": 0
  },
  {
    "link_thumb": "https://live.staticflickr.com/65535/49712185251_9fd617d07c_n.jpg",
    "id_album": "431597977",
    "description": "Unicorn_907929",
    "title": "Unicorn_907929",
    "link_img": "https://live.staticflickr.com/65535/49712185251_bea3c4d979_o.jpg",
    "id_image": "Unicorn_907929",
    "count_view": 0
  },
  {
    "link_thumb": "https://live.staticflickr.com/65535/49710952198_74c598f742_n.jpg",
    "id_album": "850176884",
    "description": "Dragon_588778",
    "title": "Dragon_588778",
    "link_img": "https://live.staticflickr.com/65535/49710952198_7f33551450_o.jpg",
    "id_image": "Dragon_588778",
    "count_view": 0
  },
  {
    "link_thumb": "https://live.staticflickr.com/65535/49711338298_42d3a00034_n.jpg",
    "id_album": "1402713104",
    "description": "Landscape_958302",
    "title": "Landscape_958302",
    "link_img": "https://live.staticflickr.com/65535/49711338298_55f2746b19_o.jpg",
    "id_image": "Landscape_958302",
    "count_view": 0
  },
  {
    "link_thumb": "https://live.staticflickr.com/65535/49710654183_7e7ff997c9_n.jpg",
    "id_album": "-437872736",
    "description": "Creature_313387",
    "title": "Creature_313387",
    "link_img": "https://live.staticflickr.com/65535/49710654183_ae5c85571c_o.jpg",
    "id_image": "Creature_313387",
    "count_view": 0
  },
  {
    "link_thumb": "https://live.staticflickr.com/65535/49711902633_978ccf28fe_n.jpg",
    "id_album": "1861288871",
    "description": "Women_238503",
    "title": "Women_238503",
    "link_img": "https://live.staticflickr.com/65535/49711902633_fda113721f_o.jpg",
    "id_image": "Women_238503",
    "count_view": 0
  },
  {
    "link_thumb": "https://live.staticflickr.com/65535/49711445403_5581ecf13e_n.jpg",
    "id_album": "416744915",
    "description": "Lion_479718",
    "title": "Lion_479718",
    "link_img": "https://live.staticflickr.com/65535/49711445403_5ef6813afd_o.jpg",
    "id_image": "Lion_479718",
    "count_view": 0
  },
  {
    "link_thumb": "https://live.staticflickr.com/65535/49711378081_4916f6babc_n.jpg",
    "id_album": "850176884",
    "description": "Dragon_188220",
    "title": "Dragon_188220",
    "link_img": "https://live.staticflickr.com/65535/49711378081_f9935c25fd_o.jpg",
    "id_image": "Dragon_188220",
    "count_view": 0
  },
  {
    "link_thumb": "https://live.staticflickr.com/65535/49711017291_a9bea3d49c_n.jpg",
    "id_album": "-1846011410",
    "description": "Bird_615975",
    "title": "Bird_615975",
    "link_img": "https://live.staticflickr.com/65535/49711017291_6b3ef4b4db_o.jpg",
    "id_image": "Bird_615975",
    "count_view": 0
  },
  {
    "link_thumb": "https://live.staticflickr.com/65535/49712774927_1402ff631b_n.jpg",
    "id_album": "1861288871",
    "description": "Women_745874",
    "title": "Women_745874",
    "link_img": "https://live.staticflickr.com/65535/49712774927_c88bf1b853_o.jpg",
    "id_image": "Women_745874",
    "count_view": 0
  },
  {
    "link_thumb": "https://live.staticflickr.com/65535/49711116026_b36f7646cb_n.jpg",
    "id_album": "-1964113117",
    "description": "City_714126",
    "title": "City_714126",
    "link_img": "https://live.staticflickr.com/65535/49711116026_e49b513d61_o.jpg",
    "id_image": "City_714126",
    "count_view": 0
  },
  {
    "link_thumb": "https://live.staticflickr.com/65535/49712058843_38e4acab63_n.jpg",
    "id_album": "-1675918237",
    "description": "WomenWarrior_374480",
    "title": "WomenWarrior_374480",
    "link_img": "https://live.staticflickr.com/65535/49712058843_d35e11bd60_o.jpg",
    "id_image": "WomenWarrior_374480",
    "count_view": 0
  },
  {
    "link_thumb": "https://live.staticflickr.com/65535/49711087786_e0744f00f9_n.jpg",
    "id_album": "-1964113117",
    "description": "City_134610",
    "title": "City_134610",
    "link_img": "https://live.staticflickr.com/65535/49711087786_6471193ed3_o.jpg",
    "id_image": "City_134610",
    "count_view": 0
  },
  {
    "link_thumb": "https://live.staticflickr.com/65535/49711669196_66c04a5c91_n.jpg",
    "id_album": "-1972042284",
    "description": "Fairy_510559",
    "title": "Fairy_510559",
    "link_img": "https://live.staticflickr.com/65535/49711669196_407e76dc78_o.jpg",
    "id_image": "Fairy_510559",
    "count_view": 0
  },
  {
    "link_thumb": "https://live.staticflickr.com/65535/49710903478_177deedfaf_n.jpg",
    "id_album": "850176884",
    "description": "Dragon_388309",
    "title": "Dragon_388309",
    "link_img": "https://live.staticflickr.com/65535/49710903478_b9b90cfd20_o.jpg",
    "id_image": "Dragon_388309",
    "count_view": 0
  },
  {
    "link_thumb": "https://live.staticflickr.com/65535/49711682348_4d4918395c_n.jpg",
    "id_album": "-1261420436",
    "description": "Warrior_679415",
    "title": "Warrior_679415",
    "link_img": "https://live.staticflickr.com/65535/49711682348_5327ffc945_o.jpg",
    "id_image": "Warrior_679415",
    "count_view": 0
  },
  {
    "link_thumb": "https://live.staticflickr.com/65535/49712349597_f348f171b7_n.jpg",
    "id_album": "1721880108",
    "description": "Mermaid_486477",
    "title": "Mermaid_486477",
    "link_img": "https://live.staticflickr.com/65535/49712349597_717debccbf_o.jpg",
    "id_image": "Mermaid_486477",
    "count_view": 0
  },
  {
    "link_thumb": "https://live.staticflickr.com/65535/49711174126_2d0b622c53_n.jpg",
    "id_album": "-437872736",
    "description": "Creature_275499",
    "title": "Creature_275499",
    "link_img": "https://live.staticflickr.com/65535/49711174126_61bf6243f0_o.jpg",
    "id_image": "Creature_275499",
    "count_view": 0
  },
  {
    "link_thumb": "https://live.staticflickr.com/65535/49711680908_949d9a5242_n.jpg",
    "id_album": "-1261420436",
    "description": "Warrior_615960",
    "title": "Warrior_615960",
    "link_img": "https://live.staticflickr.com/65535/49711680908_b1089de16f_o.jpg",
    "id_image": "Warrior_615960",
    "count_view": 0
  },
  {
    "link_thumb": "https://live.staticflickr.com/65535/49712269891_64191905c0_n.jpg",
    "id_album": "-709711865",
    "description": "Wolf_112422",
    "title": "Wolf_112422",
    "link_img": "https://live.staticflickr.com/65535/49712269891_15d2d395e3_o.jpg",
    "id_image": "Wolf_112422",
    "count_view": 0
  },
  {
    "link_thumb": "https://live.staticflickr.com/65535/49711067796_45cc84d903_n.jpg",
    "id_album": "-1541846310",
    "description": "Castle_926964",
    "title": "Castle_926964",
    "link_img": "https://live.staticflickr.com/65535/49711067796_d227c8c831_o.jpg",
    "id_image": "Castle_926964",
    "count_view": 0
  },
  {
    "link_thumb": "https://live.staticflickr.com/65535/49711673632_0fc1591364_n.jpg",
    "id_album": "850176884",
    "description": "DRAGON26101916500839",
    "title": "DRAGON26101916500839",
    "link_img": "https://live.staticflickr.com/65535/49711673632_07c212bd77_o.jpg",
    "id_image": "DRAGON26101916500839",
    "count_view": 0
  },
  {
    "link_thumb": "https://live.staticflickr.com/65535/49711597723_1d9c711fd3_n.jpg",
    "id_album": "-395228614",
    "description": "Ship_309767",
    "title": "Ship_309767",
    "link_img": "https://live.staticflickr.com/65535/49711597723_ece266a52f_o.jpg",
    "id_image": "Ship_309767",
    "count_view": 0
  },
  {
    "link_thumb": "https://live.staticflickr.com/65535/49712243831_810916676e_n.jpg",
    "id_album": "1173975892",
    "description": "Werewolf_325387",
    "title": "Werewolf_325387",
    "link_img": "https://live.staticflickr.com/65535/49712243831_d0914b921f_o.jpg",
    "id_image": "Werewolf_325387",
    "count_view": 0
  },
  {
    "link_thumb": "https://live.staticflickr.com/65535/49711914757_4fa1eb24d4_n.jpg",
    "id_album": "850176884",
    "description": "Dragon_991593",
    "title": "Dragon_991593",
    "link_img": "https://live.staticflickr.com/65535/49711914757_ceffdb8b80_o.jpg",
    "id_image": "Dragon_991593",
    "count_view": 0
  },
  {
    "link_thumb": "https://live.staticflickr.com/65535/49711936852_e3e7a79321_n.jpg",
    "id_album": "134100487",
    "description": "Elf_493907",
    "title": "Elf_493907",
    "link_img": "https://live.staticflickr.com/65535/49711936852_173dbda2de_o.jpg",
    "id_image": "Elf_493907",
    "count_view": 0
  },
  {
    "link_thumb": "https://live.staticflickr.com/65535/49710866861_2f784eac80_n.jpg",
    "id_album": "-2109465612",
    "description": "Adventure_290390",
    "title": "Adventure_290390",
    "link_img": "https://live.staticflickr.com/65535/49710866861_9273c28784_o.jpg",
    "id_image": "Adventure_290390",
    "count_view": 0
  },
  {
    "link_thumb": "https://live.staticflickr.com/65535/49710891263_93ac19649d_n.jpg",
    "id_album": "850176884",
    "description": "Dragon_333312",
    "title": "Dragon_333312",
    "link_img": "https://live.staticflickr.com/65535/49710891263_af093680ed_o.jpg",
    "id_image": "Dragon_333312",
    "count_view": 0
  },
  {
    "link_thumb": "https://live.staticflickr.com/65535/49711890297_0aa8ba5dde_n.jpg",
    "id_album": "850176884",
    "description": "Dragon_922850",
    "title": "Dragon_922850",
    "link_img": "https://live.staticflickr.com/65535/49711890297_1beddcebd6_o.jpg",
    "id_image": "Dragon_922850",
    "count_view": 0
  },
  {
    "link_thumb": "https://live.staticflickr.com/65535/49711696223_3d7a65628f_n.jpg",
    "id_album": "-1261420436",
    "description": "Warrior_901638",
    "title": "Warrior_901638",
    "link_img": "https://live.staticflickr.com/65535/49711696223_dec2cc3470_o.jpg",
    "id_image": "Warrior_901638",
    "count_view": 0
  },
  {
    "link_thumb": "https://live.staticflickr.com/65535/49711609886_102b8d0ffd_n.jpg",
    "id_album": "134100487",
    "description": "Elf_370739",
    "title": "Elf_370739",
    "link_img": "https://live.staticflickr.com/65535/49711609886_f6d28d37d5_o.jpg",
    "id_image": "Elf_370739",
    "count_view": 0
  },
  {
    "link_thumb": "https://live.staticflickr.com/65535/49711954588_0c6d5ff559_n.jpg",
    "id_album": "-867594484",
    "description": "Women_509505",
    "title": "Women_509505",
    "link_img": "https://live.staticflickr.com/65535/49711954588_efebb63e48_o.jpg",
    "id_image": "Women_509505",
    "count_view": 0
  },
  {
    "link_thumb": "https://live.staticflickr.com/65535/49712798402_8ac3169b6c_n.jpg",
    "id_album": "1861288871",
    "description": "Women_808151",
    "title": "Women_808151",
    "link_img": "https://live.staticflickr.com/65535/49712798402_e2aba6b53f_o.jpg",
    "id_image": "Women_808151",
    "count_view": 0
  },
  {
    "link_thumb": "https://live.staticflickr.com/65535/49712843747_ef6c3913ef_n.jpg",
    "id_album": "-867594484",
    "description": "Women_600186",
    "title": "Women_600186",
    "link_img": "https://live.staticflickr.com/65535/49712843747_9bd39b739a_o.jpg",
    "id_image": "Women_600186",
    "count_view": 0
  },
  {
    "link_thumb": "https://live.staticflickr.com/65535/49712005243_bea2970b1f_n.jpg",
    "id_album": "-867594484",
    "description": "Women_694478",
    "title": "Women_694478",
    "link_img": "https://live.staticflickr.com/65535/49712005243_a0c344e877_o.jpg",
    "id_image": "Women_694478",
    "count_view": 0
  },
  {
    "link_thumb": "https://live.staticflickr.com/65535/49711853511_829d5f56b8_n.jpg",
    "id_album": "1402713104",
    "description": "Landscape_906135",
    "title": "Landscape_906135",
    "link_img": "https://live.staticflickr.com/65535/49711853511_0e04d30da9_o.jpg",
    "id_image": "Landscape_906135",
    "count_view": 0
  },
  {
    "link_thumb": "https://live.staticflickr.com/65535/49711349467_8e95eb87d5_n.jpg",
    "id_album": "406431601",
    "description": "Building_860866",
    "title": "Building_860866",
    "link_img": "https://live.staticflickr.com/65535/49711349467_174188bca2_o.jpg",
    "id_image": "Building_860866",
    "count_view": 0
  },
  {
    "link_thumb": "https://live.staticflickr.com/65535/49711228173_e023788444_n.jpg",
    "id_album": "-1933715543",
    "description": "Horse_922851",
    "title": "Horse_922851",
    "link_img": "https://live.staticflickr.com/65535/49711228173_992ec6386e_o.jpg",
    "id_image": "Horse_922851",
    "count_view": 0
  },
  {
    "link_thumb": "https://live.staticflickr.com/65535/49711131081_71db4422cb_n.jpg",
    "id_album": "-1964113117",
    "description": "City_929602",
    "title": "City_929602",
    "link_img": "https://live.staticflickr.com/65535/49711131081_afb1f7da64_o.jpg",
    "id_image": "City_929602",
    "count_view": 0
  },
  {
    "link_thumb": "https://live.staticflickr.com/65535/49712133846_51e3f4f905_n.jpg",
    "id_album": "-395228614",
    "description": "Ship_366444",
    "title": "Ship_366444",
    "link_img": "https://live.staticflickr.com/65535/49712133846_85df240541_o.jpg",
    "id_image": "Ship_366444",
    "count_view": 0
  },
  {
    "link_thumb": "https://live.staticflickr.com/65535/49710880603_06dd478263_n.jpg",
    "id_album": "850176884",
    "description": "Dragon_314712",
    "title": "Dragon_314712",
    "link_img": "https://live.staticflickr.com/65535/49710880603_831fdcca28_o.jpg",
    "id_image": "Dragon_314712",
    "count_view": 0
  },
  {
    "link_thumb": "https://live.staticflickr.com/65535/49711599616_090ae27f36_n.jpg",
    "id_album": "-1594184835",
    "description": "Dwarf_970764",
    "title": "Dwarf_970764",
    "link_img": "https://live.staticflickr.com/65535/49711599616_f23de2c670_o.jpg",
    "id_image": "Dwarf_970764",
    "count_view": 0
  },
  {
    "link_thumb": "https://live.staticflickr.com/65535/49712720262_31d57b807f_n.jpg",
    "id_album": "295204930",
    "description": "Women_419372",
    "title": "Women_419372",
    "link_img": "https://live.staticflickr.com/65535/49712720262_7404067b5b_o.jpg",
    "id_image": "Women_419372",
    "count_view": 0
  },
  {
    "link_thumb": "https://live.staticflickr.com/65535/49710680403_3c4fca4ceb_n.jpg",
    "id_album": "-437872736",
    "description": "Creature_367142",
    "title": "Creature_367142",
    "link_img": "https://live.staticflickr.com/65535/49710680403_7f4353c752_o.jpg",
    "id_image": "Creature_367142",
    "count_view": 0
  },
  {
    "link_thumb": "https://live.staticflickr.com/65535/49711809907_453431934b_n.jpg",
    "id_album": "850176884",
    "description": "Dragon_590960",
    "title": "Dragon_590960",
    "link_img": "https://live.staticflickr.com/65535/49711809907_08d5ff167c_o.jpg",
    "id_image": "Dragon_590960",
    "count_view": 0
  },
  {
    "link_thumb": "https://live.staticflickr.com/65535/49712420436_f6d2944424_n.jpg",
    "id_album": "295204930",
    "description": "Women_738226",
    "title": "Women_738226",
    "link_img": "https://live.staticflickr.com/65535/49712420436_cd6f3ef138_o.jpg",
    "id_image": "Women_738226",
    "count_view": 0
  },
  {
    "link_thumb": "https://live.staticflickr.com/65535/49712288301_80deeafc07_n.jpg",
    "id_album": "-709711865",
    "description": "Wolf_735449",
    "title": "Wolf_735449",
    "link_img": "https://live.staticflickr.com/65535/49712288301_6c692ec27f_o.jpg",
    "id_image": "Wolf_735449",
    "count_view": 0
  },
  {
    "link_thumb": "https://live.staticflickr.com/65535/49711361802_afe8ff9ebf_n.jpg",
    "id_album": "-1541846310",
    "description": "Castle_212695",
    "title": "Castle_212695",
    "link_img": "https://live.staticflickr.com/65535/49711361802_e534ba29b9_o.jpg",
    "id_image": "Castle_212695",
    "count_view": 0
  },
  {
    "link_thumb": "https://live.staticflickr.com/65535/49712394641_49cc645acc_n.jpg",
    "id_album": "295204930",
    "description": "Women_404347",
    "title": "Women_404347",
    "link_img": "https://live.staticflickr.com/65535/49712394641_a3941b538b_o.jpg",
    "id_image": "Women_404347",
    "count_view": 0
  },
  {
    "link_thumb": "https://live.staticflickr.com/65535/49893363431_b829475d5e_n.jpg",
    "id_album": "-1703946758",
    "description": "ANIME_PIC_516807fcc2612e120c9ed0e45a95b00d",
    "title": "ANIME_PIC_516807fcc2612e120c9ed0e45a95b00d",
    "link_img": "https://live.staticflickr.com/65535/49893363431_0dcfb94fe8_o.jpg",
    "id_image": "ANIME_PIC_516807fcc2612e120c9ed0e45a95b00d",
    "count_view": 0
  },
  {
    "link_thumb": "https://live.staticflickr.com/65535/49711671912_c2009672da_n.jpg",
    "id_album": "850176884",
    "description": "DRAGON26101916495224",
    "title": "DRAGON26101916495224",
    "link_img": "https://live.staticflickr.com/65535/49711671912_0c94ffe5be_o.jpg",
    "id_image": "DRAGON26101916495224",
    "count_view": 0
  },
  {
    "link_thumb": "https://live.staticflickr.com/65535/49711742302_c9f2ba7944_n.jpg",
    "id_album": "850176884",
    "description": "Dragon_323977",
    "title": "Dragon_323977",
    "link_img": "https://live.staticflickr.com/65535/49711742302_343fb9628c_o.jpg",
    "id_image": "Dragon_323977",
    "count_view": 0
  },
  {
    "link_thumb": "https://live.staticflickr.com/65535/49711758336_d5f8cdd141_n.jpg",
    "id_album": "-1933715543",
    "description": "Horse_507354",
    "title": "Horse_507354",
    "link_img": "https://live.staticflickr.com/65535/49711758336_f7c5f11e6e_o.jpg",
    "id_image": "Horse_507354",
    "count_view": 0
  },
  {
    "link_thumb": "https://live.staticflickr.com/65535/49712193576_14ee2eb354_n.jpg",
    "id_album": "19263973",
    "description": "Viking_874773",
    "title": "Viking_874773",
    "link_img": "https://live.staticflickr.com/65535/49712193576_b8bb21bcb2_o.jpg",
    "id_image": "Viking_874773",
    "count_view": 0
  },
  {
    "link_thumb": "https://live.staticflickr.com/65535/49711606967_d8b60ec868_n.jpg",
    "id_album": "-437872736",
    "description": "Creature_958682",
    "title": "Creature_958682",
    "link_img": "https://live.staticflickr.com/65535/49711606967_ef35ae26c5_o.jpg",
    "id_image": "Creature_958682",
    "count_view": 0
  },
  {
    "link_thumb": "https://live.staticflickr.com/65535/49712089862_6f705350fa_n.jpg",
    "id_album": "1957967226",
    "description": "House_600182",
    "title": "House_600182",
    "link_img": "https://live.staticflickr.com/65535/49712089862_43674e0068_o.jpg",
    "id_image": "House_600182",
    "count_view": 0
  },
  {
    "link_thumb": "https://live.staticflickr.com/65535/49712511722_7daa7e6cb0_n.jpg",
    "id_album": "43335239",
    "description": "Vampire_695010",
    "title": "Vampire_695010",
    "link_img": "https://live.staticflickr.com/65535/49712511722_601f6aac35_o.jpg",
    "id_image": "Vampire_695010",
    "count_view": 0
  },
  {
    "link_thumb": "https://live.staticflickr.com/65535/49711684917_22c6036d59_n.jpg",
    "id_album": "850176884",
    "description": "Dragon_122310",
    "title": "Dragon_122310",
    "link_img": "https://live.staticflickr.com/65535/49711684917_1a75a699d6_o.jpg",
    "id_image": "Dragon_122310",
    "count_view": 0
  },
  {
    "link_thumb": "https://live.staticflickr.com/65535/49712862577_64d361d76a_n.jpg",
    "id_album": "-867594484",
    "description": "Women_692685",
    "title": "Women_692685",
    "link_img": "https://live.staticflickr.com/65535/49712862577_f87b579abd_o.jpg",
    "id_image": "Women_692685",
    "count_view": 0
  },
  {
    "link_thumb": "https://live.staticflickr.com/65535/49711967743_6997943621_n.jpg",
    "id_album": "-867594484",
    "description": "Women_545316",
    "title": "Women_545316",
    "link_img": "https://live.staticflickr.com/65535/49711967743_fd4d983d29_o.jpg",
    "id_image": "Women_545316",
    "count_view": 0
  },
  {
    "link_thumb": "https://live.staticflickr.com/65535/49711848246_578e315c74_n.jpg",
    "id_album": "1402713104",
    "description": "Landscape_874273",
    "title": "Landscape_874273",
    "link_img": "https://live.staticflickr.com/65535/49711848246_74789e13c2_o.jpg",
    "id_image": "Landscape_874273",
    "count_view": 0
  },
  {
    "link_thumb": "https://live.staticflickr.com/65535/49712821342_994a0399fe_n.jpg",
    "id_album": "-867594484",
    "description": "Women_525441",
    "title": "Women_525441",
    "link_img": "https://live.staticflickr.com/65535/49712821342_6343b3f594_o.jpg",
    "id_image": "Women_525441",
    "count_view": 0
  },
  {
    "link_thumb": "https://live.staticflickr.com/65535/49710442008_bcabbe15a8_n.jpg",
    "id_album": "523598895",
    "description": "Artistic_603764",
    "title": "Artistic_603764",
    "link_img": "https://live.staticflickr.com/65535/49710442008_7d3f56dc7c_o.jpg",
    "id_image": "Artistic_603764",
    "count_view": 0
  },
  {
    "link_thumb": "https://live.staticflickr.com/65535/49711032711_1b2b1ecde1_n.jpg",
    "id_album": "-1541846310",
    "description": "Castle_146467",
    "title": "Castle_146467",
    "link_img": "https://live.staticflickr.com/65535/49711032711_973db82689_o.jpg",
    "id_image": "Castle_146467",
    "count_view": 0
  },
  {
    "link_thumb": "https://live.staticflickr.com/65535/49711074046_04f8520250_n.jpg",
    "id_album": "-1741487325",
    "description": "Cat_909818",
    "title": "Cat_909818",
    "link_img": "https://live.staticflickr.com/65535/49711074046_6cddd56bd2_o.jpg",
    "id_image": "Cat_909818",
    "count_view": 0
  },
  {
    "link_thumb": "https://live.staticflickr.com/65535/49711029021_4d5e4dff10_n.jpg",
    "id_album": "406431601",
    "description": "Building_958306",
    "title": "Building_958306",
    "link_img": "https://live.staticflickr.com/65535/49711029021_371572a792_o.jpg",
    "id_image": "Building_958306",
    "count_view": 0
  },
  {
    "link_thumb": "https://live.staticflickr.com/65535/49711324736_5e776b9a4f_n.jpg",
    "id_album": "2021464556",
    "description": "Dark_912995",
    "title": "Dark_912995",
    "link_img": "https://live.staticflickr.com/65535/49711324736_02ce504480_o.jpg",
    "id_image": "Dark_912995",
    "count_view": 0
  },
  {
    "link_thumb": "https://live.staticflickr.com/65535/49710993336_46d3becc75_n.jpg",
    "id_album": "1187037014",
    "description": "Battle_328332",
    "title": "Battle_328332",
    "link_img": "https://live.staticflickr.com/65535/49710993336_9c81162f0a_o.jpg",
    "id_image": "Battle_328332",
    "count_view": 0
  },
  {
    "link_thumb": "https://live.staticflickr.com/65535/49711354492_d6a28d9207_n.jpg",
    "id_album": "-1541846310",
    "description": "Castle_111317",
    "title": "Castle_111317",
    "link_img": "https://live.staticflickr.com/65535/49711354492_eb26ef22a1_o.jpg",
    "id_image": "Castle_111317",
    "count_view": 0
  },
  {
    "link_thumb": "https://live.staticflickr.com/65535/49710948783_2c9d17b503_n.jpg",
    "id_album": "850176884",
    "description": "Dragon_568351",
    "title": "Dragon_568351",
    "link_img": "https://live.staticflickr.com/65535/49710948783_7b5e16650a_o.jpg",
    "id_image": "Dragon_568351",
    "count_view": 0
  },
  {
    "link_thumb": "https://live.staticflickr.com/65535/49711848362_aae482fa06_n.jpg",
    "id_album": "850176884",
    "description": "Dragon_785708",
    "title": "Dragon_785708",
    "link_img": "https://live.staticflickr.com/65535/49711848362_b74ff1981e_o.jpg",
    "id_image": "Dragon_785708",
    "count_view": 0
  },
  {
    "link_thumb": "https://live.staticflickr.com/65535/49710380403_8ab0098cf0_n.jpg",
    "id_album": "-1913845949",
    "description": "Animal_653387",
    "title": "Animal_653387",
    "link_img": "https://live.staticflickr.com/65535/49710380403_4ffe3c204e_o.jpg",
    "id_image": "Animal_653387",
    "count_view": 0
  },
  {
    "link_thumb": "https://live.staticflickr.com/65535/49711486882_2ebe84e9f1_n.jpg",
    "id_album": "-437872736",
    "description": "Creature_225249",
    "title": "Creature_225249",
    "link_img": "https://live.staticflickr.com/65535/49711486882_1b326c5459_o.jpg",
    "id_image": "Creature_225249",
    "count_view": 0
  },
  {
    "link_thumb": "https://live.staticflickr.com/65535/49711174651_142f4aa445_n.jpg",
    "id_album": "-437872736",
    "description": "Creature_280792",
    "title": "Creature_280792",
    "link_img": "https://live.staticflickr.com/65535/49711174651_f5e7c81163_o.jpg",
    "id_image": "Creature_280792",
    "count_view": 0
  },
  {
    "link_thumb": "https://live.staticflickr.com/65535/49710487163_3b320d958a_n.jpg",
    "id_album": "406431601",
    "description": "Building_130058",
    "title": "Building_130058",
    "link_img": "https://live.staticflickr.com/65535/49710487163_f53ca65735_o.jpg",
    "id_image": "Building_130058",
    "count_view": 0
  },
  {
    "link_thumb": "https://live.staticflickr.com/65535/49710729323_b142f84ca2_n.jpg",
    "id_album": "-437872736",
    "description": "Creature_740977",
    "title": "Creature_740977",
    "link_img": "https://live.staticflickr.com/65535/49710729323_713b87c8c1_o.jpg",
    "id_image": "Creature_740977",
    "count_view": 0
  },
  {
    "link_thumb": "https://live.staticflickr.com/65535/49710765313_e31dae1bb6_n.jpg",
    "id_album": "-437872736",
    "description": "Creature_958956",
    "title": "Creature_958956",
    "link_img": "https://live.staticflickr.com/65535/49710765313_902bd2d2ec_o.jpg",
    "id_image": "Creature_958956",
    "count_view": 0
  },
  {
    "link_thumb": "https://live.staticflickr.com/65535/49711295391_9c76981d64_n.jpg",
    "id_album": "-437872736",
    "description": "Creature_958904",
    "title": "Creature_958904",
    "link_img": "https://live.staticflickr.com/65535/49711295391_56b94b3ba6_o.jpg",
    "id_image": "Creature_958904",
    "count_view": 0
  },
  {
    "link_thumb": "https://live.staticflickr.com/65535/49712049623_ba3f025352_n.jpg",
    "id_album": "-1675918237",
    "description": "WomenWarrior_329815",
    "title": "WomenWarrior_329815",
    "link_img": "https://live.staticflickr.com/65535/49712049623_b58ca699a4_o.jpg",
    "id_image": "WomenWarrior_329815",
    "count_view": 0
  },
  {
    "link_thumb": "https://live.staticflickr.com/65535/49712740992_f1f4278fb6_n.jpg",
    "id_album": "295204930",
    "description": "Women_731129",
    "title": "Women_731129",
    "link_img": "https://live.staticflickr.com/65535/49712740992_2341eca52d_o.jpg",
    "id_image": "Women_731129",
    "count_view": 0
  },
  {
    "link_thumb": "https://live.staticflickr.com/65535/49711683842_a3e3903f1b_n.jpg",
    "id_album": "850176884",
    "description": "Dragon_122297",
    "title": "Dragon_122297",
    "link_img": "https://live.staticflickr.com/65535/49711683842_edcf81a201_o.jpg",
    "id_image": "Dragon_122297",
    "count_view": 0
  },
  {
    "link_thumb": "https://live.staticflickr.com/65535/49711014603_05465e7fcb_n.jpg",
    "id_album": "850176884",
    "description": "Dragon_881636",
    "title": "Dragon_881636",
    "link_img": "https://live.staticflickr.com/65535/49711014603_510b3499b4_o.jpg",
    "id_image": "Dragon_881636",
    "count_view": 0
  },
  {
    "link_thumb": "https://live.staticflickr.com/65535/49710381203_c67a292a80_n.jpg",
    "id_album": "-1913845949",
    "description": "Animal_700945",
    "title": "Animal_700945",
    "link_img": "https://live.staticflickr.com/65535/49710381203_253d542c92_o.jpg",
    "id_image": "Animal_700945",
    "count_view": 0
  },
  {
    "link_thumb": "https://live.staticflickr.com/65535/49711927277_8b929eca7b_n.jpg",
    "id_album": "134100487",
    "description": "Elf_196555",
    "title": "Elf_196555",
    "link_img": "https://live.staticflickr.com/65535/49711927277_eae2216ec8_o.jpg",
    "id_image": "Elf_196555",
    "count_view": 0
  },
  {
    "link_thumb": "https://live.staticflickr.com/65535/49711711987_3ec7691016_n.jpg",
    "id_album": "850176884",
    "description": "Dragon_229823",
    "title": "Dragon_229823",
    "link_img": "https://live.staticflickr.com/65535/49711711987_71c0b4eb61_o.jpg",
    "id_image": "Dragon_229823",
    "count_view": 0
  },
  {
    "link_thumb": "https://live.staticflickr.com/65535/49710484408_78ea712d68_n.jpg",
    "id_album": "-1846011410",
    "description": "Bird_838611",
    "title": "Bird_838611",
    "link_img": "https://live.staticflickr.com/65535/49710484408_668fdcefec_o.jpg",
    "id_image": "Bird_838611",
    "count_view": 0
  },
  {
    "link_thumb": "https://live.staticflickr.com/65535/49711096756_0179f95134_n.jpg",
    "id_album": "-1964113117",
    "description": "City_324907",
    "title": "City_324907",
    "link_img": "https://live.staticflickr.com/65535/49711096756_ceabe8363d_o.jpg",
    "id_image": "City_324907",
    "count_view": 0
  },
  {
    "link_thumb": "https://live.staticflickr.com/65535/49712000033_edc87669a5_n.jpg",
    "id_album": "-867594484",
    "description": "Women_686611",
    "title": "Women_686611",
    "link_img": "https://live.staticflickr.com/65535/49712000033_be1f5b24f1_o.jpg",
    "id_image": "Women_686611",
    "count_view": 0
  },
  {
    "link_thumb": "https://live.staticflickr.com/65535/49711418746_0a099072a0_n.jpg",
    "id_album": "850176884",
    "description": "Dragon_317205",
    "title": "Dragon_317205",
    "link_img": "https://live.staticflickr.com/65535/49711418746_561fda4722_o.jpg",
    "id_image": "Dragon_317205",
    "count_view": 0
  },
  {
    "link_thumb": "https://live.staticflickr.com/65535/49711918186_11baab8e7d_n.jpg",
    "id_album": "-833110404",
    "description": "Landscape_294960",
    "title": "Landscape_294960",
    "link_img": "https://live.staticflickr.com/65535/49711918186_7e6c74bf14_o.jpg",
    "id_image": "Landscape_294960",
    "count_view": 0
  },
  {
    "link_thumb": "https://live.staticflickr.com/65535/49712408042_e96fa1a3d8_n.jpg",
    "id_album": "1587588550",
    "description": "Place_260515",
    "title": "Place_260515",
    "link_img": "https://live.staticflickr.com/65535/49712408042_b1ae943ce7_o.jpg",
    "id_image": "Place_260515",
    "count_view": 0
  },
  {
    "link_thumb": "https://live.staticflickr.com/65535/49710614963_f26484727b_n.jpg",
    "id_album": "-437872736",
    "description": "Creature_167900",
    "title": "Creature_167900",
    "link_img": "https://live.staticflickr.com/65535/49710614963_cb6a977767_o.jpg",
    "id_image": "Creature_167900",
    "count_view": 0
  },
  {
    "link_thumb": "https://live.staticflickr.com/65535/49712511956_f751a4e08b_n.jpg",
    "id_album": "-867594484",
    "description": "Women_572879",
    "title": "Women_572879",
    "link_img": "https://live.staticflickr.com/65535/49712511956_c38f9d7c93_o.jpg",
    "id_image": "Women_572879",
    "count_view": 0
  },
  {
    "link_thumb": "https://live.staticflickr.com/65535/49711300413_dd80dd6256_n.jpg",
    "id_album": "1402713104",
    "description": "Landscape_864512",
    "title": "Landscape_864512",
    "link_img": "https://live.staticflickr.com/65535/49711300413_3a0c721d71_o.jpg",
    "id_image": "Landscape_864512",
    "count_view": 0
  },
  {
    "link_thumb": "https://live.staticflickr.com/65535/49711608896_94b6e4b302_n.jpg",
    "id_album": "134100487",
    "description": "Elf_339817",
    "title": "Elf_339817",
    "link_img": "https://live.staticflickr.com/65535/49711608896_979d42e9f5_o.jpg",
    "id_image": "Elf_339817",
    "count_view": 0
  },
  {
    "link_thumb": "https://live.staticflickr.com/65535/49711077196_364ae8d74d_n.jpg",
    "id_album": "430704260",
    "description": "Child_566148",
    "title": "Child_566148",
    "link_img": "https://live.staticflickr.com/65535/49711077196_c8a27696c4_o.jpg",
    "id_image": "Child_566148",
    "count_view": 0
  },
  {
    "link_thumb": "https://live.staticflickr.com/65535/49710860296_a486eb06a0_n.jpg",
    "id_album": "-2109465612",
    "description": "Adventure_235339",
    "title": "Adventure_235339",
    "link_img": "https://live.staticflickr.com/65535/49710860296_c41019824e_o.jpg",
    "id_image": "Adventure_235339",
    "count_view": 0
  },
  {
    "link_thumb": "https://live.staticflickr.com/65535/49710568698_886f20a1c2_n.jpg",
    "id_album": "-1964113117",
    "description": "City_511302",
    "title": "City_511302",
    "link_img": "https://live.staticflickr.com/65535/49710568698_3f285ebabd_o.jpg",
    "id_image": "City_511302",
    "count_view": 0
  },
  {
    "link_thumb": "https://live.staticflickr.com/65535/49711691047_61db678d85_n.jpg",
    "id_album": "850176884",
    "description": "Dragon_129843",
    "title": "Dragon_129843",
    "link_img": "https://live.staticflickr.com/65535/49711691047_e0a1ac6cb8_o.jpg",
    "id_image": "Dragon_129843",
    "count_view": 0
  },
  {
    "link_thumb": "https://live.staticflickr.com/65535/49711078136_043fced20c_n.jpg",
    "id_album": "430704260",
    "description": "Child_701420",
    "title": "Child_701420",
    "link_img": "https://live.staticflickr.com/65535/49711078136_93d9bc872c_o.jpg",
    "id_image": "Child_701420",
    "count_view": 0
  },
  {
    "link_thumb": "https://live.staticflickr.com/65535/49711901142_921361c08c_n.jpg",
    "id_album": "850176884",
    "description": "Dragon_958580",
    "title": "Dragon_958580",
    "link_img": "https://live.staticflickr.com/65535/49711901142_a4f556ff0e_o.jpg",
    "id_image": "Dragon_958580",
    "count_view": 0
  },
  {
    "link_thumb": "https://live.staticflickr.com/65535/49711389116_fcebf42a04_n.jpg",
    "id_album": "850176884",
    "description": "Dragon_225868",
    "title": "Dragon_225868",
    "link_img": "https://live.staticflickr.com/65535/49711389116_21687d545f_o.jpg",
    "id_image": "Dragon_225868",
    "count_view": 0
  },
  {
    "link_thumb": "https://live.staticflickr.com/65535/49711642063_cb3a94637b_n.jpg",
    "id_album": "431597977",
    "description": "Unicorn_239474",
    "title": "Unicorn_239474",
    "link_img": "https://live.staticflickr.com/65535/49711642063_7e16e15dca_o.jpg",
    "id_image": "Unicorn_239474",
    "count_view": 0
  },
  {
    "link_thumb": "https://live.staticflickr.com/65535/49712503447_2e10b81a4f_n.jpg",
    "id_album": "431597977",
    "description": "Unicorn_687139",
    "title": "Unicorn_687139",
    "link_img": "https://live.staticflickr.com/65535/49712503447_41d7be55e9_o.jpg",
    "id_image": "Unicorn_687139",
    "count_view": 0
  },
  {
    "link_thumb": "https://live.staticflickr.com/65535/49710632418_6afdb0815f_n.jpg",
    "id_album": "-437872736",
    "description": "Creature_258109",
    "title": "Creature_258109",
    "link_img": "https://live.staticflickr.com/65535/49710632418_6c3eb23f3e_o.jpg",
    "id_image": "Creature_258109",
    "count_view": 0
  },
  {
    "link_thumb": "https://live.staticflickr.com/65535/49710982298_d186f9ed42_n.jpg",
    "id_album": "850176884",
    "description": "Dragon_732386",
    "title": "Dragon_732386",
    "link_img": "https://live.staticflickr.com/65535/49710982298_79b9f3d81a_o.jpg",
    "id_image": "Dragon_732386",
    "count_view": 0
  },
  {
    "link_thumb": "https://live.staticflickr.com/65535/49710533418_55f8ab004b_n.jpg",
    "id_album": "-1741487325",
    "description": "Cat_129816",
    "title": "Cat_129816",
    "link_img": "https://live.staticflickr.com/65535/49710533418_f7fbfee94d_o.jpg",
    "id_image": "Cat_129816",
    "count_view": 0
  },
  {
    "link_thumb": "https://live.staticflickr.com/65535/49711403078_566e53f3aa_n.jpg",
    "id_album": "-833110404",
    "description": "Landscape_411795",
    "title": "Landscape_411795",
    "link_img": "https://live.staticflickr.com/65535/49711403078_95117183e6_o.jpg",
    "id_image": "Landscape_411795",
    "count_view": 0
  },
  {
    "link_thumb": "https://live.staticflickr.com/65535/49710434798_5fc15dd390_n.jpg",
    "id_album": "523598895",
    "description": "Artistic_455561",
    "title": "Artistic_455561",
    "link_img": "https://live.staticflickr.com/65535/49710434798_b32b5d5fa2_o.jpg",
    "id_image": "Artistic_455561",
    "count_view": 0
  },
  {
    "link_thumb": "https://live.staticflickr.com/65535/49712341562_179d57c44b_n.jpg",
    "id_album": "-222719689",
    "description": "Men_703169",
    "title": "Men_703169",
    "link_img": "https://live.staticflickr.com/65535/49712341562_d466ed32b4_o.jpg",
    "id_image": "Men_703169",
    "count_view": 0
  },
  {
    "link_thumb": "https://live.staticflickr.com/65535/49711914053_43861c2a05_n.jpg",
    "id_album": "1861288871",
    "description": "Women_496562",
    "title": "Women_496562",
    "link_img": "https://live.staticflickr.com/65535/49711914053_c5466df4b2_o.jpg",
    "id_image": "Women_496562",
    "count_view": 0
  },
  {
    "link_thumb": "https://live.staticflickr.com/65535/49712540826_a3e965a7f9_n.jpg",
    "id_album": "-867594484",
    "description": "Women_694561",
    "title": "Women_694561",
    "link_img": "https://live.staticflickr.com/65535/49712540826_71dae804cb_o.jpg",
    "id_image": "Women_694561",
    "count_view": 0
  },
  {
    "link_thumb": "https://live.staticflickr.com/65535/49726864408_f291e326a0_n.jpg",
    "id_album": "850176884",
    "description": "Dragon_599131",
    "title": "Dragon_599131",
    "link_img": "https://live.staticflickr.com/65535/49726864408_6aeac83828_o.jpg",
    "id_image": "Dragon_599131",
    "count_view": 0
  },
  {
    "link_thumb": "https://live.staticflickr.com/65535/49711032823_150e1ae522_n.jpg",
    "id_album": "850176884",
    "description": "Dragon_921806",
    "title": "Dragon_921806",
    "link_img": "https://live.staticflickr.com/65535/49711032823_9657674319_o.jpg",
    "id_image": "Dragon_921806",
    "count_view": 0
  },
  {
    "link_thumb": "https://live.staticflickr.com/65535/49711785676_f6171818b2_n.jpg",
    "id_album": "469960528",
    "description": "Knight_715691",
    "title": "Knight_715691",
    "link_img": "https://live.staticflickr.com/65535/49711785676_7fb8eb9666_o.jpg",
    "id_image": "Knight_715691",
    "count_view": 0
  },
  {
    "link_thumb": "https://live.staticflickr.com/65535/49711264621_d3721216ac_n.jpg",
    "id_album": "-437872736",
    "description": "Creature_720144",
    "title": "Creature_720144",
    "link_img": "https://live.staticflickr.com/65535/49711264621_559055fb12_o.jpg",
    "id_image": "Creature_720144",
    "count_view": 0
  },
  {
    "link_thumb": "https://live.staticflickr.com/65535/49711308072_4b4552ea64_n.jpg",
    "id_album": "1187037014",
    "description": "Battle_175578",
    "title": "Battle_175578",
    "link_img": "https://live.staticflickr.com/65535/49711308072_06842ebf67_o.jpg",
    "id_image": "Battle_175578",
    "count_view": 0
  },
  {
    "link_thumb": "https://live.staticflickr.com/65535/49711141736_34cb8025eb_n.jpg",
    "id_album": "-437872736",
    "description": "Creature_130083",
    "title": "Creature_130083",
    "link_img": "https://live.staticflickr.com/65535/49711141736_4608de9373_o.jpg",
    "id_image": "Creature_130083",
    "count_view": 0
  },
  {
    "link_thumb": "https://live.staticflickr.com/65535/49711401196_3b48be34fc_n.jpg",
    "id_album": "850176884",
    "description": "Dragon_249865",
    "title": "Dragon_249865",
    "link_img": "https://live.staticflickr.com/65535/49711401196_8d76cbf978_o.jpg",
    "id_image": "Dragon_249865",
    "count_view": 0
  },
  {
    "link_thumb": "https://live.staticflickr.com/65535/49712384102_4727594664_n.jpg",
    "id_album": "-639976841",
    "description": "Pegasus_245919",
    "title": "Pegasus_245919",
    "link_img": "https://live.staticflickr.com/65535/49712384102_b8f82e1432_o.jpg",
    "id_image": "Pegasus_245919",
    "count_view": 0
  },
  {
    "link_thumb": "https://live.staticflickr.com/65535/49711506718_08a76ae9e0_n.jpg",
    "id_album": "1892085513",
    "description": "Oriental_309781",
    "title": "Oriental_309781",
    "link_img": "https://live.staticflickr.com/65535/49711506718_5621b6704f_o.jpg",
    "id_image": "Oriental_309781",
    "count_view": 0
  },
  {
    "link_thumb": "https://live.staticflickr.com/65535/49711775523_46d30ca72f_n.jpg",
    "id_album": "-1126835654",
    "description": "Women_856054",
    "title": "Women_856054",
    "link_img": "https://live.staticflickr.com/65535/49711775523_0be102100d_o.jpg",
    "id_image": "Women_856054",
    "count_view": 0
  },
  {
    "link_thumb": "https://live.staticflickr.com/65535/49710483688_1060dceb73_n.jpg",
    "id_album": "-1846011410",
    "description": "Bird_729090",
    "title": "Bird_729090",
    "link_img": "https://live.staticflickr.com/65535/49710483688_f38950c862_o.jpg",
    "id_image": "Bird_729090",
    "count_view": 0
  },
  {
    "link_thumb": "https://live.staticflickr.com/65535/49711773397_f2a0933fbb_n.jpg",
    "id_album": "850176884",
    "description": "Dragon_45196",
    "title": "Dragon_45196",
    "link_img": "https://live.staticflickr.com/65535/49711773397_03ec4f268d_o.jpg",
    "id_image": "Dragon_45196",
    "count_view": 0
  }
]