[
  {
    "link_thumb": "https://live.staticflickr.com/65535/49712143081_953e9471cb_n.jpg",
    "id_album": "-5356651",
    "description": "Sorcerer_244277",
    "title": "Sorcerer_244277",
    "link_img": "https://live.staticflickr.com/65535/49712143081_898d59be6f_o.jpg",
    "id_image": "Sorcerer_244277",
    "count_view": 0
  },
  {
    "link_thumb": "https://live.staticflickr.com/65535/49711733583_28fab8fbbc_n.jpg",
    "id_album": "-656526651",
    "description": "Wizard_909541",
    "title": "Wizard_909541",
    "link_img": "https://live.staticflickr.com/65535/49711733583_8ff6a34981_o.jpg",
    "id_image": "Wizard_909541",
    "count_view": 0
  },
  {
    "link_thumb": "https://live.staticflickr.com/65535/49712041801_5a46f9f057_n.jpg",
    "id_album": "1892085513",
    "description": "Oriental_297029",
    "title": "Oriental_297029",
    "link_img": "https://live.staticflickr.com/65535/49712041801_fc045e2816_o.jpg",
    "id_image": "Oriental_297029",
    "count_view": 0
  },
  {
    "link_thumb": "https://live.staticflickr.com/65535/49711499362_b5cc50bdbe_n.jpg",
    "id_album": "-437872736",
    "description": "Creature_274045",
    "title": "Creature_274045",
    "link_img": "https://live.staticflickr.com/65535/49711499362_13709a7c5d_o.jpg",
    "id_image": "Creature_274045",
    "count_view": 0
  },
  {
    "link_thumb": "https://live.staticflickr.com/65535/49710856081_0b382a720f_n.jpg",
    "id_album": "-218097820",
    "description": "ASongOfIceAndFire_196809",
    "title": "ASongOfIceAndFire_196809",
    "link_img": "https://live.staticflickr.com/65535/49710856081_1cf16accc4_o.jpg",
    "id_image": "ASongOfIceAndFire_196809",
    "count_view": 0
  },
  {
    "link_thumb": "https://live.staticflickr.com/65535/49711176056_c22f90df56_n.jpg",
    "id_album": "-437872736",
    "description": "Creature_284425",
    "title": "Creature_284425",
    "link_img": "https://live.staticflickr.com/65535/49711176056_a0a3ab5f84_o.jpg",
    "id_image": "Creature_284425",
    "count_view": 0
  },
  {
    "link_thumb": "https://live.staticflickr.com/65535/49711025913_c3ca1d62a8_n.jpg",
    "id_album": "850176884",
    "description": "Dragon_910959",
    "title": "Dragon_910959",
    "link_img": "https://live.staticflickr.com/65535/49711025913_efb08fd189_o.jpg",
    "id_image": "Dragon_910959",
    "count_view": 0
  },
  {
    "link_thumb": "https://live.staticflickr.com/65535/49712133846_51e3f4f905_n.jpg",
    "id_album": "-395228614",
    "description": "Ship_366444",
    "title": "Ship_366444",
    "link_img": "https://live.staticflickr.com/65535/49712133846_85df240541_o.jpg",
    "id_image": "Ship_366444",
    "count_view": 0
  },
  {
    "link_thumb": "https://live.staticflickr.com/65535/49712125717_73716a4d3a_n.jpg",
    "id_album": "1402713104",
    "description": "Landscape_693918",
    "title": "Landscape_693918",
    "link_img": "https://live.staticflickr.com/65535/49712125717_d750d755b4_o.jpg",
    "id_image": "Landscape_693918",
    "count_view": 0
  },
  {
    "link_thumb": "https://live.staticflickr.com/65535/49710409673_ab0b8523ab_n.jpg",
    "id_album": "523598895",
    "description": "Artistic_149868",
    "title": "Artistic_149868",
    "link_img": "https://live.staticflickr.com/65535/49710409673_5fbb4c3216_o.jpg",
    "id_image": "Artistic_149868",
    "count_view": 0
  },
  {
    "link_thumb": "https://live.staticflickr.com/65535/49711655506_c68f91157d_n.jpg",
    "id_album": "-1972042284",
    "description": "Fairy_321098",
    "title": "Fairy_321098",
    "link_img": "https://live.staticflickr.com/65535/49711655506_169e2b027c_o.jpg",
    "id_image": "Fairy_321098",
    "count_view": 0
  },
  {
    "link_thumb": "https://live.staticflickr.com/65535/49710385473_e471e227ec_n.jpg",
    "id_album": "-1913845949",
    "description": "Animal_872957",
    "title": "Animal_872957",
    "link_img": "https://live.staticflickr.com/65535/49710385473_a8cb38ed18_o.jpg",
    "id_image": "Animal_872957",
    "count_view": 0
  },
  {
    "link_thumb": "https://live.staticflickr.com/65535/49711620008_00848fc72a_n.jpg",
    "id_album": "1186644325",
    "description": "Tattoo_686564",
    "title": "Tattoo_686564",
    "link_img": "https://live.staticflickr.com/65535/49711620008_4dbbc5be93_o.jpg",
    "id_image": "Tattoo_686564",
    "count_view": 0
  },
  {
    "link_thumb": "https://live.staticflickr.com/65535/49711676006_aa524337c2_n.jpg",
    "id_album": "-1972042284",
    "description": "Fairy_700544",
    "title": "Fairy_700544",
    "link_img": "https://live.staticflickr.com/65535/49711676006_4fba12cccc_o.jpg",
    "id_image": "Fairy_700544",
    "count_view": 0
  },
  {
    "link_thumb": "https://live.staticflickr.com/65535/49712296922_73a4503ec4_n.jpg",
    "id_album": "-1284959130",
    "description": "LegendOfTheFiveRings_113698",
    "title": "LegendOfTheFiveRings_113698",
    "link_img": "https://live.staticflickr.com/65535/49712296922_f0f9548bfc_o.jpg",
    "id_image": "LegendOfTheFiveRings_113698",
    "count_view": 0
  },
  {
    "link_thumb": "https://live.staticflickr.com/65535/49712099028_46ef7ae37e_n.jpg",
    "id_album": "-1675918237",
    "description": "WomenWarrior_547728",
    "title": "WomenWarrior_547728",
    "link_img": "https://live.staticflickr.com/65535/49712099028_bcffdcea58_o.jpg",
    "id_image": "WomenWarrior_547728",
    "count_view": 0
  },
  {
    "link_thumb": "https://live.staticflickr.com/65535/49712329407_7ed2772109_n.jpg",
    "id_album": "-1613076477",
    "description": "Magic_943161",
    "title": "Magic_943161",
    "link_img": "https://live.staticflickr.com/65535/49712329407_97570d8c21_o.jpg",
    "id_image": "Magic_943161",
    "count_view": 0
  },
  {
    "link_thumb": "https://live.staticflickr.com/65535/49712086193_0f6ca96218_n.jpg",
    "id_album": "-1675918237",
    "description": "WomenWarrior_506349",
    "title": "WomenWarrior_506349",
    "link_img": "https://live.staticflickr.com/65535/49712086193_83f3f302a1_o.jpg",
    "id_image": "WomenWarrior_506349",
    "count_view": 0
  },
  {
    "link_thumb": "https://live.staticflickr.com/65535/49710894256_3198d084b0_n.jpg",
    "id_album": "-1913845949",
    "description": "Animal_180600",
    "title": "Animal_180600",
    "link_img": "https://live.staticflickr.com/65535/49710894256_309b54932e_o.jpg",
    "id_image": "Animal_180600",
    "count_view": 0
  },
  {
    "link_thumb": "https://live.staticflickr.com/65535/49711345321_122eab3ff6_n.jpg",
    "id_album": "850176884",
    "description": "DRAGON2610191649292",
    "title": "DRAGON2610191649292",
    "link_img": "https://live.staticflickr.com/65535/49711345321_699228f766_o.jpg",
    "id_image": "DRAGON2610191649292",
    "count_view": 0
  },
  {
    "link_thumb": "https://live.staticflickr.com/65535/49712282537_c754e81521_n.jpg",
    "id_album": "-833110404",
    "description": "Landscape_518874",
    "title": "Landscape_518874",
    "link_img": "https://live.staticflickr.com/65535/49712282537_bdb6073b7c_o.jpg",
    "id_image": "Landscape_518874",
    "count_view": 0
  },
  {
    "link_thumb": "https://live.staticflickr.com/65535/49711657707_b996c82d9c_n.jpg",
    "id_album": "7198985",
    "description": "Demon_220631",
    "title": "Demon_220631",
    "link_img": "https://live.staticflickr.com/65535/49711657707_41005c1ab5_o.jpg",
    "id_image": "Demon_220631",
    "count_view": 0
  },
  {
    "link_thumb": "https://live.staticflickr.com/65535/49710389313_829119e96d_n.jpg",
    "id_album": "-1913845949",
    "description": "Animal_936216",
    "title": "Animal_936216",
    "link_img": "https://live.staticflickr.com/65535/49710389313_945b65a13f_o.jpg",
    "id_image": "Animal_936216",
    "count_view": 0
  },
  {
    "link_thumb": "https://live.staticflickr.com/65535/49711864927_8141902121_n.jpg",
    "id_album": "850176884",
    "description": "Dragon_868756",
    "title": "Dragon_868756",
    "link_img": "https://live.staticflickr.com/65535/49711864927_80ef3679e4_o.jpg",
    "id_image": "Dragon_868756",
    "count_view": 0
  },
  {
    "link_thumb": "https://live.staticflickr.com/65535/49711882833_26f52e03e9_n.jpg",
    "id_album": "295204930",
    "description": "Women_731824",
    "title": "Women_731824",
    "link_img": "https://live.staticflickr.com/65535/49711882833_3274b5d748_o.jpg",
    "id_image": "Women_731824",
    "count_view": 0
  },
  {
    "link_thumb": "https://live.staticflickr.com/65535/49802268773_50c1288b7b_n.jpg",
    "id_album": "-1703946758",
    "description": "ANIME_PIC_aac893e7e3c6c524dea2b841b59e5b51",
    "title": "ANIME_PIC_aac893e7e3c6c524dea2b841b59e5b51",
    "link_img": "https://live.staticflickr.com/65535/49802268773_f2547c23ff_o.jpg",
    "id_image": "ANIME_PIC_aac893e7e3c6c524dea2b841b59e5b51",
    "count_view": 0
  },
  {
    "link_thumb": "https://live.staticflickr.com/65535/49710978038_3973d4caa3_n.jpg",
    "id_album": "850176884",
    "description": "Dragon_716418",
    "title": "Dragon_716418",
    "link_img": "https://live.staticflickr.com/65535/49710978038_070883c6f7_o.jpg",
    "id_image": "Dragon_716418",
    "count_view": 0
  },
  {
    "link_thumb": "https://live.staticflickr.com/65535/49710376908_57121497e7_n.jpg",
    "id_album": "-1913845949",
    "description": "Animal_636073",
    "title": "Animal_636073",
    "link_img": "https://live.staticflickr.com/65535/49710376908_0d40d7937e_o.jpg",
    "id_image": "Animal_636073",
    "count_view": 0
  },
  {
    "link_thumb": "https://live.staticflickr.com/65535/49712466402_62574b9141_n.jpg",
    "id_album": "-5356651",
    "description": "Sorcerer_635019",
    "title": "Sorcerer_635019",
    "link_img": "https://live.staticflickr.com/65535/49712466402_eaaace3de0_o.jpg",
    "id_image": "Sorcerer_635019",
    "count_view": 0
  },
  {
    "link_thumb": "https://live.staticflickr.com/65535/49710919128_82437f4b4f_n.jpg",
    "id_album": "850176884",
    "description": "Dragon_466535",
    "title": "Dragon_466535",
    "link_img": "https://live.staticflickr.com/65535/49710919128_d4fce6c050_o.jpg",
    "id_image": "Dragon_466535",
    "count_view": 0
  },
  {
    "link_thumb": "https://live.staticflickr.com/65535/49711110726_6fac86d24c_n.jpg",
    "id_album": "-1964113117",
    "description": "City_676331",
    "title": "City_676331",
    "link_img": "https://live.staticflickr.com/65535/49711110726_cc4971f8a8_o.jpg",
    "id_image": "City_676331",
    "count_view": 0
  },
  {
    "link_thumb": "https://live.staticflickr.com/65535/49711803117_526eb0b58a_n.jpg",
    "id_album": "850176884",
    "description": "Dragon_562952",
    "title": "Dragon_562952",
    "link_img": "https://live.staticflickr.com/65535/49711803117_51293c102e_o.jpg",
    "id_image": "Dragon_562952",
    "count_view": 0
  },
  {
    "link_thumb": "https://live.staticflickr.com/65535/49710870276_3108bb1e12_n.jpg",
    "id_album": "-956471126",
    "description": "AliceInWonderland_167439",
    "title": "AliceInWonderland_167439",
    "link_img": "https://live.staticflickr.com/65535/49710870276_a88a1719ed_o.jpg",
    "id_image": "AliceInWonderland_167439",
    "count_view": 0
  },
  {
    "link_thumb": "https://live.staticflickr.com/65535/49711850081_7098394cb9_n.jpg",
    "id_album": "1402713104",
    "description": "Landscape_879760",
    "title": "Landscape_879760",
    "link_img": "https://live.staticflickr.com/65535/49711850081_12e69026e5_o.jpg",
    "id_image": "Landscape_879760",
    "count_view": 0
  },
  {
    "link_thumb": "https://live.staticflickr.com/65535/49712858577_ae8f9b9914_n.jpg",
    "id_album": "-867594484",
    "description": "Women_686730",
    "title": "Women_686730",
    "link_img": "https://live.staticflickr.com/65535/49712858577_f7da55e42a_o.jpg",
    "id_image": "Women_686730",
    "count_view": 0
  },
  {
    "link_thumb": "https://live.staticflickr.com/65535/49711292091_e490319cb7_n.jpg",
    "id_album": "-437872736",
    "description": "Creature_958877",
    "title": "Creature_958877",
    "link_img": "https://live.staticflickr.com/65535/49711292091_9a17ef469d_o.jpg",
    "id_image": "Creature_958877",
    "count_view": 0
  },
  {
    "link_thumb": "https://live.staticflickr.com/65535/49712058922_48569c3fdf_n.jpg",
    "id_album": "402434752",
    "description": "Giant_711454",
    "title": "Giant_711454",
    "link_img": "https://live.staticflickr.com/65535/49712058922_f2557cc973_o.jpg",
    "id_image": "Giant_711454",
    "count_view": 0
  },
  {
    "link_thumb": "https://live.staticflickr.com/65535/49711355478_5ff6943576_n.jpg",
    "id_album": "-833110404",
    "description": "Landscape_182952",
    "title": "Landscape_182952",
    "link_img": "https://live.staticflickr.com/65535/49711355478_ece6828dd1_o.jpg",
    "id_image": "Landscape_182952",
    "count_view": 0
  },
  {
    "link_thumb": "https://live.staticflickr.com/65535/49711429251_052f8e2912_n.jpg",
    "id_album": "850176884",
    "description": "Dragon_345170",
    "title": "Dragon_345170",
    "link_img": "https://live.staticflickr.com/65535/49711429251_8c1dca4384_o.jpg",
    "id_image": "Dragon_345170",
    "count_view": 0
  },
  {
    "link_thumb": "https://live.staticflickr.com/65535/49712019267_1be7d85e28_n.jpg",
    "id_album": "-1083189875",
    "description": "Forest_418195",
    "title": "Forest_418195",
    "link_img": "https://live.staticflickr.com/65535/49712019267_df524b259d_o.jpg",
    "id_image": "Forest_418195",
    "count_view": 0
  },
  {
    "link_thumb": "https://live.staticflickr.com/65535/49712655247_ab9931b8de_n.jpg",
    "id_album": "-1126835654",
    "description": "Women_902567",
    "title": "Women_902567",
    "link_img": "https://live.staticflickr.com/65535/49712655247_2e45ff9dee_o.jpg",
    "id_image": "Women_902567",
    "count_view": 0
  },
  {
    "link_thumb": "https://live.staticflickr.com/65535/49712449632_f655325bb6_n.jpg",
    "id_album": "407101116",
    "description": "SeaMonster_998190",
    "title": "SeaMonster_998190",
    "link_img": "https://live.staticflickr.com/65535/49712449632_b013b59e08_o.jpg",
    "id_image": "SeaMonster_998190",
    "count_view": 0
  },
  {
    "link_thumb": "https://live.staticflickr.com/65535/49712191627_c63833c3fe_n.jpg",
    "id_album": "1402713104",
    "description": "Landscape_952444",
    "title": "Landscape_952444",
    "link_img": "https://live.staticflickr.com/65535/49712191627_743da4029e_o.jpg",
    "id_image": "Landscape_952444",
    "count_view": 0
  },
  {
    "link_thumb": "https://live.staticflickr.com/65535/49712358632_60ca0e5854_n.jpg",
    "id_album": "1892085513",
    "description": "Oriental_205972",
    "title": "Oriental_205972",
    "link_img": "https://live.staticflickr.com/65535/49712358632_cbfd90cba9_o.jpg",
    "id_image": "Oriental_205972",
    "count_view": 0
  },
  {
    "link_thumb": "https://live.staticflickr.com/65535/49712206381_93616e4deb_n.jpg",
    "id_album": "-1261420436",
    "description": "Warrior_360104",
    "title": "Warrior_360104",
    "link_img": "https://live.staticflickr.com/65535/49712206381_df0b0e6769_o.jpg",
    "id_image": "Warrior_360104",
    "count_view": 0
  },
  {
    "link_thumb": "https://live.staticflickr.com/65535/49711809207_ac6b341c8a_n.jpg",
    "id_album": "850176884",
    "description": "Dragon_587905",
    "title": "Dragon_587905",
    "link_img": "https://live.staticflickr.com/65535/49711809207_94b1dcdd0a_o.jpg",
    "id_image": "Dragon_587905",
    "count_view": 0
  },
  {
    "link_thumb": "https://live.staticflickr.com/65535/49710990166_8371727fb1_n.jpg",
    "id_album": "1187037014",
    "description": "Battle_292842",
    "title": "Battle_292842",
    "link_img": "https://live.staticflickr.com/65535/49710990166_d4a31553ba_o.jpg",
    "id_image": "Battle_292842",
    "count_view": 0
  },
  {
    "link_thumb": "https://live.staticflickr.com/65535/49710840943_27bf45c040_n.jpg",
    "id_album": "850176884",
    "description": "Dragon_175092",
    "title": "Dragon_175092",
    "link_img": "https://live.staticflickr.com/65535/49710840943_fac7a69c08_o.jpg",
    "id_image": "Dragon_175092",
    "count_view": 0
  },
  {
    "link_thumb": "https://live.staticflickr.com/65535/49710590698_b4af443a4b_n.jpg",
    "id_album": "-1964113117",
    "description": "City_873644",
    "title": "City_873644",
    "link_img": "https://live.staticflickr.com/65535/49710590698_7f532a56d9_o.jpg",
    "id_image": "City_873644",
    "count_view": 0
  },
  {
    "link_thumb": "https://live.staticflickr.com/65535/49711674001_788c430251_n.jpg",
    "id_album": "-1972042284",
    "description": "Fairy_686802",
    "title": "Fairy_686802",
    "link_img": "https://live.staticflickr.com/65535/49711674001_fa9739258e_o.jpg",
    "id_image": "Fairy_686802",
    "count_view": 0
  },
  {
    "link_thumb": "https://live.staticflickr.com/65535/49711168713_9251fe70ca_n.jpg",
    "id_album": "-1083189875",
    "description": "Forest_676685",
    "title": "Forest_676685",
    "link_img": "https://live.staticflickr.com/65535/49711168713_7f8b04ec0c_o.jpg",
    "id_image": "Forest_676685",
    "count_view": 0
  },
  {
    "link_thumb": "https://live.staticflickr.com/65535/49711008893_bba01a87d1_n.jpg",
    "id_album": "850176884",
    "description": "Dragon_871535",
    "title": "Dragon_871535",
    "link_img": "https://live.staticflickr.com/65535/49711008893_bb0b298051_o.jpg",
    "id_image": "Dragon_871535",
    "count_view": 0
  },
  {
    "link_thumb": "https://live.staticflickr.com/65535/49711436656_bf74647bd0_n.jpg",
    "id_album": "850176884",
    "description": "Dragon_376634",
    "title": "Dragon_376634",
    "link_img": "https://live.staticflickr.com/65535/49711436656_d505378965_o.jpg",
    "id_image": "Dragon_376634",
    "count_view": 0
  },
  {
    "link_thumb": "https://live.staticflickr.com/65535/49712108367_eba54f8617_n.jpg",
    "id_album": "469960528",
    "description": "Knight_748094",
    "title": "Knight_748094",
    "link_img": "https://live.staticflickr.com/65535/49712108367_cf51b37e1e_o.jpg",
    "id_image": "Knight_748094",
    "count_view": 0
  },
  {
    "link_thumb": "https://live.staticflickr.com/65535/49710499478_ed46c8d11e_n.jpg",
    "id_album": "-1541846310",
    "description": "Castle_159440",
    "title": "Castle_159440",
    "link_img": "https://live.staticflickr.com/65535/49710499478_a13127dcde_o.jpg",
    "id_image": "Castle_159440",
    "count_view": 0
  },
  {
    "link_thumb": "https://live.staticflickr.com/65535/49711437621_b917780c38_n.jpg",
    "id_album": "850176884",
    "description": "Dragon_379112",
    "title": "Dragon_379112",
    "link_img": "https://live.staticflickr.com/65535/49711437621_a247846c90_o.jpg",
    "id_image": "Dragon_379112",
    "count_view": 0
  },
  {
    "link_thumb": "https://live.staticflickr.com/65535/49710615778_533265d61b_n.jpg",
    "id_album": "-437872736",
    "description": "Creature_176678",
    "title": "Creature_176678",
    "link_img": "https://live.staticflickr.com/65535/49710615778_15f91004e1_o.jpg",
    "id_image": "Creature_176678",
    "count_view": 0
  },
  {
    "link_thumb": "https://live.staticflickr.com/65535/49712059746_6c46140b63_n.jpg",
    "id_album": "-1862561193",
    "description": "Other_55983",
    "title": "Other_55983",
    "link_img": "https://live.staticflickr.com/65535/49712059746_350a1914e9_o.jpg",
    "id_image": "Other_55983",
    "count_view": 0
  },
  {
    "link_thumb": "https://live.staticflickr.com/65535/49711182461_6fcb50998d_n.jpg",
    "id_album": "-437872736",
    "description": "Creature_302907",
    "title": "Creature_302907",
    "link_img": "https://live.staticflickr.com/65535/49711182461_0d93e5e5ee_o.jpg",
    "id_image": "Creature_302907",
    "count_view": 0
  },
  {
    "link_thumb": "https://live.staticflickr.com/65535/49710790003_7a80160d7b_n.jpg",
    "id_album": "1903411565",
    "description": "Deer_212704",
    "title": "Deer_212704",
    "link_img": "https://live.staticflickr.com/65535/49710790003_6886f9d5e9_o.jpg",
    "id_image": "Deer_212704",
    "count_view": 0
  },
  {
    "link_thumb": "https://live.staticflickr.com/65535/49712429426_dde3fe947c_n.jpg",
    "id_album": "1861288871",
    "description": "Women_176494",
    "title": "Women_176494",
    "link_img": "https://live.staticflickr.com/65535/49712429426_2caba1005c_o.jpg",
    "id_image": "Women_176494",
    "count_view": 0
  },
  {
    "link_thumb": "https://live.staticflickr.com/65535/49710733393_42c2ea518e_n.jpg",
    "id_album": "-437872736",
    "description": "Creature_869162",
    "title": "Creature_869162",
    "link_img": "https://live.staticflickr.com/65535/49710733393_0edf6cc563_o.jpg",
    "id_image": "Creature_869162",
    "count_view": 0
  },
  {
    "link_thumb": "https://live.staticflickr.com/65535/49710366803_ef439f9d9c_n.jpg",
    "id_album": "-1913845949",
    "description": "Animal_374608",
    "title": "Animal_374608",
    "link_img": "https://live.staticflickr.com/65535/49710366803_50f7f26e8b_o.jpg",
    "id_image": "Animal_374608",
    "count_view": 0
  },
  {
    "link_thumb": "https://live.staticflickr.com/65535/49712235731_eddcffe4ca_n.jpg",
    "id_album": "-1261420436",
    "description": "Warrior_918425",
    "title": "Warrior_918425",
    "link_img": "https://live.staticflickr.com/65535/49712235731_bd1ba249b1_o.jpg",
    "id_image": "Warrior_918425",
    "count_view": 0
  },
  {
    "link_thumb": "https://live.staticflickr.com/65535/49711273051_66da0792ea_n.jpg",
    "id_album": "-437872736",
    "description": "Creature_91827",
    "title": "Creature_91827",
    "link_img": "https://live.staticflickr.com/65535/49711273051_b9c0d76a40_o.jpg",
    "id_image": "Creature_91827",
    "count_view": 0
  },
  {
    "link_thumb": "https://live.staticflickr.com/65535/49711208352_3137637ff8_n.jpg",
    "id_album": "-1000175186",
    "description": "AngelWarrior_599892",
    "title": "AngelWarrior_599892",
    "link_img": "https://live.staticflickr.com/65535/49711208352_f676d6e77f_o.jpg",
    "id_image": "AngelWarrior_599892",
    "count_view": 0
  },
  {
    "link_thumb": "https://live.staticflickr.com/65535/49711750573_1764bf4fab_n.jpg",
    "id_album": "-709711865",
    "description": "Wolf_665364",
    "title": "Wolf_665364",
    "link_img": "https://live.staticflickr.com/65535/49711750573_43190e3bf1_o.jpg",
    "id_image": "Wolf_665364",
    "count_view": 0
  },
  {
    "link_thumb": "https://live.staticflickr.com/65535/49711057221_725c2bcce0_n.jpg",
    "id_album": "-1541846310",
    "description": "Castle_777017",
    "title": "Castle_777017",
    "link_img": "https://live.staticflickr.com/65535/49711057221_4535d3ecde_o.jpg",
    "id_image": "Castle_777017",
    "count_view": 0
  },
  {
    "link_thumb": "https://live.staticflickr.com/65535/49710443043_4ed20899df_n.jpg",
    "id_album": "523598895",
    "description": "Artistic_679752",
    "title": "Artistic_679752",
    "link_img": "https://live.staticflickr.com/65535/49710443043_ae9c597ede_o.jpg",
    "id_image": "Artistic_679752",
    "count_view": 0
  },
  {
    "link_thumb": "https://live.staticflickr.com/65535/49710861416_6a1518141c_n.jpg",
    "id_album": "-2109465612",
    "description": "Adventure_239328",
    "title": "Adventure_239328",
    "link_img": "https://live.staticflickr.com/65535/49710861416_648090411f_o.jpg",
    "id_image": "Adventure_239328",
    "count_view": 0
  },
  {
    "link_thumb": "https://live.staticflickr.com/65535/49711366417_5d5bfe7f9d_n.jpg",
    "id_album": "-1541846310",
    "description": "Castle_326376",
    "title": "Castle_326376",
    "link_img": "https://live.staticflickr.com/65535/49711366417_3d79627474_o.jpg",
    "id_image": "Castle_326376",
    "count_view": 0
  },
  {
    "link_thumb": "https://live.staticflickr.com/65535/49711299036_4e9bd45028_n.jpg",
    "id_album": "-437872736",
    "description": "Creature_958934",
    "title": "Creature_958934",
    "link_img": "https://live.staticflickr.com/65535/49711299036_765d38fa0a_o.jpg",
    "id_image": "Creature_958934",
    "count_view": 0
  },
  {
    "link_thumb": "https://live.staticflickr.com/65535/49711747077_ef07fa47bb_n.jpg",
    "id_album": "850176884",
    "description": "Dragon_331501",
    "title": "Dragon_331501",
    "link_img": "https://live.staticflickr.com/65535/49711747077_eb238f0fff_o.jpg",
    "id_image": "Dragon_331501",
    "count_view": 0
  },
  {
    "link_thumb": "https://live.staticflickr.com/65535/49711420806_e81d759cac_n.jpg",
    "id_album": "850176884",
    "description": "Dragon_323865",
    "title": "Dragon_323865",
    "link_img": "https://live.staticflickr.com/65535/49711420806_a4231dd296_o.jpg",
    "id_image": "Dragon_323865",
    "count_view": 0
  },
  {
    "link_thumb": "https://live.staticflickr.com/65535/49712743267_f3aafbc597_n.jpg",
    "id_album": "295204930",
    "description": "Women_736019",
    "title": "Women_736019",
    "link_img": "https://live.staticflickr.com/65535/49712743267_c03f551ac0_o.jpg",
    "id_image": "Women_736019",
    "count_view": 0
  },
  {
    "link_thumb": "https://live.staticflickr.com/65535/49727725787_7a8468f88b_n.jpg",
    "id_album": "-437872736",
    "description": "Creature_958989",
    "title": "Creature_958989",
    "link_img": "https://live.staticflickr.com/65535/49727725787_9cc55bb732_o.jpg",
    "id_image": "Creature_958989",
    "count_view": 0
  },
  {
    "link_thumb": "https://live.staticflickr.com/65535/49711814287_3c9c1b62b6_n.jpg",
    "id_album": "850176884",
    "description": "Dragon_600269",
    "title": "Dragon_600269",
    "link_img": "https://live.staticflickr.com/65535/49711814287_84d654d638_o.jpg",
    "id_image": "Dragon_600269",
    "count_view": 0
  },
  {
    "link_thumb": "https://live.staticflickr.com/65535/49711495556_3c5e5fa3b8_n.jpg",
    "id_album": "850176884",
    "description": "Dragon_601194",
    "title": "Dragon_601194",
    "link_img": "https://live.staticflickr.com/65535/49711495556_d174ff5c5d_o.jpg",
    "id_image": "Dragon_601194",
    "count_view": 0
  },
  {
    "link_thumb": "https://live.staticflickr.com/65535/49710569263_27e56f100e_n.jpg",
    "id_album": "-1964113117",
    "description": "City_523389",
    "title": "City_523389",
    "link_img": "https://live.staticflickr.com/65535/49710569263_d38a3e3732_o.jpg",
    "id_image": "City_523389",
    "count_view": 0
  },
  {
    "link_thumb": "https://live.staticflickr.com/65535/49711262281_f9928cb9d9_n.jpg",
    "id_album": "-437872736",
    "description": "Creature_702635",
    "title": "Creature_702635",
    "link_img": "https://live.staticflickr.com/65535/49711262281_8b2f96ebfe_o.jpg",
    "id_image": "Creature_702635",
    "count_view": 0
  },
  {
    "link_thumb": "https://live.staticflickr.com/65535/49711329778_8d21ee8ef0_n.jpg",
    "id_album": "1402713104",
    "description": "Landscape_944311",
    "title": "Landscape_944311",
    "link_img": "https://live.staticflickr.com/65535/49711329778_7454161021_o.jpg",
    "id_image": "Landscape_944311",
    "count_view": 0
  },
  {
    "link_thumb": "https://live.staticflickr.com/65535/49710924866_83361cab61_n.jpg",
    "id_album": "-1913845949",
    "description": "Animal_970458",
    "title": "Animal_970458",
    "link_img": "https://live.staticflickr.com/65535/49710924866_e1769a61fe_o.jpg",
    "id_image": "Animal_970458",
    "count_view": 0
  },
  {
    "link_thumb": "https://live.staticflickr.com/65535/49710588733_9b40643560_n.jpg",
    "id_album": "-1964113117",
    "description": "City_865545",
    "title": "City_865545",
    "link_img": "https://live.staticflickr.com/65535/49710588733_14541f0fbe_o.jpg",
    "id_image": "City_865545",
    "count_view": 0
  },
  {
    "link_thumb": "https://live.staticflickr.com/65535/49711668757_a740a41374_n.jpg",
    "id_album": "7198985",
    "description": "Demon_993498",
    "title": "Demon_993498",
    "link_img": "https://live.staticflickr.com/65535/49711668757_b976814be6_o.jpg",
    "id_image": "Demon_993498",
    "count_view": 0
  },
  {
    "link_thumb": "https://live.staticflickr.com/65535/49711189693_c163a94813_n.jpg",
    "id_album": "-128218148",
    "description": "Fox_721029",
    "title": "Fox_721029",
    "link_img": "https://live.staticflickr.com/65535/49711189693_4d8827355d_o.jpg",
    "id_image": "Fox_721029",
    "count_view": 0
  },
  {
    "link_thumb": "https://live.staticflickr.com/65535/49711388676_9b3b7fa0f7_n.jpg",
    "id_album": "850176884",
    "description": "Dragon_222083",
    "title": "Dragon_222083",
    "link_img": "https://live.staticflickr.com/65535/49711388676_1a766b1867_o.jpg",
    "id_image": "Dragon_222083",
    "count_view": 0
  },
  {
    "link_thumb": "https://live.staticflickr.com/65535/49712288887_83d4c0392e_n.jpg",
    "id_album": "-833110404",
    "description": "Landscape_547365",
    "title": "Landscape_547365",
    "link_img": "https://live.staticflickr.com/65535/49712288887_c0b1bc9fe8_o.jpg",
    "id_image": "Landscape_547365",
    "count_view": 0
  },
  {
    "link_thumb": "https://live.staticflickr.com/65535/49711448783_578928a897_n.jpg",
    "id_album": "416744915",
    "description": "Lion_851456",
    "title": "Lion_851456",
    "link_img": "https://live.staticflickr.com/65535/49711448783_bbc3b833d3_o.jpg",
    "id_image": "Lion_851456",
    "count_view": 0
  },
  {
    "link_thumb": "https://live.staticflickr.com/65535/49799118842_47d151ef26_n.jpg",
    "id_album": "-1703946758",
    "description": "ANIME_PIC_42506ed6b24cb0286ac7e6e7c9311070",
    "title": "ANIME_PIC_42506ed6b24cb0286ac7e6e7c9311070",
    "link_img": "https://live.staticflickr.com/65535/49799118842_2b8eeb6cb3_o.jpg",
    "id_image": "ANIME_PIC_42506ed6b24cb0286ac7e6e7c9311070",
    "count_view": 0
  },
  {
    "link_thumb": "https://live.staticflickr.com/65535/49711009991_22b92c69a5_n.jpg",
    "id_album": "1187037014",
    "description": "Battle_831996",
    "title": "Battle_831996",
    "link_img": "https://live.staticflickr.com/65535/49711009991_f8b7fd138a_o.jpg",
    "id_image": "Battle_831996",
    "count_view": 0
  },
  {
    "link_thumb": "https://live.staticflickr.com/65535/49710521113_b352f12480_n.jpg",
    "id_album": "-1541846310",
    "description": "Castle_772048",
    "title": "Castle_772048",
    "link_img": "https://live.staticflickr.com/65535/49710521113_184dec9421_o.jpg",
    "id_image": "Castle_772048",
    "count_view": 0
  },
  {
    "link_thumb": "https://live.staticflickr.com/65535/49711901362_194299cb0d_n.jpg",
    "id_album": "850176884",
    "description": "Dragon_959073",
    "title": "Dragon_959073",
    "link_img": "https://live.staticflickr.com/65535/49711901362_3c35113404_o.jpg",
    "id_image": "Dragon_959073",
    "count_view": 0
  },
  {
    "link_thumb": "https://live.staticflickr.com/65535/49711912847_1bf229e52c_n.jpg",
    "id_album": "850176884",
    "description": "Dragon_985966",
    "title": "Dragon_985966",
    "link_img": "https://live.staticflickr.com/65535/49711912847_d776524edd_o.jpg",
    "id_image": "Dragon_985966",
    "count_view": 0
  },
  {
    "link_thumb": "https://live.staticflickr.com/65535/49711360446_712bc061c3_n.jpg",
    "id_album": "850176884",
    "description": "Dragon_122295",
    "title": "Dragon_122295",
    "link_img": "https://live.staticflickr.com/65535/49711360446_9f5dfe7499_o.jpg",
    "id_image": "Dragon_122295",
    "count_view": 0
  },
  {
    "link_thumb": "https://live.staticflickr.com/65535/49711216158_79b533acb5_n.jpg",
    "id_album": "857581314",
    "description": "Griffin_292479",
    "title": "Griffin_292479",
    "link_img": "https://live.staticflickr.com/65535/49711216158_0d3732e370_o.jpg",
    "id_image": "Griffin_292479",
    "count_view": 0
  },
  {
    "link_thumb": "https://live.staticflickr.com/65535/49711236417_8ac7b409f3_n.jpg",
    "id_album": "-1913845949",
    "description": "Animal_636303",
    "title": "Animal_636303",
    "link_img": "https://live.staticflickr.com/65535/49711236417_134460d88c_o.jpg",
    "id_image": "Animal_636303",
    "count_view": 0
  },
  {
    "link_thumb": "https://live.staticflickr.com/65535/49798829456_fc2c527075_n.jpg",
    "id_album": "-1703946758",
    "description": "ANIME_PIC_84b32dc7de08da9707ebf1efc5504270",
    "title": "ANIME_PIC_84b32dc7de08da9707ebf1efc5504270",
    "link_img": "https://live.staticflickr.com/65535/49798829456_7191f5e9eb_o.jpg",
    "id_image": "ANIME_PIC_84b32dc7de08da9707ebf1efc5504270",
    "count_view": 0
  },
  {
    "link_thumb": "https://live.staticflickr.com/65535/49711312046_fa9c2b9265_n.jpg",
    "id_album": "2021464556",
    "description": "Dark_146661",
    "title": "Dark_146661",
    "link_img": "https://live.staticflickr.com/65535/49711312046_f0e538bef5_o.jpg",
    "id_image": "Dark_146661",
    "count_view": 0
  },
  {
    "link_thumb": "https://live.staticflickr.com/65535/49711507782_7d3a415c0e_n.jpg",
    "id_album": "-437872736",
    "description": "Creature_302836",
    "title": "Creature_302836",
    "link_img": "https://live.staticflickr.com/65535/49711507782_53c80eab5e_o.jpg",
    "id_image": "Creature_302836",
    "count_view": 0
  },
  {
    "link_thumb": "https://live.staticflickr.com/65535/49711836941_78b8caa711_n.jpg",
    "id_album": "1402713104",
    "description": "Landscape_864947",
    "title": "Landscape_864947",
    "link_img": "https://live.staticflickr.com/65535/49711836941_bcbfdfea05_o.jpg",
    "id_image": "Landscape_864947",
    "count_view": 0
  },
  {
    "link_thumb": "https://live.staticflickr.com/65535/49711326087_57d643e391_n.jpg",
    "id_album": "1187037014",
    "description": "Battle_512118",
    "title": "Battle_512118",
    "link_img": "https://live.staticflickr.com/65535/49711326087_3b00d79f61_o.jpg",
    "id_image": "Battle_512118",
    "count_view": 0
  },
  {
    "link_thumb": "https://live.staticflickr.com/65535/49711446586_b3e1b11b22_n.jpg",
    "id_album": "850176884",
    "description": "Dragon_441575",
    "title": "Dragon_441575",
    "link_img": "https://live.staticflickr.com/65535/49711446586_3635bb0a06_o.jpg",
    "id_image": "Dragon_441575",
    "count_view": 0
  },
  {
    "link_thumb": "https://live.staticflickr.com/65535/49711594521_10debf123d_n.jpg",
    "id_album": "-1594184835",
    "description": "Dwarf_162855",
    "title": "Dwarf_162855",
    "link_img": "https://live.staticflickr.com/65535/49711594521_4f4e542d15_o.jpg",
    "id_image": "Dwarf_162855",
    "count_view": 0
  },
  {
    "link_thumb": "https://live.staticflickr.com/65535/49710793328_e32e6fa642_n.jpg",
    "id_album": "1903411565",
    "description": "Deer_884831",
    "title": "Deer_884831",
    "link_img": "https://live.staticflickr.com/65535/49710793328_7c45008c32_o.jpg",
    "id_image": "Deer_884831",
    "count_view": 0
  },
  {
    "link_thumb": "https://live.staticflickr.com/65535/49711439823_eb4b9b82c5_n.jpg",
    "id_album": "-1284959130",
    "description": "LegendOfTheFiveRings_167523",
    "title": "LegendOfTheFiveRings_167523",
    "link_img": "https://live.staticflickr.com/65535/49711439823_afbf1df050_o.jpg",
    "id_image": "LegendOfTheFiveRings_167523",
    "count_view": 0
  },
  {
    "link_thumb": "https://live.staticflickr.com/65535/49710868356_99f1d362eb_n.jpg",
    "id_album": "-2109465612",
    "description": "Adventure_510832",
    "title": "Adventure_510832",
    "link_img": "https://live.staticflickr.com/65535/49710868356_9d64485753_o.jpg",
    "id_image": "Adventure_510832",
    "count_view": 0
  },
  {
    "link_thumb": "https://live.staticflickr.com/65535/49712034502_fd03497eb4_n.jpg",
    "id_album": "-1083189875",
    "description": "Forest_772066",
    "title": "Forest_772066",
    "link_img": "https://live.staticflickr.com/65535/49712034502_177bd78b95_o.jpg",
    "id_image": "Forest_772066",
    "count_view": 0
  },
  {
    "link_thumb": "https://live.staticflickr.com/65535/49710863008_d4fc57f1a8_n.jpg",
    "id_album": "850176884",
    "description": "Dragon_247870",
    "title": "Dragon_247870",
    "link_img": "https://live.staticflickr.com/65535/49710863008_d49c334e01_o.jpg",
    "id_image": "Dragon_247870",
    "count_view": 0
  },
  {
    "link_thumb": "https://live.staticflickr.com/65535/49710764878_7b4d5cfa4d_n.jpg",
    "id_album": "-437872736",
    "description": "Creature_958953",
    "title": "Creature_958953",
    "link_img": "https://live.staticflickr.com/65535/49710764878_244efc0f10_o.jpg",
    "id_image": "Creature_958953",
    "count_view": 0
  },
  {
    "link_thumb": "https://live.staticflickr.com/65535/49710894143_2f9a9fdb33_n.jpg",
    "id_album": "850176884",
    "description": "Dragon_348506",
    "title": "Dragon_348506",
    "link_img": "https://live.staticflickr.com/65535/49710894143_2a889c021a_o.jpg",
    "id_image": "Dragon_348506",
    "count_view": 0
  },
  {
    "link_thumb": "https://live.staticflickr.com/65535/49710928246_27e2b47bef_n.jpg",
    "id_album": "-1560111795",
    "description": "Archer_181086",
    "title": "Archer_181086",
    "link_img": "https://live.staticflickr.com/65535/49710928246_8e3cb6f549_o.jpg",
    "id_image": "Archer_181086",
    "count_view": 0
  },
  {
    "link_thumb": "https://live.staticflickr.com/65535/49711720176_e49a814e8f_n.jpg",
    "id_album": "-1083189875",
    "description": "Forest_922706",
    "title": "Forest_922706",
    "link_img": "https://live.staticflickr.com/65535/49711720176_23dd02c849_o.jpg",
    "id_image": "Forest_922706",
    "count_view": 0
  },
  {
    "link_thumb": "https://live.staticflickr.com/65535/49879232126_d0682ab45e_n.jpg",
    "id_album": "-1703946758",
    "description": "ANIME_PIC_d3224c4be8a881b2087b57c1ad3cc00c",
    "title": "ANIME_PIC_d3224c4be8a881b2087b57c1ad3cc00c",
    "link_img": "https://live.staticflickr.com/65535/49879232126_114ff30cae_o.jpg",
    "id_image": "ANIME_PIC_d3224c4be8a881b2087b57c1ad3cc00c",
    "count_view": 0
  },
  {
    "link_thumb": "https://live.staticflickr.com/65535/49710699323_e9fd9472fd_n.jpg",
    "id_album": "-437872736",
    "description": "Creature_486565",
    "title": "Creature_486565",
    "link_img": "https://live.staticflickr.com/65535/49710699323_1f0813c479_o.jpg",
    "id_image": "Creature_486565",
    "count_view": 0
  },
  {
    "link_thumb": "https://live.staticflickr.com/65535/49711912456_fe97a7c741_n.jpg",
    "id_album": "-833110404",
    "description": "Landscape_288261",
    "title": "Landscape_288261",
    "link_img": "https://live.staticflickr.com/65535/49711912456_d915a65d4b_o.jpg",
    "id_image": "Landscape_288261",
    "count_view": 0
  },
  {
    "link_thumb": "https://live.staticflickr.com/65535/49711543918_4848812172_n.jpg",
    "id_album": "-300361534",
    "description": "Pirate_198985",
    "title": "Pirate_198985",
    "link_img": "https://live.staticflickr.com/65535/49711543918_bc63b932f3_o.jpg",
    "id_image": "Pirate_198985",
    "count_view": 0
  },
  {
    "link_thumb": "https://live.staticflickr.com/65535/49711431232_5c8aa58bc7_n.jpg",
    "id_album": "-1964113117",
    "description": "City_552411",
    "title": "City_552411",
    "link_img": "https://live.staticflickr.com/65535/49711431232_9103fa4c45_o.jpg",
    "id_image": "City_552411",
    "count_view": 0
  },
  {
    "link_thumb": "https://live.staticflickr.com/65535/49710666228_99c37d5672_n.jpg",
    "id_album": "-437872736",
    "description": "Creature_331850",
    "title": "Creature_331850",
    "link_img": "https://live.staticflickr.com/65535/49710666228_740eef8a8c_o.jpg",
    "id_image": "Creature_331850",
    "count_view": 0
  },
  {
    "link_thumb": "https://live.staticflickr.com/65535/49710419718_a95828c24e_n.jpg",
    "id_album": "523598895",
    "description": "Artistic_211447",
    "title": "Artistic_211447",
    "link_img": "https://live.staticflickr.com/65535/49710419718_6d618cb5e8_o.jpg",
    "id_image": "Artistic_211447",
    "count_view": 0
  },
  {
    "link_thumb": "https://live.staticflickr.com/65535/49711510386_db925670cc_n.jpg",
    "id_album": "850176884",
    "description": "Dragon_700117",
    "title": "Dragon_700117",
    "link_img": "https://live.staticflickr.com/65535/49711510386_d7bb8b7fac_o.jpg",
    "id_image": "Dragon_700117",
    "count_view": 0
  },
  {
    "link_thumb": "https://live.staticflickr.com/65535/49712406896_5e26c70905_n.jpg",
    "id_album": "295204930",
    "description": "Women_703178",
    "title": "Women_703178",
    "link_img": "https://live.staticflickr.com/65535/49712406896_d77ecf4798_o.jpg",
    "id_image": "Women_703178",
    "count_view": 0
  },
  {
    "link_thumb": "https://live.staticflickr.com/65535/49710968563_960a871ab4_n.jpg",
    "id_album": "850176884",
    "description": "Dragon_681012",
    "title": "Dragon_681012",
    "link_img": "https://live.staticflickr.com/65535/49710968563_2658d03497_o.jpg",
    "id_image": "Dragon_681012",
    "count_view": 0
  },
  {
    "link_thumb": "https://live.staticflickr.com/65535/49712591646_3613e7cfc8_n.jpg",
    "id_album": "-1675918237",
    "description": "WomenWarrior_359477",
    "title": "WomenWarrior_359477",
    "link_img": "https://live.staticflickr.com/65535/49712591646_c9b80ab88c_o.jpg",
    "id_image": "WomenWarrior_359477",
    "count_view": 0
  },
  {
    "link_thumb": "https://live.staticflickr.com/65535/49710650438_dea6b4ea0d_n.jpg",
    "id_album": "-437872736",
    "description": "Creature_308638",
    "title": "Creature_308638",
    "link_img": "https://live.staticflickr.com/65535/49710650438_befe76cc6d_o.jpg",
    "id_image": "Creature_308638",
    "count_view": 0
  },
  {
    "link_thumb": "https://live.staticflickr.com/65535/49711209636_9d1eaaffc2_n.jpg",
    "id_album": "-437872736",
    "description": "Creature_342439",
    "title": "Creature_342439",
    "link_img": "https://live.staticflickr.com/65535/49711209636_80c8732064_o.jpg",
    "id_image": "Creature_342439",
    "count_view": 0
  },
  {
    "link_thumb": "https://live.staticflickr.com/65535/49712176991_385cbb010f_n.jpg",
    "id_album": "431597977",
    "description": "Unicorn_229679",
    "title": "Unicorn_229679",
    "link_img": "https://live.staticflickr.com/65535/49712176991_ce73409591_o.jpg",
    "id_image": "Unicorn_229679",
    "count_view": 0
  },
  {
    "link_thumb": "https://live.staticflickr.com/65535/49712205766_3c5a033e3a_n.jpg",
    "id_album": "-1261420436",
    "description": "Warrior_312161",
    "title": "Warrior_312161",
    "link_img": "https://live.staticflickr.com/65535/49712205766_8554e08776_o.jpg",
    "id_image": "Warrior_312161",
    "count_view": 0
  },
  {
    "link_thumb": "https://live.staticflickr.com/65535/49710421673_63363fe9f9_n.jpg",
    "id_album": "523598895",
    "description": "Artistic_225864",
    "title": "Artistic_225864",
    "link_img": "https://live.staticflickr.com/65535/49710421673_16f3ae73a7_o.jpg",
    "id_image": "Artistic_225864",
    "count_view": 0
  },
  {
    "link_thumb": "https://live.staticflickr.com/65535/49798291773_921c7367a2_n.jpg",
    "id_album": "-1703946758",
    "description": "ANIME_PIC_e273ee3336eedebdafde18fb5b400f29",
    "title": "ANIME_PIC_e273ee3336eedebdafde18fb5b400f29",
    "link_img": "https://live.staticflickr.com/65535/49798291773_f30bd0bd5b_o.jpg",
    "id_image": "ANIME_PIC_e273ee3336eedebdafde18fb5b400f29",
    "count_view": 0
  },
  {
    "link_thumb": "https://live.staticflickr.com/65535/49710358283_cfdb1da09c_n.jpg",
    "id_album": "-1000175186",
    "description": "AngelWarrior_996276",
    "title": "AngelWarrior_996276",
    "link_img": "https://live.staticflickr.com/65535/49710358283_df5aabd136_o.jpg",
    "id_image": "AngelWarrior_996276",
    "count_view": 0
  },
  {
    "link_thumb": "https://live.staticflickr.com/65535/49711340322_09e5dfc7d6_n.jpg",
    "id_album": "-1846011410",
    "description": "Bird_493966",
    "title": "Bird_493966",
    "link_img": "https://live.staticflickr.com/65535/49711340322_3255e682be_o.jpg",
    "id_image": "Bird_493966",
    "count_view": 0
  },
  {
    "link_thumb": "https://live.staticflickr.com/65535/49711506718_08a76ae9e0_n.jpg",
    "id_album": "1892085513",
    "description": "Oriental_309781",
    "title": "Oriental_309781",
    "link_img": "https://live.staticflickr.com/65535/49711506718_5621b6704f_o.jpg",
    "id_image": "Oriental_309781",
    "count_view": 0
  },
  {
    "link_thumb": "https://live.staticflickr.com/65535/49712248332_9eb18b05cd_n.jpg",
    "id_album": "-833110404",
    "description": "Landscape_310355",
    "title": "Landscape_310355",
    "link_img": "https://live.staticflickr.com/65535/49712248332_40ff8579b6_o.jpg",
    "id_image": "Landscape_310355",
    "count_view": 0
  },
  {
    "link_thumb": "https://live.staticflickr.com/65535/49711908382_e8d51611f8_n.jpg",
    "id_album": "850176884",
    "description": "Dragon_975925",
    "title": "Dragon_975925",
    "link_img": "https://live.staticflickr.com/65535/49711908382_dddf444b4a_o.jpg",
    "id_image": "Dragon_975925",
    "count_view": 0
  },
  {
    "link_thumb": "https://live.staticflickr.com/65535/49711284918_c549fc11a5_n.jpg",
    "id_album": "1402713104",
    "description": "Landscape_787046",
    "title": "Landscape_787046",
    "link_img": "https://live.staticflickr.com/65535/49711284918_74e6d1eaa5_o.jpg",
    "id_image": "Landscape_787046",
    "count_view": 0
  },
  {
    "link_thumb": "https://live.staticflickr.com/65535/49711501793_3e929e4801_n.jpg",
    "id_album": "1892085513",
    "description": "Oriental_252653",
    "title": "Oriental_252653",
    "link_img": "https://live.staticflickr.com/65535/49711501793_ccc60c8724_o.jpg",
    "id_image": "Oriental_252653",
    "count_view": 0
  },
  {
    "link_thumb": "https://live.staticflickr.com/65535/49711658582_2c018025a4_n.jpg",
    "id_album": "7198985",
    "description": "Demon_244609",
    "title": "Demon_244609",
    "link_img": "https://live.staticflickr.com/65535/49711658582_82b960a9fc_o.jpg",
    "id_image": "Demon_244609",
    "count_view": 0
  },
  {
    "link_thumb": "https://live.staticflickr.com/65535/49711740776_602c8882a0_n.jpg",
    "id_album": "1131236559",
    "description": "Gods_121452",
    "title": "Gods_121452",
    "link_img": "https://live.staticflickr.com/65535/49711740776_8f5cc080f9_o.jpg",
    "id_image": "Gods_121452",
    "count_view": 0
  },
  {
    "link_thumb": "https://live.staticflickr.com/65535/49712170722_e7d35b6cc7_n.jpg",
    "id_album": "1402713104",
    "description": "Landscape_874062",
    "title": "Landscape_874062",
    "link_img": "https://live.staticflickr.com/65535/49712170722_26ef314407_o.jpg",
    "id_image": "Landscape_874062",
    "count_view": 0
  },
  {
    "link_thumb": "https://live.staticflickr.com/65535/49712520937_a8d03a02b9_n.jpg",
    "id_album": "-1261420436",
    "description": "Warrior_172441",
    "title": "Warrior_172441",
    "link_img": "https://live.staticflickr.com/65535/49712520937_7f0106a376_o.jpg",
    "id_image": "Warrior_172441",
    "count_view": 0
  },
  {
    "link_thumb": "https://live.staticflickr.com/65535/49711243253_51d5659e6b_n.jpg",
    "id_album": "469960528",
    "description": "Knight_224870",
    "title": "Knight_224870",
    "link_img": "https://live.staticflickr.com/65535/49711243253_ef4146a1e5_o.jpg",
    "id_image": "Knight_224870",
    "count_view": 0
  },
  {
    "link_thumb": "https://live.staticflickr.com/65535/49710543553_db3600715f_n.jpg",
    "id_album": "430704260",
    "description": "Child_709238",
    "title": "Child_709238",
    "link_img": "https://live.staticflickr.com/65535/49710543553_c724f52a0f_o.jpg",
    "id_image": "Child_709238",
    "count_view": 0
  },
  {
    "link_thumb": "https://live.staticflickr.com/65535/49711580571_852bbc17ff_n.jpg",
    "id_album": "850176884",
    "description": "Dragon_964219",
    "title": "Dragon_964219",
    "link_img": "https://live.staticflickr.com/65535/49711580571_ca21c7457d_o.jpg",
    "id_image": "Dragon_964219",
    "count_view": 0
  },
  {
    "link_thumb": "https://live.staticflickr.com/65535/49711153723_7cc265bf4e_n.jpg",
    "id_album": "-1972042284",
    "description": "Fairy_981480",
    "title": "Fairy_981480",
    "link_img": "https://live.staticflickr.com/65535/49711153723_38489180d4_o.jpg",
    "id_image": "Fairy_981480",
    "count_view": 0
  },
  {
    "link_thumb": "https://live.staticflickr.com/65535/49711389116_fcebf42a04_n.jpg",
    "id_album": "850176884",
    "description": "Dragon_225868",
    "title": "Dragon_225868",
    "link_img": "https://live.staticflickr.com/65535/49711389116_21687d545f_o.jpg",
    "id_image": "Dragon_225868",
    "count_view": 0
  },
  {
    "link_thumb": "https://live.staticflickr.com/65535/49711183637_204c58bd16_n.jpg",
    "id_album": "-2109465612",
    "description": "Adventure_229252",
    "title": "Adventure_229252",
    "link_img": "https://live.staticflickr.com/65535/49711183637_19aabfef87_o.jpg",
    "id_image": "Adventure_229252",
    "count_view": 0
  },
  {
    "link_thumb": "https://live.staticflickr.com/65535/49710794563_0069648a23_n.jpg",
    "id_album": "1903411565",
    "description": "Deer_914910",
    "title": "Deer_914910",
    "link_img": "https://live.staticflickr.com/65535/49710794563_d42690abb2_o.jpg",
    "id_image": "Deer_914910",
    "count_view": 0
  },
  {
    "link_thumb": "https://live.staticflickr.com/65535/49712635322_b425271507_n.jpg",
    "id_album": "-1126835654",
    "description": "Women_863695",
    "title": "Women_863695",
    "link_img": "https://live.staticflickr.com/65535/49712635322_cc16baa0f9_o.jpg",
    "id_image": "Women_863695",
    "count_view": 0
  },
  {
    "link_thumb": "https://live.staticflickr.com/65535/49711758551_e10a27cde6_n.jpg",
    "id_album": "-1933715543",
    "description": "Horse_592598",
    "title": "Horse_592598",
    "link_img": "https://live.staticflickr.com/65535/49711758551_d80dd54b46_o.jpg",
    "id_image": "Horse_592598",
    "count_view": 0
  },
  {
    "link_thumb": "https://live.staticflickr.com/65535/49711899247_0efda6b666_n.jpg",
    "id_album": "850176884",
    "description": "Dragon_954035",
    "title": "Dragon_954035",
    "link_img": "https://live.staticflickr.com/65535/49711899247_8726b1bf20_o.jpg",
    "id_image": "Dragon_954035",
    "count_view": 0
  },
  {
    "link_thumb": "https://live.staticflickr.com/65535/49712659296_346b4c6c4d_n.jpg",
    "id_album": "-1675918237",
    "description": "WomenWarrior_716037",
    "title": "WomenWarrior_716037",
    "link_img": "https://live.staticflickr.com/65535/49712659296_01ce547747_o.jpg",
    "id_image": "WomenWarrior_716037",
    "count_view": 0
  },
  {
    "link_thumb": "https://live.staticflickr.com/65535/49711035081_a043f07301_n.jpg",
    "id_album": "-1541846310",
    "description": "Castle_175985",
    "title": "Castle_175985",
    "link_img": "https://live.staticflickr.com/65535/49711035081_9a86d551c5_o.jpg",
    "id_image": "Castle_175985",
    "count_view": 0
  },
  {
    "link_thumb": "https://live.staticflickr.com/65535/49710805938_5d6bcff339_n.jpg",
    "id_album": "7198985",
    "description": "Demon_766470",
    "title": "Demon_766470",
    "link_img": "https://live.staticflickr.com/65535/49710805938_6d343a1ff6_o.jpg",
    "id_image": "Demon_766470",
    "count_view": 0
  },
  {
    "link_thumb": "https://live.staticflickr.com/65535/49711530557_c1c12969e6_n.jpg",
    "id_album": "-437872736",
    "description": "Creature_339118",
    "title": "Creature_339118",
    "link_img": "https://live.staticflickr.com/65535/49711530557_e386506132_o.jpg",
    "id_image": "Creature_339118",
    "count_view": 0
  },
  {
    "link_thumb": "https://live.staticflickr.com/65535/49711588287_91773c549b_n.jpg",
    "id_album": "-437872736",
    "description": "Creature_711422",
    "title": "Creature_711422",
    "link_img": "https://live.staticflickr.com/65535/49711588287_e74a929473_o.jpg",
    "id_image": "Creature_711422",
    "count_view": 0
  },
  {
    "link_thumb": "https://live.staticflickr.com/65535/49711228298_8138af6ba0_n.jpg",
    "id_album": "-1933715543",
    "description": "Horse_925241",
    "title": "Horse_925241",
    "link_img": "https://live.staticflickr.com/65535/49711228298_5ab67e8289_o.jpg",
    "id_image": "Horse_925241",
    "count_view": 0
  },
  {
    "link_thumb": "https://live.staticflickr.com/65535/49712175382_340079ffcc_n.jpg",
    "id_album": "1402713104",
    "description": "Landscape_896221",
    "title": "Landscape_896221",
    "link_img": "https://live.staticflickr.com/65535/49712175382_db71dcc81b_o.jpg",
    "id_image": "Landscape_896221",
    "count_view": 0
  },
  {
    "link_thumb": "https://live.staticflickr.com/65535/49711757966_da8dc5dc14_n.jpg",
    "id_album": "-1933715543",
    "description": "Horse_476232",
    "title": "Horse_476232",
    "link_img": "https://live.staticflickr.com/65535/49711757966_82430fe5fe_o.jpg",
    "id_image": "Horse_476232",
    "count_view": 0
  },
  {
    "link_thumb": "https://live.staticflickr.com/65535/49710692878_48e28ae402_n.jpg",
    "id_album": "-437872736",
    "description": "Creature_405068",
    "title": "Creature_405068",
    "link_img": "https://live.staticflickr.com/65535/49710692878_19251c4e16_o.jpg",
    "id_image": "Creature_405068",
    "count_view": 0
  },
  {
    "link_thumb": "https://live.staticflickr.com/65535/49711030821_29321d651d_n.jpg",
    "id_album": "-1541846310",
    "description": "Castle_113338",
    "title": "Castle_113338",
    "link_img": "https://live.staticflickr.com/65535/49711030821_a8d93d0984_o.jpg",
    "id_image": "Castle_113338",
    "count_view": 0
  },
  {
    "link_thumb": "https://live.staticflickr.com/65535/49711658927_87a5101b80_n.jpg",
    "id_album": "7198985",
    "description": "Demon_273106",
    "title": "Demon_273106",
    "link_img": "https://live.staticflickr.com/65535/49711658927_47054b9c4d_o.jpg",
    "id_image": "Demon_273106",
    "count_view": 0
  },
  {
    "link_thumb": "https://live.staticflickr.com/65535/49711166383_f2560bd488_n.jpg",
    "id_album": "-1083189875",
    "description": "Forest_568278",
    "title": "Forest_568278",
    "link_img": "https://live.staticflickr.com/65535/49711166383_a702c3d070_o.jpg",
    "id_image": "Forest_568278",
    "count_view": 0
  },
  {
    "link_thumb": "https://live.staticflickr.com/65535/49711033966_0aaf58156f_n.jpg",
    "id_album": "-1541846310",
    "description": "Castle_159438",
    "title": "Castle_159438",
    "link_img": "https://live.staticflickr.com/65535/49711033966_019e1442ff_o.jpg",
    "id_image": "Castle_159438",
    "count_view": 0
  },
  {
    "link_thumb": "https://live.staticflickr.com/65535/49711328313_6e18262931_n.jpg",
    "id_album": "1402713104",
    "description": "Landscape_943132",
    "title": "Landscape_943132",
    "link_img": "https://live.staticflickr.com/65535/49711328313_fc8b75b809_o.jpg",
    "id_image": "Landscape_943132",
    "count_view": 0
  },
  {
    "link_thumb": "https://live.staticflickr.com/65535/49711447502_ea06884819_n.jpg",
    "id_album": "-1964113117",
    "description": "City_863849",
    "title": "City_863849",
    "link_img": "https://live.staticflickr.com/65535/49711447502_a3a44fb5f2_o.jpg",
    "id_image": "City_863849",
    "count_view": 0
  },
  {
    "link_thumb": "https://live.staticflickr.com/65535/49712571272_42c1d24294_n.jpg",
    "id_album": "786934945",
    "description": "Whale_185667",
    "title": "Whale_185667",
    "link_img": "https://live.staticflickr.com/65535/49712571272_04ed32e9c0_o.jpg",
    "id_image": "Whale_185667",
    "count_view": 0
  },
  {
    "link_thumb": "https://live.staticflickr.com/65535/49712607757_a0d6fcb191_n.jpg",
    "id_album": "-709711865",
    "description": "Wolf_676256",
    "title": "Wolf_676256",
    "link_img": "https://live.staticflickr.com/65535/49712607757_be0a8aae5d_o.jpg",
    "id_image": "Wolf_676256",
    "count_view": 0
  },
  {
    "link_thumb": "https://live.staticflickr.com/65535/49711096023_4b2ca0311c_n.jpg",
    "id_album": "134100487",
    "description": "Elf_706854",
    "title": "Elf_706854",
    "link_img": "https://live.staticflickr.com/65535/49711096023_fa1223aabc_o.jpg",
    "id_image": "Elf_706854",
    "count_view": 0
  },
  {
    "link_thumb": "https://live.staticflickr.com/65535/49711276968_aa54bf87d4_n.jpg",
    "id_album": "1402713104",
    "description": "Landscape_714701",
    "title": "Landscape_714701",
    "link_img": "https://live.staticflickr.com/65535/49711276968_305cc01916_o.jpg",
    "id_image": "Landscape_714701",
    "count_view": 0
  },
  {
    "link_thumb": "https://live.staticflickr.com/65535/49711609172_188ccde2bc_n.jpg",
    "id_album": "-437872736",
    "description": "Creature_958697",
    "title": "Creature_958697",
    "link_img": "https://live.staticflickr.com/65535/49711609172_e7c7b5285c_o.jpg",
    "id_image": "Creature_958697",
    "count_view": 0
  },
  {
    "link_thumb": "https://live.staticflickr.com/65535/49712457331_3ee7134d20_n.jpg",
    "id_album": "1861288871",
    "description": "Women_762385",
    "title": "Women_762385",
    "link_img": "https://live.staticflickr.com/65535/49712457331_0a48404a8a_o.jpg",
    "id_image": "Women_762385",
    "count_view": 0
  },
  {
    "link_thumb": "https://live.staticflickr.com/65535/49710344118_b70c6313af_n.jpg",
    "id_album": "-1000175186",
    "description": "AngelWarrior_284313",
    "title": "AngelWarrior_284313",
    "link_img": "https://live.staticflickr.com/65535/49710344118_99e5df96f2_o.jpg",
    "id_image": "AngelWarrior_284313",
    "count_view": 0
  },
  {
    "link_thumb": "https://live.staticflickr.com/65535/49712362737_037e3847ea_n.jpg",
    "id_album": "1892085513",
    "description": "Oriental_284858",
    "title": "Oriental_284858",
    "link_img": "https://live.staticflickr.com/65535/49712362737_14b0785f09_o.jpg",
    "id_image": "Oriental_284858",
    "count_view": 0
  },
  {
    "link_thumb": "https://live.staticflickr.com/65535/49711450217_2485107a0a_n.jpg",
    "id_album": "-1964113117",
    "description": "City_876298",
    "title": "City_876298",
    "link_img": "https://live.staticflickr.com/65535/49711450217_f47004593f_o.jpg",
    "id_image": "City_876298",
    "count_view": 0
  },
  {
    "link_thumb": "https://live.staticflickr.com/65535/49711929308_5f238f7291_n.jpg",
    "id_album": "1861288871",
    "description": "Women_777959",
    "title": "Women_777959",
    "link_img": "https://live.staticflickr.com/65535/49711929308_88891d1168_o.jpg",
    "id_image": "Women_777959",
    "count_view": 0
  },
  {
    "link_thumb": "https://live.staticflickr.com/65535/49712657487_3cc7940c54_n.jpg",
    "id_album": "-1126835654",
    "description": "Women_905361",
    "title": "Women_905361",
    "link_img": "https://live.staticflickr.com/65535/49712657487_d0b19a2b1a_o.jpg",
    "id_image": "Women_905361",
    "count_view": 0
  },
  {
    "link_thumb": "https://live.staticflickr.com/65535/49712768062_aac981c3d9_n.jpg",
    "id_album": "1861288871",
    "description": "Women_488053",
    "title": "Women_488053",
    "link_img": "https://live.staticflickr.com/65535/49712768062_1d3f7447c9_o.jpg",
    "id_image": "Women_488053",
    "count_view": 0
  },
  {
    "link_thumb": "https://live.staticflickr.com/65535/49712287531_93b3001d90_n.jpg",
    "id_album": "-709711865",
    "description": "Wolf_724686",
    "title": "Wolf_724686",
    "link_img": "https://live.staticflickr.com/65535/49712287531_0743df704e_o.jpg",
    "id_image": "Wolf_724686",
    "count_view": 0
  },
  {
    "link_thumb": "https://live.staticflickr.com/65535/49710372093_8e4d7ace30_n.jpg",
    "id_album": "-1913845949",
    "description": "Animal_636033",
    "title": "Animal_636033",
    "link_img": "https://live.staticflickr.com/65535/49710372093_4243134512_o.jpg",
    "id_image": "Animal_636033",
    "count_view": 0
  },
  {
    "link_thumb": "https://live.staticflickr.com/65535/49711575401_abda04d761_n.jpg",
    "id_album": "850176884",
    "description": "Dragon_949818",
    "title": "Dragon_949818",
    "link_img": "https://live.staticflickr.com/65535/49711575401_175e7df3f9_o.jpg",
    "id_image": "Dragon_949818",
    "count_view": 0
  },
  {
    "link_thumb": "https://live.staticflickr.com/65535/49711986412_7487a27fd1_n.jpg",
    "id_album": "-1972042284",
    "description": "Fairy_383443",
    "title": "Fairy_383443",
    "link_img": "https://live.staticflickr.com/65535/49711986412_4648bba25f_o.jpg",
    "id_image": "Fairy_383443",
    "count_view": 0
  },
  {
    "link_thumb": "https://live.staticflickr.com/65535/49711545803_053498c04f_n.jpg",
    "id_album": "-300361534",
    "description": "Pirate_523717",
    "title": "Pirate_523717",
    "link_img": "https://live.staticflickr.com/65535/49711545803_dd0b8bb8b9_o.jpg",
    "id_image": "Pirate_523717",
    "count_view": 0
  },
  {
    "link_thumb": "https://live.staticflickr.com/65535/49711164656_32a87aa788_n.jpg",
    "id_album": "-437872736",
    "description": "Creature_240297",
    "title": "Creature_240297",
    "link_img": "https://live.staticflickr.com/65535/49711164656_8959b15b9e_o.jpg",
    "id_image": "Creature_240297",
    "count_view": 0
  },
  {
    "link_thumb": "https://live.staticflickr.com/65535/49711610477_2446df61e6_n.jpg",
    "id_album": "-437872736",
    "description": "Creature_958705",
    "title": "Creature_958705",
    "link_img": "https://live.staticflickr.com/65535/49711610477_3473db1633_o.jpg",
    "id_image": "Creature_958705",
    "count_view": 0
  },
  {
    "link_thumb": "https://live.staticflickr.com/65535/49711483191_0ae2c2a177_n.jpg",
    "id_album": "850176884",
    "description": "Dragon_563005",
    "title": "Dragon_563005",
    "link_img": "https://live.staticflickr.com/65535/49711483191_a4e6cf080e_o.jpg",
    "id_image": "Dragon_563005",
    "count_view": 0
  },
  {
    "link_thumb": "https://live.staticflickr.com/65535/49711401767_cae039137a_n.jpg",
    "id_album": "430704260",
    "description": "Child_685352",
    "title": "Child_685352",
    "link_img": "https://live.staticflickr.com/65535/49711401767_5292c8e040_o.jpg",
    "id_image": "Child_685352",
    "count_view": 0
  },
  {
    "link_thumb": "https://live.staticflickr.com/65535/49710538518_76f7803894_n.jpg",
    "id_album": "-1741487325",
    "description": "Cat_905070",
    "title": "Cat_905070",
    "link_img": "https://live.staticflickr.com/65535/49710538518_ef365a17aa_o.jpg",
    "id_image": "Cat_905070",
    "count_view": 0
  },
  {
    "link_thumb": "https://live.staticflickr.com/65535/49710502808_fec7e80f52_n.jpg",
    "id_album": "-1541846310",
    "description": "Castle_202493",
    "title": "Castle_202493",
    "link_img": "https://live.staticflickr.com/65535/49710502808_201075923e_o.jpg",
    "id_image": "Castle_202493",
    "count_view": 0
  },
  {
    "link_thumb": "https://live.staticflickr.com/65535/49710674008_0b2c63c716_n.jpg",
    "id_album": "-437872736",
    "description": "Creature_342035",
    "title": "Creature_342035",
    "link_img": "https://live.staticflickr.com/65535/49710674008_f1e4226b38_o.jpg",
    "id_image": "Creature_342035",
    "count_view": 0
  },
  {
    "link_thumb": "https://live.staticflickr.com/65535/49712174752_2c0abcdabc_n.jpg",
    "id_album": "1402713104",
    "description": "Landscape_890631",
    "title": "Landscape_890631",
    "link_img": "https://live.staticflickr.com/65535/49712174752_fdf8a4923b_o.jpg",
    "id_image": "Landscape_890631",
    "count_view": 0
  },
  {
    "link_thumb": "https://live.staticflickr.com/65535/49711940576_e3c833517b_n.jpg",
    "id_album": "-833110404",
    "description": "Landscape_416812",
    "title": "Landscape_416812",
    "link_img": "https://live.staticflickr.com/65535/49711940576_2a3f43b2a4_o.jpg",
    "id_image": "Landscape_416812",
    "count_view": 0
  },
  {
    "link_thumb": "https://live.staticflickr.com/65535/49710614963_f26484727b_n.jpg",
    "id_album": "-437872736",
    "description": "Creature_167900",
    "title": "Creature_167900",
    "link_img": "https://live.staticflickr.com/65535/49710614963_cb6a977767_o.jpg",
    "id_image": "Creature_167900",
    "count_view": 0
  },
  {
    "link_thumb": "https://live.staticflickr.com/65535/49711509357_956534242d_n.jpg",
    "id_album": "-437872736",
    "description": "Creature_304648",
    "title": "Creature_304648",
    "link_img": "https://live.staticflickr.com/65535/49711509357_cff26399c1_o.jpg",
    "id_image": "Creature_304648",
    "count_view": 0
  },
  {
    "link_thumb": "https://live.staticflickr.com/65535/49710937668_843bb84ae0_n.jpg",
    "id_album": "850176884",
    "description": "Dragon_528316",
    "title": "Dragon_528316",
    "link_img": "https://live.staticflickr.com/65535/49710937668_839eefa2ff_o.jpg",
    "id_image": "Dragon_528316",
    "count_view": 0
  },
  {
    "link_thumb": "https://live.staticflickr.com/65535/49711215907_c899b8ce9f_n.jpg",
    "id_album": "-1000175186",
    "description": "AngelWarrior_996005",
    "title": "AngelWarrior_996005",
    "link_img": "https://live.staticflickr.com/65535/49711215907_8df211a77f_o.jpg",
    "id_image": "AngelWarrior_996005",
    "count_view": 0
  },
  {
    "link_thumb": "https://live.staticflickr.com/65535/49711997243_7dca6cd3d2_n.jpg",
    "id_album": "-867594484",
    "description": "Women_682087",
    "title": "Women_682087",
    "link_img": "https://live.staticflickr.com/65535/49711997243_f5671c4cb4_o.jpg",
    "id_image": "Women_682087",
    "count_view": 0
  },
  {
    "link_thumb": "https://live.staticflickr.com/65535/49711672802_d832541775_n.jpg",
    "id_album": "850176884",
    "description": "DRAGON26101916500228",
    "title": "DRAGON26101916500228",
    "link_img": "https://live.staticflickr.com/65535/49711672802_71c6448c78_o.jpg",
    "id_image": "DRAGON26101916500228",
    "count_view": 0
  },
  {
    "link_thumb": "https://live.staticflickr.com/65535/49710598943_0c72382666_n.jpg",
    "id_album": "-1964113117",
    "description": "City_958296",
    "title": "City_958296",
    "link_img": "https://live.staticflickr.com/65535/49710598943_e201cf872c_o.jpg",
    "id_image": "City_958296",
    "count_view": 0
  },
  {
    "link_thumb": "https://live.staticflickr.com/65535/49711011591_e7f5b94ace_n.jpg",
    "id_album": "1187037014",
    "description": "Battle_871272",
    "title": "Battle_871272",
    "link_img": "https://live.staticflickr.com/65535/49711011591_9b7d566eed_o.jpg",
    "id_image": "Battle_871272",
    "count_view": 0
  },
  {
    "link_thumb": "https://live.staticflickr.com/65535/49711988072_009ea1fb6f_n.jpg",
    "id_album": "-1972042284",
    "description": "Fairy_400384",
    "title": "Fairy_400384",
    "link_img": "https://live.staticflickr.com/65535/49711988072_a041eed75d_o.jpg",
    "id_image": "Fairy_400384",
    "count_view": 0
  },
  {
    "link_thumb": "https://live.staticflickr.com/65535/49712067956_fe916dff91_n.jpg",
    "id_album": "-639976841",
    "description": "Pegasus_96590",
    "title": "Pegasus_96590",
    "link_img": "https://live.staticflickr.com/65535/49712067956_87c2109dd3_o.jpg",
    "id_image": "Pegasus_96590",
    "count_view": 0
  },
  {
    "link_thumb": "https://live.staticflickr.com/65535/49798810571_05326537aa_n.jpg",
    "id_album": "-1703946758",
    "description": "ANIME_PIC_1f431ac8a77d96ad7f235da534145304",
    "title": "ANIME_PIC_1f431ac8a77d96ad7f235da534145304",
    "link_img": "https://live.staticflickr.com/65535/49798810571_0b9115a6f4_o.jpg",
    "id_image": "ANIME_PIC_1f431ac8a77d96ad7f235da534145304",
    "count_view": 0
  },
  {
    "link_thumb": "https://live.staticflickr.com/65535/49712843577_b505978017_n.jpg",
    "id_album": "-867594484",
    "description": "Women_599899",
    "title": "Women_599899",
    "link_img": "https://live.staticflickr.com/65535/49712843577_e29336bf0d_o.jpg",
    "id_image": "Women_599899",
    "count_view": 0
  },
  {
    "link_thumb": "https://live.staticflickr.com/65535/49710477933_b57159494e_n.jpg",
    "id_album": "1187037014",
    "description": "Battle_901448",
    "title": "Battle_901448",
    "link_img": "https://live.staticflickr.com/65535/49710477933_f35eed0a91_o.jpg",
    "id_image": "Battle_901448",
    "count_view": 0
  },
  {
    "link_thumb": "https://live.staticflickr.com/65535/49711576052_81d07ceb0a_n.jpg",
    "id_album": "-437872736",
    "description": "Creature_576630",
    "title": "Creature_576630",
    "link_img": "https://live.staticflickr.com/65535/49711576052_038f68b44c_o.jpg",
    "id_image": "Creature_576630",
    "count_view": 0
  },
  {
    "link_thumb": "https://live.staticflickr.com/65535/49711655382_d46d5374ed_n.jpg",
    "id_album": "1903411565",
    "description": "Deer_971498",
    "title": "Deer_971498",
    "link_img": "https://live.staticflickr.com/65535/49711655382_38220099cd_o.jpg",
    "id_image": "Deer_971498",
    "count_view": 0
  },
  {
    "link_thumb": "https://live.staticflickr.com/65535/49712073037_8b67d8fb8f_n.jpg",
    "id_album": "857581314",
    "description": "Griffin_207487",
    "title": "Griffin_207487",
    "link_img": "https://live.staticflickr.com/65535/49712073037_55d705257b_o.jpg",
    "id_image": "Griffin_207487",
    "count_view": 0
  },
  {
    "link_thumb": "https://live.staticflickr.com/65535/49710975538_f0b53fcbc1_n.jpg",
    "id_album": "850176884",
    "description": "Dragon_709153",
    "title": "Dragon_709153",
    "link_img": "https://live.staticflickr.com/65535/49710975538_1369e12055_o.jpg",
    "id_image": "Dragon_709153",
    "count_view": 0
  },
  {
    "link_thumb": "https://live.staticflickr.com/65535/49710614283_5412482285_n.jpg",
    "id_album": "-437872736",
    "description": "Creature_164196",
    "title": "Creature_164196",
    "link_img": "https://live.staticflickr.com/65535/49710614283_0bc0df787d_o.jpg",
    "id_image": "Creature_164196",
    "count_view": 0
  },
  {
    "link_thumb": "https://live.staticflickr.com/65535/49711728692_7fcc4b2a9b_n.jpg",
    "id_album": "850176884",
    "description": "Dragon_270153",
    "title": "Dragon_270153",
    "link_img": "https://live.staticflickr.com/65535/49711728692_b7e2d3a609_o.jpg",
    "id_image": "Dragon_270153",
    "count_view": 0
  },
  {
    "link_thumb": "https://live.staticflickr.com/65535/49712428162_176bb30361_n.jpg",
    "id_album": "-1611961467",
    "description": "Samurai_394503",
    "title": "Samurai_394503",
    "link_img": "https://live.staticflickr.com/65535/49712428162_6b2a3797a7_o.jpg",
    "id_image": "Samurai_394503",
    "count_view": 0
  },
  {
    "link_thumb": "https://live.staticflickr.com/65535/49711658097_fb03bff899_n.jpg",
    "id_album": "7198985",
    "description": "Demon_237721",
    "title": "Demon_237721",
    "link_img": "https://live.staticflickr.com/65535/49711658097_544cf5946f_o.jpg",
    "id_image": "Demon_237721",
    "count_view": 0
  },
  {
    "link_thumb": "https://live.staticflickr.com/65535/49711105378_80f7c44988_n.jpg",
    "id_album": "134100487",
    "description": "Elf_921644",
    "title": "Elf_921644",
    "link_img": "https://live.staticflickr.com/65535/49711105378_5fa8fc2796_o.jpg",
    "id_image": "Elf_921644",
    "count_view": 0
  },
  {
    "link_thumb": "https://live.staticflickr.com/65535/49711539548_aed950b53d_n.jpg",
    "id_album": "-1326601535",
    "description": "Phoenix_685068",
    "title": "Phoenix_685068",
    "link_img": "https://live.staticflickr.com/65535/49711539548_6020b55b2b_o.jpg",
    "id_image": "Phoenix_685068",
    "count_view": 0
  },
  {
    "link_thumb": "https://live.staticflickr.com/65535/49711698693_3fd2d4631b_n.jpg",
    "id_album": "-1261420436",
    "description": "Warrior_911882",
    "title": "Warrior_911882",
    "link_img": "https://live.staticflickr.com/65535/49711698693_4d671805e4_o.jpg",
    "id_image": "Warrior_911882",
    "count_view": 0
  },
  {
    "link_thumb": "https://live.staticflickr.com/65535/49710953936_0889ff477c_n.jpg",
    "id_album": "523598895",
    "description": "Artistic_220081",
    "title": "Artistic_220081",
    "link_img": "https://live.staticflickr.com/65535/49710953936_1bc82e4a44_o.jpg",
    "id_image": "Artistic_220081",
    "count_view": 0
  },
  {
    "link_thumb": "https://live.staticflickr.com/65535/49711412742_059663f55c_n.jpg",
    "id_album": "-1964113117",
    "description": "City_147379",
    "title": "City_147379",
    "link_img": "https://live.staticflickr.com/65535/49711412742_500eddd886_o.jpg",
    "id_image": "City_147379",
    "count_view": 0
  },
  {
    "link_thumb": "https://live.staticflickr.com/65535/49711598876_ed841c0b57_n.jpg",
    "id_album": "-1594184835",
    "description": "Dwarf_881446",
    "title": "Dwarf_881446",
    "link_img": "https://live.staticflickr.com/65535/49711598876_f8fd88ae2e_o.jpg",
    "id_image": "Dwarf_881446",
    "count_view": 0
  },
  {
    "link_thumb": "https://live.staticflickr.com/65535/49710415368_6196f0c08f_n.jpg",
    "id_album": "523598895",
    "description": "Artistic_181481",
    "title": "Artistic_181481",
    "link_img": "https://live.staticflickr.com/65535/49710415368_d6cc709376_o.jpg",
    "id_image": "Artistic_181481",
    "count_view": 0
  },
  {
    "link_thumb": "https://live.staticflickr.com/65535/49711183237_7b3f252962_n.jpg",
    "id_album": "-2109465612",
    "description": "Adventure_225834",
    "title": "Adventure_225834",
    "link_img": "https://live.staticflickr.com/65535/49711183237_bcaa8388a3_o.jpg",
    "id_image": "Adventure_225834",
    "count_view": 0
  },
  {
    "link_thumb": "https://live.staticflickr.com/65535/49710603718_a17e825c69_n.jpg",
    "id_album": "-437872736",
    "description": "Creature_113120",
    "title": "Creature_113120",
    "link_img": "https://live.staticflickr.com/65535/49710603718_0440fe6cb3_o.jpg",
    "id_image": "Creature_113120",
    "count_view": 0
  },
  {
    "link_thumb": "https://live.staticflickr.com/65535/49711000676_cdc1450784_n.jpg",
    "id_album": "1187037014",
    "description": "Battle_476180",
    "title": "Battle_476180",
    "link_img": "https://live.staticflickr.com/65535/49711000676_8f01801180_o.jpg",
    "id_image": "Battle_476180",
    "count_view": 0
  },
  {
    "link_thumb": "https://live.staticflickr.com/65535/49711917213_f195b65128_n.jpg",
    "id_album": "1861288871",
    "description": "Women_746245",
    "title": "Women_746245",
    "link_img": "https://live.staticflickr.com/65535/49711917213_18d4238d0a_o.jpg",
    "id_image": "Women_746245",
    "count_view": 0
  },
  {
    "link_thumb": "https://live.staticflickr.com/65535/49712833962_e8c314c5b0_n.jpg",
    "id_album": "-867594484",
    "description": "Women_567073",
    "title": "Women_567073",
    "link_img": "https://live.staticflickr.com/65535/49712833962_503a85d15d_o.jpg",
    "id_image": "Women_567073",
    "count_view": 0
  },
  {
    "link_thumb": "https://live.staticflickr.com/65535/49711530716_d143e254d6_n.jpg",
    "id_album": "850176884",
    "description": "Dragon_82711",
    "title": "Dragon_82711",
    "link_img": "https://live.staticflickr.com/65535/49711530716_62d0f2fe71_o.jpg",
    "id_image": "Dragon_82711",
    "count_view": 0
  },
  {
    "link_thumb": "https://live.staticflickr.com/65535/49711286216_35720e24f8_n.jpg",
    "id_album": "-437872736",
    "description": "Creature_958703",
    "title": "Creature_958703",
    "link_img": "https://live.staticflickr.com/65535/49711286216_4fb67c3785_o.jpg",
    "id_image": "Creature_958703",
    "count_view": 0
  },
  {
    "link_thumb": "https://live.staticflickr.com/65535/49711277472_3c88c35392_n.jpg",
    "id_album": "523598895",
    "description": "Artistic_214280",
    "title": "Artistic_214280",
    "link_img": "https://live.staticflickr.com/65535/49711277472_3dc43f32ec_o.jpg",
    "id_image": "Artistic_214280",
    "count_view": 0
  },
  {
    "link_thumb": "https://live.staticflickr.com/65535/49713020322_79a3bc8fc3_n.jpg",
    "id_album": "-1675918237",
    "description": "WomenWarrior_897440",
    "title": "WomenWarrior_897440",
    "link_img": "https://live.staticflickr.com/65535/49713020322_44b529de2f_o.jpg",
    "id_image": "WomenWarrior_897440",
    "count_view": 0
  },
  {
    "link_thumb": "https://live.staticflickr.com/65535/49711612243_e64444e1c2_n.jpg",
    "id_album": "1240974613",
    "description": "Sorceress_982571",
    "title": "Sorceress_982571",
    "link_img": "https://live.staticflickr.com/65535/49711612243_2fa0947cb5_o.jpg",
    "id_image": "Sorceress_982571",
    "count_view": 0
  },
  {
    "link_thumb": "https://live.staticflickr.com/65535/49710976586_7496623789_n.jpg",
    "id_album": "523598895",
    "description": "Artistic_655885",
    "title": "Artistic_655885",
    "link_img": "https://live.staticflickr.com/65535/49710976586_77ddecb817_o.jpg",
    "id_image": "Artistic_655885",
    "count_view": 0
  },
  {
    "link_thumb": "https://live.staticflickr.com/65535/49711031493_7563dd7b27_n.jpg",
    "id_album": "850176884",
    "description": "Dragon_920329",
    "title": "Dragon_920329",
    "link_img": "https://live.staticflickr.com/65535/49711031493_a107db04ac_o.jpg",
    "id_image": "Dragon_920329",
    "count_view": 0
  },
  {
    "link_thumb": "https://live.staticflickr.com/65535/49711350222_6fb1306998_n.jpg",
    "id_album": "406431601",
    "description": "Building_867577",
    "title": "Building_867577",
    "link_img": "https://live.staticflickr.com/65535/49711350222_9f93839d12_o.jpg",
    "id_image": "Building_867577",
    "count_view": 0
  },
  {
    "link_thumb": "https://live.staticflickr.com/65535/49711244737_e653daed6d_n.jpg",
    "id_album": "-1913845949",
    "description": "Animal_897930",
    "title": "Animal_897930",
    "link_img": "https://live.staticflickr.com/65535/49711244737_eb48143fcf_o.jpg",
    "id_image": "Animal_897930",
    "count_view": 0
  },
  {
    "link_thumb": "https://live.staticflickr.com/65535/49710953493_de1b8af97e_n.jpg",
    "id_album": "850176884",
    "description": "Dragon_592806",
    "title": "Dragon_592806",
    "link_img": "https://live.staticflickr.com/65535/49710953493_39308ffec3_o.jpg",
    "id_image": "Dragon_592806",
    "count_view": 0
  },
  {
    "link_thumb": "https://live.staticflickr.com/65535/49711727637_bae4636b7b_n.jpg",
    "id_album": "850176884",
    "description": "Dragon_269587",
    "title": "Dragon_269587",
    "link_img": "https://live.staticflickr.com/65535/49711727637_c5139664d6_o.jpg",
    "id_image": "Dragon_269587",
    "count_view": 0
  },
  {
    "link_thumb": "https://live.staticflickr.com/65535/49712671447_583a8c7a49_n.jpg",
    "id_album": "-1126835654",
    "description": "Women_983729",
    "title": "Women_983729",
    "link_img": "https://live.staticflickr.com/65535/49712671447_3d96145f14_o.jpg",
    "id_image": "Women_983729",
    "count_view": 0
  },
  {
    "link_thumb": "https://live.staticflickr.com/65535/49711143403_fecaf81cc5_n.jpg",
    "id_album": "-1972042284",
    "description": "Fairy_703281",
    "title": "Fairy_703281",
    "link_img": "https://live.staticflickr.com/65535/49711143403_b254951a2d_o.jpg",
    "id_image": "Fairy_703281",
    "count_view": 0
  },
  {
    "link_thumb": "https://live.staticflickr.com/65535/49710893071_948306f828_n.jpg",
    "id_album": "-1913845949",
    "description": "Animal_151729",
    "title": "Animal_151729",
    "link_img": "https://live.staticflickr.com/65535/49710893071_2d255d4c16_o.jpg",
    "id_image": "Animal_151729",
    "count_view": 0
  },
  {
    "link_thumb": "https://live.staticflickr.com/65535/49711281891_d3a6a8b95e_n.jpg",
    "id_album": "-437872736",
    "description": "Creature_958674",
    "title": "Creature_958674",
    "link_img": "https://live.staticflickr.com/65535/49711281891_ba9eff1ea9_o.jpg",
    "id_image": "Creature_958674",
    "count_view": 0
  },
  {
    "link_thumb": "https://live.staticflickr.com/65535/49710916718_a1bf907d7f_n.jpg",
    "id_album": "850176884",
    "description": "Dragon_455773",
    "title": "Dragon_455773",
    "link_img": "https://live.staticflickr.com/65535/49710916718_695050d913_o.jpg",
    "id_image": "Dragon_455773",
    "count_view": 0
  },
  {
    "link_thumb": "https://live.staticflickr.com/65535/49711599563_12109e63bb_n.jpg",
    "id_album": "-395228614",
    "description": "Ship_439040",
    "title": "Ship_439040",
    "link_img": "https://live.staticflickr.com/65535/49711599563_7fbacbc3eb_o.jpg",
    "id_image": "Ship_439040",
    "count_view": 0
  },
  {
    "link_thumb": "https://live.staticflickr.com/65535/49712953252_96f400fa52_n.jpg",
    "id_album": "-1675918237",
    "description": "WomenWarrior_528444",
    "title": "WomenWarrior_528444",
    "link_img": "https://live.staticflickr.com/65535/49712953252_97e2c4301e_o.jpg",
    "id_image": "WomenWarrior_528444",
    "count_view": 0
  },
  {
    "link_thumb": "https://live.staticflickr.com/65535/49712197881_d39a4b41ba_n.jpg",
    "id_album": "-1261420436",
    "description": "Warrior_113112",
    "title": "Warrior_113112",
    "link_img": "https://live.staticflickr.com/65535/49712197881_56d8c0e1d9_o.jpg",
    "id_image": "Warrior_113112",
    "count_view": 0
  },
  {
    "link_thumb": "https://live.staticflickr.com/65535/49711288493_c3a67bd64e_n.jpg",
    "id_album": "1402713104",
    "description": "Landscape_842660",
    "title": "Landscape_842660",
    "link_img": "https://live.staticflickr.com/65535/49711288493_45a8a629fe_o.jpg",
    "id_image": "Landscape_842660",
    "count_view": 0
  },
  {
    "link_thumb": "https://live.staticflickr.com/65535/49711293418_c131e920d4_n.jpg",
    "id_album": "1402713104",
    "description": "Landscape_860516",
    "title": "Landscape_860516",
    "link_img": "https://live.staticflickr.com/65535/49711293418_9c845d237e_o.jpg",
    "id_image": "Landscape_860516",
    "count_view": 0
  },
  {
    "link_thumb": "https://live.staticflickr.com/65535/49711063736_55ca38f91a_n.jpg",
    "id_album": "-1541846310",
    "description": "Castle_878221",
    "title": "Castle_878221",
    "link_img": "https://live.staticflickr.com/65535/49711063736_2490326a65_o.jpg",
    "id_image": "Castle_878221",
    "count_view": 0
  },
  {
    "link_thumb": "https://live.staticflickr.com/65535/49711748326_99f767f6b4_n.jpg",
    "id_album": "1131236559",
    "description": "Gods_948485",
    "title": "Gods_948485",
    "link_img": "https://live.staticflickr.com/65535/49711748326_cef1d7dac0_o.jpg",
    "id_image": "Gods_948485",
    "count_view": 0
  },
  {
    "link_thumb": "https://live.staticflickr.com/65535/49711802163_0a38fee2e5_n.jpg",
    "id_album": "-1126835654",
    "description": "Women_919667",
    "title": "Women_919667",
    "link_img": "https://live.staticflickr.com/65535/49711802163_a17d3fdfd9_o.jpg",
    "id_image": "Women_919667",
    "count_view": 0
  },
  {
    "link_thumb": "https://live.staticflickr.com/65535/49711835293_54905ceaa2_n.jpg",
    "id_album": "295204930",
    "description": "Women_273427",
    "title": "Women_273427",
    "link_img": "https://live.staticflickr.com/65535/49711835293_a03dd14249_o.jpg",
    "id_image": "Women_273427",
    "count_view": 0
  },
  {
    "link_thumb": "https://live.staticflickr.com/65535/49712305122_f73fdbbd31_n.jpg",
    "id_album": "416744915",
    "description": "Lion_696555",
    "title": "Lion_696555",
    "link_img": "https://live.staticflickr.com/65535/49712305122_09d5012b9c_o.jpg",
    "id_image": "Lion_696555",
    "count_view": 0
  }
]