[
  {
    "link_thumb": "https://live.staticflickr.com/65535/49712777327_e6da1548f8_n.jpg",
    "id_album": "1861288871",
    "description": "Women_748734",
    "title": "Women_748734",
    "link_img": "https://live.staticflickr.com/65535/49712777327_d552cdc7e8_o.jpg",
    "id_image": "Women_748734",
    "count_view": 0
  },
  {
    "link_thumb": "https://live.staticflickr.com/65535/49711742302_c9f2ba7944_n.jpg",
    "id_album": "850176884",
    "description": "Dragon_323977",
    "title": "Dragon_323977",
    "link_img": "https://live.staticflickr.com/65535/49711742302_343fb9628c_o.jpg",
    "id_image": "Dragon_323977",
    "count_view": 0
  },
  {
    "link_thumb": "https://live.staticflickr.com/65535/49711224103_8d20cdac90_n.jpg",
    "id_album": "-1933715543",
    "description": "Horse_597453",
    "title": "Horse_597453",
    "link_img": "https://live.staticflickr.com/65535/49711224103_f9f8090019_o.jpg",
    "id_image": "Horse_597453",
    "count_view": 0
  },
  {
    "link_thumb": "https://live.staticflickr.com/65535/49711496853_a617ea69c5_n.jpg",
    "id_album": "-14582214",
    "description": "Ocean_361049",
    "title": "Ocean_361049",
    "link_img": "https://live.staticflickr.com/65535/49711496853_b5970b386c_o.jpg",
    "id_image": "Ocean_361049",
    "count_view": 0
  },
  {
    "link_thumb": "https://live.staticflickr.com/65535/49711705591_9b644d7c6d_n.jpg",
    "id_album": "-1083189875",
    "description": "Forest_705656",
    "title": "Forest_705656",
    "link_img": "https://live.staticflickr.com/65535/49711705591_bda2c61a21_o.jpg",
    "id_image": "Forest_705656",
    "count_view": 0
  },
  {
    "link_thumb": "https://live.staticflickr.com/65535/49712171983_41b655e38c_n.jpg",
    "id_album": "-1207759647",
    "description": "Zodiac_277121",
    "title": "Zodiac_277121",
    "link_img": "https://live.staticflickr.com/65535/49712171983_5856a62df4_o.jpg",
    "id_image": "Zodiac_277121",
    "count_view": 0
  },
  {
    "link_thumb": "https://live.staticflickr.com/65535/49712524112_c21e5f2246_n.jpg",
    "id_album": "-1261420436",
    "description": "Warrior_237132",
    "title": "Warrior_237132",
    "link_img": "https://live.staticflickr.com/65535/49712524112_1a3f678a67_o.jpg",
    "id_image": "Warrior_237132",
    "count_view": 0
  },
  {
    "link_thumb": "https://live.staticflickr.com/65535/49711604596_58ac0e68ab_n.jpg",
    "id_album": "134100487",
    "description": "Elf_234773",
    "title": "Elf_234773",
    "link_img": "https://live.staticflickr.com/65535/49711604596_7c58d17161_o.jpg",
    "id_image": "Elf_234773",
    "count_view": 0
  },
  {
    "link_thumb": "https://live.staticflickr.com/65535/49710942621_479aa2ce3b_n.jpg",
    "id_album": "523598895",
    "description": "Artistic_149869",
    "title": "Artistic_149869",
    "link_img": "https://live.staticflickr.com/65535/49710942621_313b88b273_o.jpg",
    "id_image": "Artistic_149869",
    "count_view": 0
  },
  {
    "link_thumb": "https://live.staticflickr.com/65535/49711264433_915c7bed57_n.jpg",
    "id_album": "1402713104",
    "description": "Landscape_678114",
    "title": "Landscape_678114",
    "link_img": "https://live.staticflickr.com/65535/49711264433_de7f629e17_o.jpg",
    "id_image": "Landscape_678114",
    "count_view": 0
  },
  {
    "link_thumb": "https://live.staticflickr.com/65535/49710857641_64a091cd01_n.jpg",
    "id_album": "-218097820",
    "description": "ASongOfIceAndFire_601329",
    "title": "ASongOfIceAndFire_601329",
    "link_img": "https://live.staticflickr.com/65535/49710857641_4f3a22acf9_o.jpg",
    "id_image": "ASongOfIceAndFire_601329",
    "count_view": 0
  },
  {
    "link_thumb": "https://live.staticflickr.com/65535/49712196756_1069e02e43_n.jpg",
    "id_album": "1215289234",
    "description": "WARIOR2610191651323",
    "title": "WARIOR2610191651323",
    "link_img": "https://live.staticflickr.com/65535/49712196756_f3d409b113_o.jpg",
    "id_image": "WARIOR2610191651323",
    "count_view": 0
  },
  {
    "link_thumb": "https://live.staticflickr.com/65535/49710967063_4a0e4a9b7d_n.jpg",
    "id_album": "850176884",
    "description": "Dragon_66725",
    "title": "Dragon_66725",
    "link_img": "https://live.staticflickr.com/65535/49710967063_16b27739a0_o.jpg",
    "id_image": "Dragon_66725",
    "count_view": 0
  },
  {
    "link_thumb": "https://live.staticflickr.com/65535/49711516547_22e7261cc8_n.jpg",
    "id_album": "-437872736",
    "description": "Creature_316470",
    "title": "Creature_316470",
    "link_img": "https://live.staticflickr.com/65535/49711516547_724c8992a5_o.jpg",
    "id_image": "Creature_316470",
    "count_view": 0
  },
  {
    "link_thumb": "https://live.staticflickr.com/65535/49711028476_56a1d3fdb9_n.jpg",
    "id_album": "406431601",
    "description": "Building_939315",
    "title": "Building_939315",
    "link_img": "https://live.staticflickr.com/65535/49711028476_cea650be1b_o.jpg",
    "id_image": "Building_939315",
    "count_view": 0
  },
  {
    "link_thumb": "https://live.staticflickr.com/65535/49711245937_02ef2fde69_n.jpg",
    "id_album": "-1913845949",
    "description": "Animal_918807",
    "title": "Animal_918807",
    "link_img": "https://live.staticflickr.com/65535/49711245937_bc24e136af_o.jpg",
    "id_image": "Animal_918807",
    "count_view": 0
  },
  {
    "link_thumb": "https://live.staticflickr.com/65535/49712628642_c9dae4cd9d_n.jpg",
    "id_album": "-1126835654",
    "description": "Women_114231",
    "title": "Women_114231",
    "link_img": "https://live.staticflickr.com/65535/49712628642_d6a59272ed_o.jpg",
    "id_image": "Women_114231",
    "count_view": 0
  },
  {
    "link_thumb": "https://live.staticflickr.com/65535/49711217787_986df146a4_n.jpg",
    "id_album": "-1913845949",
    "description": "Animal_157959",
    "title": "Animal_157959",
    "link_img": "https://live.staticflickr.com/65535/49711217787_2d760a4b18_o.jpg",
    "id_image": "Animal_157959",
    "count_view": 0
  },
  {
    "link_thumb": "https://live.staticflickr.com/65535/49711373506_21842a4572_n.jpg",
    "id_album": "850176884",
    "description": "Dragon_150209",
    "title": "Dragon_150209",
    "link_img": "https://live.staticflickr.com/65535/49711373506_2f89976d18_o.jpg",
    "id_image": "Dragon_150209",
    "count_view": 0
  },
  {
    "link_thumb": "https://live.staticflickr.com/65535/49711789092_88a8a9e700_n.jpg",
    "id_album": "850176884",
    "description": "Dragon_515253",
    "title": "Dragon_515253",
    "link_img": "https://live.staticflickr.com/65535/49711789092_c85194d557_o.jpg",
    "id_image": "Dragon_515253",
    "count_view": 0
  },
  {
    "link_thumb": "https://live.staticflickr.com/65535/49711307976_b5593dd789_n.jpg",
    "id_album": "-437872736",
    "description": "Creature_958994",
    "title": "Creature_958994",
    "link_img": "https://live.staticflickr.com/65535/49711307976_5ce8ffaa8c_o.jpg",
    "id_image": "Creature_958994",
    "count_view": 0
  },
  {
    "link_thumb": "https://live.staticflickr.com/65535/49710866861_2f784eac80_n.jpg",
    "id_album": "-2109465612",
    "description": "Adventure_290390",
    "title": "Adventure_290390",
    "link_img": "https://live.staticflickr.com/65535/49710866861_9273c28784_o.jpg",
    "id_image": "Adventure_290390",
    "count_view": 0
  },
  {
    "link_thumb": "https://live.staticflickr.com/65535/49710654563_f1dcb6965e_n.jpg",
    "id_album": "-437872736",
    "description": "Creature_314450",
    "title": "Creature_314450",
    "link_img": "https://live.staticflickr.com/65535/49710654563_80eda6e8d7_o.jpg",
    "id_image": "Creature_314450",
    "count_view": 0
  },
  {
    "link_thumb": "https://live.staticflickr.com/65535/49711252903_0498d90720_n.jpg",
    "id_album": "469960528",
    "description": "Knight_869166",
    "title": "Knight_869166",
    "link_img": "https://live.staticflickr.com/65535/49711252903_3f4dcb2428_o.jpg",
    "id_image": "Knight_869166",
    "count_view": 0
  },
  {
    "link_thumb": "https://live.staticflickr.com/65535/49711746082_3862dedc04_n.jpg",
    "id_album": "850176884",
    "description": "Dragon_329350",
    "title": "Dragon_329350",
    "link_img": "https://live.staticflickr.com/65535/49711746082_dbc3d0fe1d_o.jpg",
    "id_image": "Dragon_329350",
    "count_view": 0
  },
  {
    "link_thumb": "https://live.staticflickr.com/65535/49711485217_692e7872fc_n.jpg",
    "id_album": "-437872736",
    "description": "Creature_221464",
    "title": "Creature_221464",
    "link_img": "https://live.staticflickr.com/65535/49711485217_41b7e22928_o.jpg",
    "id_image": "Creature_221464",
    "count_view": 0
  },
  {
    "link_thumb": "https://live.staticflickr.com/65535/49711799606_35faa049fc_n.jpg",
    "id_album": "1402713104",
    "description": "Landscape_677172",
    "title": "Landscape_677172",
    "link_img": "https://live.staticflickr.com/65535/49711799606_39e6b2a3aa_o.jpg",
    "id_image": "Landscape_677172",
    "count_view": 0
  },
  {
    "link_thumb": "https://live.staticflickr.com/65535/49712027617_5c87cf1d5e_n.jpg",
    "id_album": "-1083189875",
    "description": "Forest_681175",
    "title": "Forest_681175",
    "link_img": "https://live.staticflickr.com/65535/49712027617_c5536f24d7_o.jpg",
    "id_image": "Forest_681175",
    "count_view": 0
  },
  {
    "link_thumb": "https://live.staticflickr.com/65535/49711819101_4a113a421d_n.jpg",
    "id_album": "1402713104",
    "description": "Landscape_779582",
    "title": "Landscape_779582",
    "link_img": "https://live.staticflickr.com/65535/49711819101_fa349c151b_o.jpg",
    "id_image": "Landscape_779582",
    "count_view": 0
  },
  {
    "link_thumb": "https://live.staticflickr.com/65535/49711562961_d6619d9f93_n.jpg",
    "id_album": "850176884",
    "description": "Dragon_912998",
    "title": "Dragon_912998",
    "link_img": "https://live.staticflickr.com/65535/49711562961_0538a68b7d_o.jpg",
    "id_image": "Dragon_912998",
    "count_view": 0
  },
  {
    "link_thumb": "https://live.staticflickr.com/65535/49711111143_146260f602_n.jpg",
    "id_album": "-1972042284",
    "description": "Fairy_143309",
    "title": "Fairy_143309",
    "link_img": "https://live.staticflickr.com/65535/49711111143_a9466f325c_o.jpg",
    "id_image": "Fairy_143309",
    "count_view": 0
  },
  {
    "link_thumb": "https://live.staticflickr.com/65535/49711330512_be4a459e00_n.jpg",
    "id_album": "1187037014",
    "description": "Battle_683007",
    "title": "Battle_683007",
    "link_img": "https://live.staticflickr.com/65535/49711330512_ea4d4bf02c_o.jpg",
    "id_image": "Battle_683007",
    "count_view": 0
  },
  {
    "link_thumb": "https://live.staticflickr.com/65535/49711801091_d849edc012_n.jpg",
    "id_album": "1402713104",
    "description": "Landscape_679263",
    "title": "Landscape_679263",
    "link_img": "https://live.staticflickr.com/65535/49711801091_0e315b4136_o.jpg",
    "id_image": "Landscape_679263",
    "count_view": 0
  },
  {
    "link_thumb": "https://live.staticflickr.com/65535/49710988103_d60a98e8cb_n.jpg",
    "id_album": "850176884",
    "description": "Dragon_779580",
    "title": "Dragon_779580",
    "link_img": "https://live.staticflickr.com/65535/49710988103_3f5ac1409c_o.jpg",
    "id_image": "Dragon_779580",
    "count_view": 0
  },
  {
    "link_thumb": "https://live.staticflickr.com/65535/49711184641_fd1eca1d18_n.jpg",
    "id_album": "-437872736",
    "description": "Creature_307028",
    "title": "Creature_307028",
    "link_img": "https://live.staticflickr.com/65535/49711184641_c54b4feb8c_o.jpg",
    "id_image": "Creature_307028",
    "count_view": 0
  },
  {
    "link_thumb": "https://live.staticflickr.com/65535/49710610493_06d956c1eb_n.jpg",
    "id_album": "-437872736",
    "description": "Creature_154748",
    "title": "Creature_154748",
    "link_img": "https://live.staticflickr.com/65535/49710610493_3cb374408b_o.jpg",
    "id_image": "Creature_154748",
    "count_view": 0
  },
  {
    "link_thumb": "https://live.staticflickr.com/65535/49710614963_f26484727b_n.jpg",
    "id_album": "-437872736",
    "description": "Creature_167900",
    "title": "Creature_167900",
    "link_img": "https://live.staticflickr.com/65535/49710614963_cb6a977767_o.jpg",
    "id_image": "Creature_167900",
    "count_view": 0
  },
  {
    "link_thumb": "https://live.staticflickr.com/65535/49711704713_934f02bb2a_n.jpg",
    "id_album": "-1261420436",
    "description": "Warrior_977515",
    "title": "Warrior_977515",
    "link_img": "https://live.staticflickr.com/65535/49711704713_14bf32df10_o.jpg",
    "id_image": "Warrior_977515",
    "count_view": 0
  },
  {
    "link_thumb": "https://live.staticflickr.com/65535/49711412742_059663f55c_n.jpg",
    "id_album": "-1964113117",
    "description": "City_147379",
    "title": "City_147379",
    "link_img": "https://live.staticflickr.com/65535/49711412742_500eddd886_o.jpg",
    "id_image": "City_147379",
    "count_view": 0
  },
  {
    "link_thumb": "https://live.staticflickr.com/65535/49711567077_efe4e3742c_n.jpg",
    "id_album": "-437872736",
    "description": "Creature_518017",
    "title": "Creature_518017",
    "link_img": "https://live.staticflickr.com/65535/49711567077_6b8a08f815_o.jpg",
    "id_image": "Creature_518017",
    "count_view": 0
  },
  {
    "link_thumb": "https://live.staticflickr.com/65535/49711427978_bc3fbefe45_n.jpg",
    "id_album": "-833110404",
    "description": "Landscape_526764",
    "title": "Landscape_526764",
    "link_img": "https://live.staticflickr.com/65535/49711427978_9ab3f6ed25_o.jpg",
    "id_image": "Landscape_526764",
    "count_view": 0
  },
  {
    "link_thumb": "https://live.staticflickr.com/65535/49712618327_3067c30e74_n.jpg",
    "id_album": "-709711865",
    "description": "Wolf_886626",
    "title": "Wolf_886626",
    "link_img": "https://live.staticflickr.com/65535/49712618327_886bb75ae1_o.jpg",
    "id_image": "Wolf_886626",
    "count_view": 0
  },
  {
    "link_thumb": "https://live.staticflickr.com/65535/49711936533_e9c74e3418_n.jpg",
    "id_album": "1861288871",
    "description": "Women_789298",
    "title": "Women_789298",
    "link_img": "https://live.staticflickr.com/65535/49711936533_f82ef1f314_o.jpg",
    "id_image": "Women_789298",
    "count_view": 0
  },
  {
    "link_thumb": "https://live.staticflickr.com/65535/49711309898_832bee51d3_n.jpg",
    "id_album": "1402713104",
    "description": "Landscape_869747",
    "title": "Landscape_869747",
    "link_img": "https://live.staticflickr.com/65535/49711309898_00a13b1f51_o.jpg",
    "id_image": "Landscape_869747",
    "count_view": 0
  },
  {
    "link_thumb": "https://live.staticflickr.com/65535/49711689326_a610f39e49_n.jpg",
    "id_album": "-1083189875",
    "description": "Forest_149996",
    "title": "Forest_149996",
    "link_img": "https://live.staticflickr.com/65535/49711689326_5d6222b7b1_o.jpg",
    "id_image": "Forest_149996",
    "count_view": 0
  },
  {
    "link_thumb": "https://live.staticflickr.com/65535/49711250746_f4dd64c88e_n.jpg",
    "id_album": "-437872736",
    "description": "Creature_575930",
    "title": "Creature_575930",
    "link_img": "https://live.staticflickr.com/65535/49711250746_5491dc3f05_o.jpg",
    "id_image": "Creature_575930",
    "count_view": 0
  },
  {
    "link_thumb": "https://live.staticflickr.com/65535/49711441256_bf9e8154bf_n.jpg",
    "id_album": "850176884",
    "description": "Dragon_402984",
    "title": "Dragon_402984",
    "link_img": "https://live.staticflickr.com/65535/49711441256_e6e465f812_o.jpg",
    "id_image": "Dragon_402984",
    "count_view": 0
  },
  {
    "link_thumb": "https://live.staticflickr.com/65535/49712180646_09d39a4546_n.jpg",
    "id_album": "431597977",
    "description": "Unicorn_503801",
    "title": "Unicorn_503801",
    "link_img": "https://live.staticflickr.com/65535/49712180646_f2c62bee99_o.jpg",
    "id_image": "Unicorn_503801",
    "count_view": 0
  },
  {
    "link_thumb": "https://live.staticflickr.com/65535/49711661386_254d84bb89_n.jpg",
    "id_album": "-1972042284",
    "description": "Fairy_357633",
    "title": "Fairy_357633",
    "link_img": "https://live.staticflickr.com/65535/49711661386_214157335a_o.jpg",
    "id_image": "Fairy_357633",
    "count_view": 0
  },
  {
    "link_thumb": "https://live.staticflickr.com/65535/49710710083_0b86a23e73_n.jpg",
    "id_album": "-437872736",
    "description": "Creature_550620",
    "title": "Creature_550620",
    "link_img": "https://live.staticflickr.com/65535/49710710083_66be378988_o.jpg",
    "id_image": "Creature_550620",
    "count_view": 0
  },
  {
    "link_thumb": "https://live.staticflickr.com/65535/49711396256_20e5e7216c_n.jpg",
    "id_album": "850176884",
    "description": "Dragon_242558",
    "title": "Dragon_242558",
    "link_img": "https://live.staticflickr.com/65535/49711396256_93e6fff045_o.jpg",
    "id_image": "Dragon_242558",
    "count_view": 0
  },
  {
    "link_thumb": "https://live.staticflickr.com/65535/49711579957_5841afe1d3_n.jpg",
    "id_album": "-437872736",
    "description": "Creature_639486",
    "title": "Creature_639486",
    "link_img": "https://live.staticflickr.com/65535/49711579957_0e48741924_o.jpg",
    "id_image": "Creature_639486",
    "count_view": 0
  },
  {
    "link_thumb": "https://live.staticflickr.com/65535/49712793442_48bfe652d6_n.jpg",
    "id_album": "1861288871",
    "description": "Women_787881",
    "title": "Women_787881",
    "link_img": "https://live.staticflickr.com/65535/49712793442_db20ab9d81_o.jpg",
    "id_image": "Women_787881",
    "count_view": 0
  },
  {
    "link_thumb": "https://live.staticflickr.com/65535/49711348137_2ba2163d02_n.jpg",
    "id_album": "406431601",
    "description": "Building_396046",
    "title": "Building_396046",
    "link_img": "https://live.staticflickr.com/65535/49711348137_71866d1410_o.jpg",
    "id_image": "Building_396046",
    "count_view": 0
  },
  {
    "link_thumb": "https://live.staticflickr.com/65535/49710471118_1af9beede1_n.jpg",
    "id_album": "1187037014",
    "description": "Battle_605440",
    "title": "Battle_605440",
    "link_img": "https://live.staticflickr.com/65535/49710471118_bb24053c2b_o.jpg",
    "id_image": "Battle_605440",
    "count_view": 0
  },
  {
    "link_thumb": "https://live.staticflickr.com/65535/49711760096_21273c0e28_n.jpg",
    "id_album": "-1933715543",
    "description": "Horse_669198",
    "title": "Horse_669198",
    "link_img": "https://live.staticflickr.com/65535/49711760096_2212d0d939_o.jpg",
    "id_image": "Horse_669198",
    "count_view": 0
  },
  {
    "link_thumb": "https://live.staticflickr.com/65535/49711513102_1412fd96f5_n.jpg",
    "id_album": "-437872736",
    "description": "Creature_310906",
    "title": "Creature_310906",
    "link_img": "https://live.staticflickr.com/65535/49711513102_8ec958ec5e_o.jpg",
    "id_image": "Creature_310906",
    "count_view": 0
  },
  {
    "link_thumb": "https://live.staticflickr.com/65535/49713031277_de655fa619_n.jpg",
    "id_album": "-1207759647",
    "description": "Zodiac_67869",
    "title": "Zodiac_67869",
    "link_img": "https://live.staticflickr.com/65535/49713031277_6dbd111e5a_o.jpg",
    "id_image": "Zodiac_67869",
    "count_view": 0
  },
  {
    "link_thumb": "https://live.staticflickr.com/65535/49711823411_58d03ba810_n.jpg",
    "id_album": "1402713104",
    "description": "Landscape_842650",
    "title": "Landscape_842650",
    "link_img": "https://live.staticflickr.com/65535/49711823411_e8be05a124_o.jpg",
    "id_image": "Landscape_842650",
    "count_view": 0
  },
  {
    "link_thumb": "https://live.staticflickr.com/65535/49712712122_b3ab579c59_n.jpg",
    "id_album": "295204930",
    "description": "Women_392980",
    "title": "Women_392980",
    "link_img": "https://live.staticflickr.com/65535/49712712122_2a821fbd6d_o.jpg",
    "id_image": "Women_392980",
    "count_view": 0
  },
  {
    "link_thumb": "https://live.staticflickr.com/65535/49711300208_432e0578a3_n.jpg",
    "id_album": "1402713104",
    "description": "Landscape_864270",
    "title": "Landscape_864270",
    "link_img": "https://live.staticflickr.com/65535/49711300208_339807bace_o.jpg",
    "id_image": "Landscape_864270",
    "count_view": 0
  },
  {
    "link_thumb": "https://live.staticflickr.com/65535/49710634588_dcf383b13b_n.jpg",
    "id_album": "-437872736",
    "description": "Creature_267123",
    "title": "Creature_267123",
    "link_img": "https://live.staticflickr.com/65535/49710634588_33399992c8_o.jpg",
    "id_image": "Creature_267123",
    "count_view": 0
  },
  {
    "link_thumb": "https://live.staticflickr.com/65535/49711253141_8ca5501e85_n.jpg",
    "id_album": "-437872736",
    "description": "Creature_602173",
    "title": "Creature_602173",
    "link_img": "https://live.staticflickr.com/65535/49711253141_7aa451f945_o.jpg",
    "id_image": "Creature_602173",
    "count_view": 0
  },
  {
    "link_thumb": "https://live.staticflickr.com/65535/49710427083_f78d0bd782_n.jpg",
    "id_album": "523598895",
    "description": "Artistic_318741",
    "title": "Artistic_318741",
    "link_img": "https://live.staticflickr.com/65535/49710427083_24e4c339af_o.jpg",
    "id_image": "Artistic_318741",
    "count_view": 0
  },
  {
    "link_thumb": "https://live.staticflickr.com/65535/49711590433_b0341347af_n.jpg",
    "id_album": "407101116",
    "description": "SeaMonster_915894",
    "title": "SeaMonster_915894",
    "link_img": "https://live.staticflickr.com/65535/49711590433_a883f8573e_o.jpg",
    "id_image": "SeaMonster_915894",
    "count_view": 0
  },
  {
    "link_thumb": "https://live.staticflickr.com/65535/49727412036_ffb34f4cf4_n.jpg",
    "id_album": "850176884",
    "description": "Dragon_732268",
    "title": "Dragon_732268",
    "link_img": "https://live.staticflickr.com/65535/49727412036_ae95b6a168_o.jpg",
    "id_image": "Dragon_732268",
    "count_view": 0
  },
  {
    "link_thumb": "https://live.staticflickr.com/65535/49711694272_d74295fda0_n.jpg",
    "id_album": "850176884",
    "description": "Dragon_145599",
    "title": "Dragon_145599",
    "link_img": "https://live.staticflickr.com/65535/49711694272_3a31e9577b_o.jpg",
    "id_image": "Dragon_145599",
    "count_view": 0
  },
  {
    "link_thumb": "https://live.staticflickr.com/65535/49710984471_59a0982742_n.jpg",
    "id_album": "1187037014",
    "description": "Battle_179047",
    "title": "Battle_179047",
    "link_img": "https://live.staticflickr.com/65535/49710984471_b16bdcf58f_o.jpg",
    "id_image": "Battle_179047",
    "count_view": 0
  },
  {
    "link_thumb": "https://live.staticflickr.com/65535/49712321196_7538b236d0_n.jpg",
    "id_album": "-1126835654",
    "description": "Women_878211",
    "title": "Women_878211",
    "link_img": "https://live.staticflickr.com/65535/49712321196_5636c93e8b_o.jpg",
    "id_image": "Women_878211",
    "count_view": 0
  },
  {
    "link_thumb": "https://live.staticflickr.com/65535/49711269212_b8143a2b89_n.jpg",
    "id_album": "523598895",
    "description": "Artistic_153413",
    "title": "Artistic_153413",
    "link_img": "https://live.staticflickr.com/65535/49711269212_88f5f2861f_o.jpg",
    "id_image": "Artistic_153413",
    "count_view": 0
  },
  {
    "link_thumb": "https://live.staticflickr.com/65535/49712239356_395b588a1f_n.jpg",
    "id_album": "-1261420436",
    "description": "Warrior_958545",
    "title": "Warrior_958545",
    "link_img": "https://live.staticflickr.com/65535/49712239356_363ff026e1_o.jpg",
    "id_image": "Warrior_958545",
    "count_view": 0
  },
  {
    "link_thumb": "https://live.staticflickr.com/65535/49712656927_b88c82dccf_n.jpg",
    "id_album": "-1126835654",
    "description": "Women_904406",
    "title": "Women_904406",
    "link_img": "https://live.staticflickr.com/65535/49712656927_281472cfa5_o.jpg",
    "id_image": "Women_904406",
    "count_view": 0
  },
  {
    "link_thumb": "https://live.staticflickr.com/65535/49912646707_c2d1911bba_n.jpg",
    "id_album": "-1703946758",
    "description": "ANIME_PIC_ec05b78c9d121de16f6a36599e7cb674",
    "title": "ANIME_PIC_ec05b78c9d121de16f6a36599e7cb674",
    "link_img": "https://live.staticflickr.com/65535/49912646707_81fe96c092_o.jpg",
    "id_image": "ANIME_PIC_ec05b78c9d121de16f6a36599e7cb674",
    "count_view": 0
  },
  {
    "link_thumb": "https://live.staticflickr.com/65535/49710389448_89c44f20a1_n.jpg",
    "id_album": "-1913845949",
    "description": "Animal_936235",
    "title": "Animal_936235",
    "link_img": "https://live.staticflickr.com/65535/49710389448_bef5e8a8e7_o.jpg",
    "id_image": "Animal_936235",
    "count_view": 0
  },
  {
    "link_thumb": "https://live.staticflickr.com/65535/49710517733_d16909e266_n.jpg",
    "id_album": "-1541846310",
    "description": "Castle_701077",
    "title": "Castle_701077",
    "link_img": "https://live.staticflickr.com/65535/49710517733_68c8cebe99_o.jpg",
    "id_image": "Castle_701077",
    "count_view": 0
  },
  {
    "link_thumb": "https://live.staticflickr.com/65535/49711220756_b3bb3aa045_n.jpg",
    "id_album": "-437872736",
    "description": "Creature_379187",
    "title": "Creature_379187",
    "link_img": "https://live.staticflickr.com/65535/49711220756_dbd5a9ed19_o.jpg",
    "id_image": "Creature_379187",
    "count_view": 0
  },
  {
    "link_thumb": "https://live.staticflickr.com/65535/49711400153_e8397c92fa_n.jpg",
    "id_album": "-833110404",
    "description": "Landscape_400685",
    "title": "Landscape_400685",
    "link_img": "https://live.staticflickr.com/65535/49711400153_6925e6d82b_o.jpg",
    "id_image": "Landscape_400685",
    "count_view": 0
  },
  {
    "link_thumb": "https://live.staticflickr.com/65535/49711766666_767f5a86b6_n.jpg",
    "id_album": "1957967226",
    "description": "House_526711",
    "title": "House_526711",
    "link_img": "https://live.staticflickr.com/65535/49711766666_d92baa3335_o.jpg",
    "id_image": "House_526711",
    "count_view": 0
  },
  {
    "link_thumb": "https://live.staticflickr.com/65535/49798812721_8552bce550_n.jpg",
    "id_album": "-1703946758",
    "description": "ANIME_PIC_2ef1ed350151685c6fbadd8cf2579d0e",
    "title": "ANIME_PIC_2ef1ed350151685c6fbadd8cf2579d0e",
    "link_img": "https://live.staticflickr.com/65535/49798812721_b5414b77df_o.jpg",
    "id_image": "ANIME_PIC_2ef1ed350151685c6fbadd8cf2579d0e",
    "count_view": 0
  },
  {
    "link_thumb": "https://live.staticflickr.com/65535/49711703187_c23e0db5db_n.jpg",
    "id_album": "850176884",
    "description": "Dragon_188303",
    "title": "Dragon_188303",
    "link_img": "https://live.staticflickr.com/65535/49711703187_a78c584578_o.jpg",
    "id_image": "Dragon_188303",
    "count_view": 0
  },
  {
    "link_thumb": "https://live.staticflickr.com/65535/49712155371_c2f8b1ac72_n.jpg",
    "id_album": "1186644325",
    "description": "Tattoo_404315",
    "title": "Tattoo_404315",
    "link_img": "https://live.staticflickr.com/65535/49712155371_455b82fe1d_o.jpg",
    "id_image": "Tattoo_404315",
    "count_view": 0
  },
  {
    "link_thumb": "https://live.staticflickr.com/65535/49710918983_aa84365ea7_n.jpg",
    "id_album": "850176884",
    "description": "Dragon_465867",
    "title": "Dragon_465867",
    "link_img": "https://live.staticflickr.com/65535/49710918983_3b0416b2b1_o.jpg",
    "id_image": "Dragon_465867",
    "count_view": 0
  },
  {
    "link_thumb": "https://live.staticflickr.com/65535/49712481332_07a9e33fce_n.jpg",
    "id_album": "405170427",
    "description": "Tiger_590681",
    "title": "Tiger_590681",
    "link_img": "https://live.staticflickr.com/65535/49712481332_147565fb6b_o.jpg",
    "id_image": "Tiger_590681",
    "count_view": 0
  },
  {
    "link_thumb": "https://live.staticflickr.com/65535/49711125916_b26a6dcda3_n.jpg",
    "id_album": "-1964113117",
    "description": "City_877865",
    "title": "City_877865",
    "link_img": "https://live.staticflickr.com/65535/49711125916_377bb580d4_o.jpg",
    "id_image": "City_877865",
    "count_view": 0
  },
  {
    "link_thumb": "https://live.staticflickr.com/65535/49711359713_af7542cecc_n.jpg",
    "id_album": "-833110404",
    "description": "Landscape_238819",
    "title": "Landscape_238819",
    "link_img": "https://live.staticflickr.com/65535/49711359713_af3e7f8116_o.jpg",
    "id_image": "Landscape_238819",
    "count_view": 0
  },
  {
    "link_thumb": "https://live.staticflickr.com/65535/49710445048_3eb62b4a3a_n.jpg",
    "id_album": "523598895",
    "description": "Artistic_708265",
    "title": "Artistic_708265",
    "link_img": "https://live.staticflickr.com/65535/49710445048_dfb8370a80_o.jpg",
    "id_image": "Artistic_708265",
    "count_view": 0
  },
  {
    "link_thumb": "https://live.staticflickr.com/65535/49711050276_088be79f06_n.jpg",
    "id_album": "-1541846310",
    "description": "Castle_618323",
    "title": "Castle_618323",
    "link_img": "https://live.staticflickr.com/65535/49711050276_d29bbe9872_o.jpg",
    "id_image": "Castle_618323",
    "count_view": 0
  },
  {
    "link_thumb": "https://live.staticflickr.com/65535/49711572001_d7f08fa5ef_n.jpg",
    "id_album": "850176884",
    "description": "Dragon_937793",
    "title": "Dragon_937793",
    "link_img": "https://live.staticflickr.com/65535/49711572001_42f1770d08_o.jpg",
    "id_image": "Dragon_937793",
    "count_view": 0
  },
  {
    "link_thumb": "https://live.staticflickr.com/65535/49710842513_8963a80d38_n.jpg",
    "id_album": "850176884",
    "description": "Dragon_188235",
    "title": "Dragon_188235",
    "link_img": "https://live.staticflickr.com/65535/49710842513_256f750d74_o.jpg",
    "id_image": "Dragon_188235",
    "count_view": 0
  },
  {
    "link_thumb": "https://live.staticflickr.com/65535/49711570083_d5111ca9b3_n.jpg",
    "id_album": "-1611961467",
    "description": "Samurai_388393",
    "title": "Samurai_388393",
    "link_img": "https://live.staticflickr.com/65535/49711570083_0df11e01fb_o.jpg",
    "id_image": "Samurai_388393",
    "count_view": 0
  },
  {
    "link_thumb": "https://live.staticflickr.com/65535/49711606468_8364deb073_n.jpg",
    "id_album": "-5356651",
    "description": "Sorcerer_146819",
    "title": "Sorcerer_146819",
    "link_img": "https://live.staticflickr.com/65535/49711606468_0e08f04a68_o.jpg",
    "id_image": "Sorcerer_146819",
    "count_view": 0
  },
  {
    "link_thumb": "https://live.staticflickr.com/65535/49710370723_1d7bdce146_n.jpg",
    "id_album": "-1913845949",
    "description": "Animal_618322",
    "title": "Animal_618322",
    "link_img": "https://live.staticflickr.com/65535/49710370723_cee777f78b_o.jpg",
    "id_image": "Animal_618322",
    "count_view": 0
  },
  {
    "link_thumb": "https://live.staticflickr.com/65535/49712528401_169a63dbef_n.jpg",
    "id_album": "-867594484",
    "description": "Women_675203",
    "title": "Women_675203",
    "link_img": "https://live.staticflickr.com/65535/49712528401_a1fb4af317_o.jpg",
    "id_image": "Women_675203",
    "count_view": 0
  },
  {
    "link_thumb": "https://live.staticflickr.com/65535/49711003866_24dc34bffa_n.jpg",
    "id_album": "1187037014",
    "description": "Battle_592387",
    "title": "Battle_592387",
    "link_img": "https://live.staticflickr.com/65535/49711003866_2b3a050998_o.jpg",
    "id_image": "Battle_592387",
    "count_view": 0
  },
  {
    "link_thumb": "https://live.staticflickr.com/65535/49711340878_26deb6d601_n.jpg",
    "id_album": "1402713104",
    "description": "Landscape_960717",
    "title": "Landscape_960717",
    "link_img": "https://live.staticflickr.com/65535/49711340878_6e5d857c2b_o.jpg",
    "id_image": "Landscape_960717",
    "count_view": 0
  },
  {
    "link_thumb": "https://live.staticflickr.com/65535/49711410426_f8b2136c6b_n.jpg",
    "id_album": "850176884",
    "description": "Dragon_284769",
    "title": "Dragon_284769",
    "link_img": "https://live.staticflickr.com/65535/49711410426_383e9e8ce6_o.jpg",
    "id_image": "Dragon_284769",
    "count_view": 0
  },
  {
    "link_thumb": "https://live.staticflickr.com/65535/49711486882_2ebe84e9f1_n.jpg",
    "id_album": "-437872736",
    "description": "Creature_225249",
    "title": "Creature_225249",
    "link_img": "https://live.staticflickr.com/65535/49711486882_1b326c5459_o.jpg",
    "id_image": "Creature_225249",
    "count_view": 0
  },
  {
    "link_thumb": "https://live.staticflickr.com/65535/49710547238_a5c7cbb832_n.jpg",
    "id_album": "430704260",
    "description": "Child_830188",
    "title": "Child_830188",
    "link_img": "https://live.staticflickr.com/65535/49710547238_810442ddab_o.jpg",
    "id_image": "Child_830188",
    "count_view": 0
  },
  {
    "link_thumb": "https://live.staticflickr.com/65535/49711793926_b54d675870_n.jpg",
    "id_album": "1402713104",
    "description": "Landscape_640463",
    "title": "Landscape_640463",
    "link_img": "https://live.staticflickr.com/65535/49711793926_c7fa294224_o.jpg",
    "id_image": "Landscape_640463",
    "count_view": 0
  },
  {
    "link_thumb": "https://live.staticflickr.com/65535/49711207807_876705247e_n.jpg",
    "id_album": "-1000175186",
    "description": "AngelWarrior_582417",
    "title": "AngelWarrior_582417",
    "link_img": "https://live.staticflickr.com/65535/49711207807_6d3fee496d_o.jpg",
    "id_image": "AngelWarrior_582417",
    "count_view": 0
  },
  {
    "link_thumb": "https://live.staticflickr.com/65535/49711639176_653504c48d_n.jpg",
    "id_album": "134100487",
    "description": "Elf_895564",
    "title": "Elf_895564",
    "link_img": "https://live.staticflickr.com/65535/49711639176_29a17cfda0_o.jpg",
    "id_image": "Elf_895564",
    "count_view": 0
  },
  {
    "link_thumb": "https://live.staticflickr.com/65535/49711507782_7d3a415c0e_n.jpg",
    "id_album": "-437872736",
    "description": "Creature_302836",
    "title": "Creature_302836",
    "link_img": "https://live.staticflickr.com/65535/49711507782_53c80eab5e_o.jpg",
    "id_image": "Creature_302836",
    "count_view": 0
  },
  {
    "link_thumb": "https://live.staticflickr.com/65535/49712058041_e17f65ff71_n.jpg",
    "id_album": "-1862561193",
    "description": "Other_294217",
    "title": "Other_294217",
    "link_img": "https://live.staticflickr.com/65535/49712058041_74d8723d2e_o.jpg",
    "id_image": "Other_294217",
    "count_view": 0
  },
  {
    "link_thumb": "https://live.staticflickr.com/65535/49712317962_7ffa375c4d_n.jpg",
    "id_album": "-1859457952",
    "description": "Love_355809",
    "title": "Love_355809",
    "link_img": "https://live.staticflickr.com/65535/49712317962_75ac0cf485_o.jpg",
    "id_image": "Love_355809",
    "count_view": 0
  },
  {
    "link_thumb": "https://live.staticflickr.com/65535/49710826498_ce15da5274_n.jpg",
    "id_album": "850176884",
    "description": "Dragon_122312",
    "title": "Dragon_122312",
    "link_img": "https://live.staticflickr.com/65535/49710826498_84c1c1926d_o.jpg",
    "id_image": "Dragon_122312",
    "count_view": 0
  },
  {
    "link_thumb": "https://live.staticflickr.com/65535/49710996121_db180ab44c_n.jpg",
    "id_album": "1187037014",
    "description": "Battle_378320",
    "title": "Battle_378320",
    "link_img": "https://live.staticflickr.com/65535/49710996121_48c7ecc674_o.jpg",
    "id_image": "Battle_378320",
    "count_view": 0
  },
  {
    "link_thumb": "https://live.staticflickr.com/65535/49712226842_4bce02d327_n.jpg",
    "id_album": "-833110404",
    "description": "Landscape_269793",
    "title": "Landscape_269793",
    "link_img": "https://live.staticflickr.com/65535/49712226842_ff1422ea7d_o.jpg",
    "id_image": "Landscape_269793",
    "count_view": 0
  },
  {
    "link_thumb": "https://live.staticflickr.com/65535/49710869876_0433be5af2_n.jpg",
    "id_album": "-956471126",
    "description": "AliceInWonderland_110441",
    "title": "AliceInWonderland_110441",
    "link_img": "https://live.staticflickr.com/65535/49710869876_520561c774_o.jpg",
    "id_image": "AliceInWonderland_110441",
    "count_view": 0
  },
  {
    "link_thumb": "https://live.staticflickr.com/65535/49711151946_e9a3f6412a_n.jpg",
    "id_album": "-437872736",
    "description": "Creature_177828",
    "title": "Creature_177828",
    "link_img": "https://live.staticflickr.com/65535/49711151946_64d1438090_o.jpg",
    "id_image": "Creature_177828",
    "count_view": 0
  },
  {
    "link_thumb": "https://live.staticflickr.com/65535/49711769536_8397f71495_n.jpg",
    "id_album": "1957967226",
    "description": "House_702844",
    "title": "House_702844",
    "link_img": "https://live.staticflickr.com/65535/49711769536_22e2dfe3cb_o.jpg",
    "id_image": "House_702844",
    "count_view": 0
  },
  {
    "link_thumb": "https://live.staticflickr.com/65535/49710974281_a3511a5887_n.jpg",
    "id_album": "523598895",
    "description": "Artistic_589821",
    "title": "Artistic_589821",
    "link_img": "https://live.staticflickr.com/65535/49710974281_15732378ba_o.jpg",
    "id_image": "Artistic_589821",
    "count_view": 0
  },
  {
    "link_thumb": "https://live.staticflickr.com/65535/49711866786_96aab5c043_n.jpg",
    "id_album": "1402713104",
    "description": "Landscape_947443",
    "title": "Landscape_947443",
    "link_img": "https://live.staticflickr.com/65535/49711866786_4447b6664c_o.jpg",
    "id_image": "Landscape_947443",
    "count_view": 0
  },
  {
    "link_thumb": "https://live.staticflickr.com/65535/49712918877_3ae8ed635f_n.jpg",
    "id_album": "-1675918237",
    "description": "WomenWarrior_414308",
    "title": "WomenWarrior_414308",
    "link_img": "https://live.staticflickr.com/65535/49712918877_010312b4a6_o.jpg",
    "id_image": "WomenWarrior_414308",
    "count_view": 0
  },
  {
    "link_thumb": "https://live.staticflickr.com/65535/49798291773_921c7367a2_n.jpg",
    "id_album": "-1703946758",
    "description": "ANIME_PIC_e273ee3336eedebdafde18fb5b400f29",
    "title": "ANIME_PIC_e273ee3336eedebdafde18fb5b400f29",
    "link_img": "https://live.staticflickr.com/65535/49798291773_f30bd0bd5b_o.jpg",
    "id_image": "ANIME_PIC_e273ee3336eedebdafde18fb5b400f29",
    "count_view": 0
  },
  {
    "link_thumb": "https://live.staticflickr.com/65535/49711619848_24b847dbd0_n.jpg",
    "id_album": "1186644325",
    "description": "Tattoo_568377",
    "title": "Tattoo_568377",
    "link_img": "https://live.staticflickr.com/65535/49711619848_b036ec2c58_o.jpg",
    "id_image": "Tattoo_568377",
    "count_view": 0
  },
  {
    "link_thumb": "https://live.staticflickr.com/65535/49711439823_eb4b9b82c5_n.jpg",
    "id_album": "-1284959130",
    "description": "LegendOfTheFiveRings_167523",
    "title": "LegendOfTheFiveRings_167523",
    "link_img": "https://live.staticflickr.com/65535/49711439823_afbf1df050_o.jpg",
    "id_image": "LegendOfTheFiveRings_167523",
    "count_view": 0
  },
  {
    "link_thumb": "https://live.staticflickr.com/65535/49710398463_c01127f317_n.jpg",
    "id_album": "-1560111795",
    "description": "Archer_486529",
    "title": "Archer_486529",
    "link_img": "https://live.staticflickr.com/65535/49710398463_96180ab254_o.jpg",
    "id_image": "Archer_486529",
    "count_view": 0
  },
  {
    "link_thumb": "https://live.staticflickr.com/65535/49710604758_4d9d1fbd1c_n.jpg",
    "id_album": "-437872736",
    "description": "Creature_117471",
    "title": "Creature_117471",
    "link_img": "https://live.staticflickr.com/65535/49710604758_6f003c328c_o.jpg",
    "id_image": "Creature_117471",
    "count_view": 0
  },
  {
    "link_thumb": "https://live.staticflickr.com/65535/49712768392_4b5c08099b_n.jpg",
    "id_album": "1861288871",
    "description": "Women_488905",
    "title": "Women_488905",
    "link_img": "https://live.staticflickr.com/65535/49712768392_453cfa6e37_o.jpg",
    "id_image": "Women_488905",
    "count_view": 0
  },
  {
    "link_thumb": "https://live.staticflickr.com/65535/49710601133_53b970234e_n.jpg",
    "id_album": "-1964113117",
    "description": "City_982831",
    "title": "City_982831",
    "link_img": "https://live.staticflickr.com/65535/49710601133_566f693fc3_o.jpg",
    "id_image": "City_982831",
    "count_view": 0
  },
  {
    "link_thumb": "https://live.staticflickr.com/65535/49712034502_fd03497eb4_n.jpg",
    "id_album": "-1083189875",
    "description": "Forest_772066",
    "title": "Forest_772066",
    "link_img": "https://live.staticflickr.com/65535/49712034502_177bd78b95_o.jpg",
    "id_image": "Forest_772066",
    "count_view": 0
  },
  {
    "link_thumb": "https://live.staticflickr.com/65535/49711513776_a0fb370aaa_n.jpg",
    "id_album": "850176884",
    "description": "Dragon_716045",
    "title": "Dragon_716045",
    "link_img": "https://live.staticflickr.com/65535/49711513776_0d2fdd9470_o.jpg",
    "id_image": "Dragon_716045",
    "count_view": 0
  },
  {
    "link_thumb": "https://live.staticflickr.com/65535/49712460056_4a71b7fbc9_n.jpg",
    "id_album": "1861288871",
    "description": "Women_766918",
    "title": "Women_766918",
    "link_img": "https://live.staticflickr.com/65535/49712460056_904084941f_o.jpg",
    "id_image": "Women_766918",
    "count_view": 0
  },
  {
    "link_thumb": "https://live.staticflickr.com/65535/49711784151_48073b4275_n.jpg",
    "id_album": "469960528",
    "description": "Knight_677431",
    "title": "Knight_677431",
    "link_img": "https://live.staticflickr.com/65535/49711784151_a2f26ba017_o.jpg",
    "id_image": "Knight_677431",
    "count_view": 0
  },
  {
    "link_thumb": "https://live.staticflickr.com/65535/49712800132_1e76259bbb_n.jpg",
    "id_album": "1861288871",
    "description": "Women_816096",
    "title": "Women_816096",
    "link_img": "https://live.staticflickr.com/65535/49712800132_bff368f998_o.jpg",
    "id_image": "Women_816096",
    "count_view": 0
  },
  {
    "link_thumb": "https://live.staticflickr.com/65535/49711979833_f70eda2e64_n.jpg",
    "id_album": "-867594484",
    "description": "Women_582006",
    "title": "Women_582006",
    "link_img": "https://live.staticflickr.com/65535/49711979833_9904e22407_o.jpg",
    "id_image": "Women_582006",
    "count_view": 0
  },
  {
    "link_thumb": "https://live.staticflickr.com/65535/49710414793_0a8397c307_n.jpg",
    "id_album": "523598895",
    "description": "Artistic_176714",
    "title": "Artistic_176714",
    "link_img": "https://live.staticflickr.com/65535/49710414793_76943535fb_o.jpg",
    "id_image": "Artistic_176714",
    "count_view": 0
  },
  {
    "link_thumb": "https://live.staticflickr.com/65535/49711756612_05bdcb88c5_n.jpg",
    "id_album": "850176884",
    "description": "Dragon_376351",
    "title": "Dragon_376351",
    "link_img": "https://live.staticflickr.com/65535/49711756612_2a5c9d6e4c_o.jpg",
    "id_image": "Dragon_376351",
    "count_view": 0
  },
  {
    "link_thumb": "https://live.staticflickr.com/65535/49710443043_4ed20899df_n.jpg",
    "id_album": "523598895",
    "description": "Artistic_679752",
    "title": "Artistic_679752",
    "link_img": "https://live.staticflickr.com/65535/49710443043_ae9c597ede_o.jpg",
    "id_image": "Artistic_679752",
    "count_view": 0
  },
  {
    "link_thumb": "https://live.staticflickr.com/65535/49711848456_4904bbbcc3_n.jpg",
    "id_album": "1402713104",
    "description": "Landscape_874413",
    "title": "Landscape_874413",
    "link_img": "https://live.staticflickr.com/65535/49711848456_5abf126168_o.jpg",
    "id_image": "Landscape_874413",
    "count_view": 0
  },
  {
    "link_thumb": "https://live.staticflickr.com/65535/49711961667_741344e0e7_n.jpg",
    "id_album": "134100487",
    "description": "Elf_870395",
    "title": "Elf_870395",
    "link_img": "https://live.staticflickr.com/65535/49711961667_474e5c5985_o.jpg",
    "id_image": "Elf_870395",
    "count_view": 0
  },
  {
    "link_thumb": "https://live.staticflickr.com/65535/49711201172_a804cd861f_n.jpg",
    "id_album": "-1000175186",
    "description": "AngelWarrior_262348",
    "title": "AngelWarrior_262348",
    "link_img": "https://live.staticflickr.com/65535/49711201172_c8639f635c_o.jpg",
    "id_image": "AngelWarrior_262348",
    "count_view": 0
  },
  {
    "link_thumb": "https://live.staticflickr.com/65535/49710481248_63a8e86998_n.jpg",
    "id_album": "-1846011410",
    "description": "Bird_262693",
    "title": "Bird_262693",
    "link_img": "https://live.staticflickr.com/65535/49710481248_81fe591fe2_o.jpg",
    "id_image": "Bird_262693",
    "count_view": 0
  },
  {
    "link_thumb": "https://live.staticflickr.com/65535/49711260846_31f420e871_n.jpg",
    "id_album": "-437872736",
    "description": "Creature_689517",
    "title": "Creature_689517",
    "link_img": "https://live.staticflickr.com/65535/49711260846_54a2d08402_o.jpg",
    "id_image": "Creature_689517",
    "count_view": 0
  },
  {
    "link_thumb": "https://live.staticflickr.com/65535/49710864406_848c17c4a8_n.jpg",
    "id_album": "-2109465612",
    "description": "Adventure_250349",
    "title": "Adventure_250349",
    "link_img": "https://live.staticflickr.com/65535/49710864406_7d05341d5e_o.jpg",
    "id_image": "Adventure_250349",
    "count_view": 0
  },
  {
    "link_thumb": "https://live.staticflickr.com/65535/49710774623_62165772e9_n.jpg",
    "id_album": "2021464556",
    "description": "Dark_123547",
    "title": "Dark_123547",
    "link_img": "https://live.staticflickr.com/65535/49710774623_720949c947_o.jpg",
    "id_image": "Dark_123547",
    "count_view": 0
  },
  {
    "link_thumb": "https://live.staticflickr.com/65535/49711668858_5ea3b9b8f5_n.jpg",
    "id_album": "-1261420436",
    "description": "Warrior_265759",
    "title": "Warrior_265759",
    "link_img": "https://live.staticflickr.com/65535/49711668858_2b64e2c13c_o.jpg",
    "id_image": "Warrior_265759",
    "count_view": 0
  },
  {
    "link_thumb": "https://live.staticflickr.com/65535/49710620708_efff975862_n.jpg",
    "id_album": "-437872736",
    "description": "Creature_205720",
    "title": "Creature_205720",
    "link_img": "https://live.staticflickr.com/65535/49710620708_40bb7e8ca2_o.jpg",
    "id_image": "Creature_205720",
    "count_view": 0
  },
  {
    "link_thumb": "https://live.staticflickr.com/65535/49711783532_5daaf65299_n.jpg",
    "id_album": "850176884",
    "description": "Dragon_494996",
    "title": "Dragon_494996",
    "link_img": "https://live.staticflickr.com/65535/49711783532_c7781fbbca_o.jpg",
    "id_image": "Dragon_494996",
    "count_view": 0
  },
  {
    "link_thumb": "https://live.staticflickr.com/65535/49711325461_3c2264c624_n.jpg",
    "id_album": "2021464556",
    "description": "Dark_964473",
    "title": "Dark_964473",
    "link_img": "https://live.staticflickr.com/65535/49711325461_e632f7a8f1_o.jpg",
    "id_image": "Dark_964473",
    "count_view": 0
  },
  {
    "link_thumb": "https://live.staticflickr.com/65535/49711284607_9af76cba81_n.jpg",
    "id_album": "523598895",
    "description": "Artistic_315315",
    "title": "Artistic_315315",
    "link_img": "https://live.staticflickr.com/65535/49711284607_b80155f67c_o.jpg",
    "id_image": "Artistic_315315",
    "count_view": 0
  },
  {
    "link_thumb": "https://live.staticflickr.com/65535/49710967181_e89f3d2f30_n.jpg",
    "id_album": "523598895",
    "description": "Artistic_419461",
    "title": "Artistic_419461",
    "link_img": "https://live.staticflickr.com/65535/49710967181_27db025881_o.jpg",
    "id_image": "Artistic_419461",
    "count_view": 0
  },
  {
    "link_thumb": "https://live.staticflickr.com/65535/49711442236_c02af4df2c_n.jpg",
    "id_album": "850176884",
    "description": "Dragon_404345",
    "title": "Dragon_404345",
    "link_img": "https://live.staticflickr.com/65535/49711442236_392f1a5a4b_o.jpg",
    "id_image": "Dragon_404345",
    "count_view": 0
  },
  {
    "link_thumb": "https://live.staticflickr.com/65535/49711358361_0db8dc9faf_n.jpg",
    "id_album": "850176884",
    "description": "Dragon_120543",
    "title": "Dragon_120543",
    "link_img": "https://live.staticflickr.com/65535/49711358361_2730808f39_o.jpg",
    "id_image": "Dragon_120543",
    "count_view": 0
  },
  {
    "link_thumb": "https://live.staticflickr.com/65535/49711549156_8847ac4019_n.jpg",
    "id_album": "850176884",
    "description": "Dragon_881736",
    "title": "Dragon_881736",
    "link_img": "https://live.staticflickr.com/65535/49711549156_ee0154c94c_o.jpg",
    "id_image": "Dragon_881736",
    "count_view": 0
  },
  {
    "link_thumb": "https://live.staticflickr.com/65535/49711696473_1a2d614860_n.jpg",
    "id_album": "-1261420436",
    "description": "Warrior_901639",
    "title": "Warrior_901639",
    "link_img": "https://live.staticflickr.com/65535/49711696473_129b78ff56_o.jpg",
    "id_image": "Warrior_901639",
    "count_view": 0
  },
  {
    "link_thumb": "https://live.staticflickr.com/65535/49710638173_1f6d0af11a_n.jpg",
    "id_album": "-437872736",
    "description": "Creature_271149",
    "title": "Creature_271149",
    "link_img": "https://live.staticflickr.com/65535/49710638173_d2f4cef46a_o.jpg",
    "id_image": "Creature_271149",
    "count_view": 0
  },
  {
    "link_thumb": "https://live.staticflickr.com/65535/49712556912_af7b249a7f_n.jpg",
    "id_album": "-1261420436",
    "description": "Warrior_916113",
    "title": "Warrior_916113",
    "link_img": "https://live.staticflickr.com/65535/49712556912_c9217d2fe0_o.jpg",
    "id_image": "Warrior_916113",
    "count_view": 0
  },
  {
    "link_thumb": "https://live.staticflickr.com/65535/49710476773_9426006708_n.jpg",
    "id_album": "1187037014",
    "description": "Battle_865974",
    "title": "Battle_865974",
    "link_img": "https://live.staticflickr.com/65535/49710476773_87f6f61316_o.jpg",
    "id_image": "Battle_865974",
    "count_view": 0
  },
  {
    "link_thumb": "https://live.staticflickr.com/65535/49712046712_ec75662d82_n.jpg",
    "id_album": "-128218148",
    "description": "Fox_665166",
    "title": "Fox_665166",
    "link_img": "https://live.staticflickr.com/65535/49712046712_7afc7769bd_o.jpg",
    "id_image": "Fox_665166",
    "count_view": 0
  },
  {
    "link_thumb": "https://live.staticflickr.com/65535/49711229652_e91533d3e4_n.jpg",
    "id_album": "-1913845949",
    "description": "Animal_636032",
    "title": "Animal_636032",
    "link_img": "https://live.staticflickr.com/65535/49711229652_2bd1d82cce_o.jpg",
    "id_image": "Animal_636032",
    "count_view": 0
  },
  {
    "link_thumb": "https://live.staticflickr.com/65535/49711092206_c4c0385cf1_n.jpg",
    "id_album": "-1964113117",
    "description": "City_21839",
    "title": "City_21839",
    "link_img": "https://live.staticflickr.com/65535/49711092206_bd920fcbd2_o.jpg",
    "id_image": "City_21839",
    "count_view": 0
  },
  {
    "link_thumb": "https://live.staticflickr.com/65535/49711667488_4caeb0a0db_n.jpg",
    "id_album": "-1261420436",
    "description": "Warrior_253008",
    "title": "Warrior_253008",
    "link_img": "https://live.staticflickr.com/65535/49711667488_72848cb4ac_o.jpg",
    "id_image": "Warrior_253008",
    "count_view": 0
  },
  {
    "link_thumb": "https://live.staticflickr.com/65535/49710830463_4cb4de0c2d_n.jpg",
    "id_album": "850176884",
    "description": "Dragon_123863",
    "title": "Dragon_123863",
    "link_img": "https://live.staticflickr.com/65535/49710830463_439ec7e9f9_o.jpg",
    "id_image": "Dragon_123863",
    "count_view": 0
  },
  {
    "link_thumb": "https://live.staticflickr.com/65535/49711372948_58afb21493_n.jpg",
    "id_album": "-833110404",
    "description": "Landscape_283696",
    "title": "Landscape_283696",
    "link_img": "https://live.staticflickr.com/65535/49711372948_c9b110e100_o.jpg",
    "id_image": "Landscape_283696",
    "count_view": 0
  },
  {
    "link_thumb": "https://live.staticflickr.com/65535/49712947732_36fe83b921_n.jpg",
    "id_album": "-1675918237",
    "description": "WomenWarrior_512041",
    "title": "WomenWarrior_512041",
    "link_img": "https://live.staticflickr.com/65535/49712947732_b9d936653c_o.jpg",
    "id_image": "WomenWarrior_512041",
    "count_view": 0
  },
  {
    "link_thumb": "https://live.staticflickr.com/65535/49711430442_e4d5221851_n.jpg",
    "id_album": "-1964113117",
    "description": "City_530282",
    "title": "City_530282",
    "link_img": "https://live.staticflickr.com/65535/49711430442_c2710c93ec_o.jpg",
    "id_image": "City_530282",
    "count_view": 0
  },
  {
    "link_thumb": "https://live.staticflickr.com/65535/49710556483_a6eaa20744_n.jpg",
    "id_album": "-1964113117",
    "description": "City_211068",
    "title": "City_211068",
    "link_img": "https://live.staticflickr.com/65535/49710556483_67e9c60dd2_o.jpg",
    "id_image": "City_211068",
    "count_view": 0
  },
  {
    "link_thumb": "https://live.staticflickr.com/65535/49711455273_7668a224b5_n.jpg",
    "id_album": "1006968559",
    "description": "LordoftheRings_551161",
    "title": "LordoftheRings_551161",
    "link_img": "https://live.staticflickr.com/65535/49711455273_1234dea441_o.jpg",
    "id_image": "LordoftheRings_551161",
    "count_view": 0
  },
  {
    "link_thumb": "https://live.staticflickr.com/65535/49712248332_9eb18b05cd_n.jpg",
    "id_album": "-833110404",
    "description": "Landscape_310355",
    "title": "Landscape_310355",
    "link_img": "https://live.staticflickr.com/65535/49712248332_40ff8579b6_o.jpg",
    "id_image": "Landscape_310355",
    "count_view": 0
  },
  {
    "link_thumb": "https://live.staticflickr.com/65535/49712290931_754264df60_n.jpg",
    "id_album": "-709711865",
    "description": "Wolf_838850",
    "title": "Wolf_838850",
    "link_img": "https://live.staticflickr.com/65535/49712290931_07a643e819_o.jpg",
    "id_image": "Wolf_838850",
    "count_view": 0
  },
  {
    "link_thumb": "https://live.staticflickr.com/65535/49710424303_557c6580dd_n.jpg",
    "id_album": "523598895",
    "description": "Artistic_252919",
    "title": "Artistic_252919",
    "link_img": "https://live.staticflickr.com/65535/49710424303_40c6daed60_o.jpg",
    "id_image": "Artistic_252919",
    "count_view": 0
  },
  {
    "link_thumb": "https://live.staticflickr.com/65535/49711168761_99cd23b92c_n.jpg",
    "id_album": "-437872736",
    "description": "Creature_265552",
    "title": "Creature_265552",
    "link_img": "https://live.staticflickr.com/65535/49711168761_93e34695df_o.jpg",
    "id_image": "Creature_265552",
    "count_view": 0
  },
  {
    "link_thumb": "https://live.staticflickr.com/65535/49710386543_f40a3183d1_n.jpg",
    "id_album": "-1913845949",
    "description": "Animal_886644",
    "title": "Animal_886644",
    "link_img": "https://live.staticflickr.com/65535/49710386543_8479075730_o.jpg",
    "id_image": "Animal_886644",
    "count_view": 0
  },
  {
    "link_thumb": "https://live.staticflickr.com/65535/49711689262_cf97c23b24_n.jpg",
    "id_album": "850176884",
    "description": "Dragon_123826",
    "title": "Dragon_123826",
    "link_img": "https://live.staticflickr.com/65535/49711689262_f2883b8f50_o.jpg",
    "id_image": "Dragon_123826",
    "count_view": 0
  },
  {
    "link_thumb": "https://live.staticflickr.com/65535/49710823628_27cbf2408b_n.jpg",
    "id_album": "850176884",
    "description": "Dragon_121286",
    "title": "Dragon_121286",
    "link_img": "https://live.staticflickr.com/65535/49710823628_d6a61f4f46_o.jpg",
    "id_image": "Dragon_121286",
    "count_view": 0
  },
  {
    "link_thumb": "https://live.staticflickr.com/65535/49711747962_eb585d68f9_n.jpg",
    "id_album": "850176884",
    "description": "Dragon_332922",
    "title": "Dragon_332922",
    "link_img": "https://live.staticflickr.com/65535/49711747962_1055650648_o.jpg",
    "id_image": "Dragon_332922",
    "count_view": 0
  },
  {
    "link_thumb": "https://live.staticflickr.com/65535/49710811313_2b902c239f_n.jpg",
    "id_album": "850176884",
    "description": "DRAGON2610191649383",
    "title": "DRAGON2610191649383",
    "link_img": "https://live.staticflickr.com/65535/49710811313_4368fcea27_o.jpg",
    "id_image": "DRAGON2610191649383",
    "count_view": 0
  },
  {
    "link_thumb": "https://live.staticflickr.com/65535/49712166192_6d6d642a8d_n.jpg",
    "id_album": "1402713104",
    "description": "Landscape_869186",
    "title": "Landscape_869186",
    "link_img": "https://live.staticflickr.com/65535/49712166192_c25a88afd4_o.jpg",
    "id_image": "Landscape_869186",
    "count_view": 0
  },
  {
    "link_thumb": "https://live.staticflickr.com/65535/49711816423_8413643645_n.jpg",
    "id_album": "-1126835654",
    "description": "Women_993986",
    "title": "Women_993986",
    "link_img": "https://live.staticflickr.com/65535/49711816423_047931b476_o.jpg",
    "id_image": "Women_993986",
    "count_view": 0
  },
  {
    "link_thumb": "https://live.staticflickr.com/65535/49711041468_c5c2911997_n.jpg",
    "id_album": "850176884",
    "description": "Dragon_952020",
    "title": "Dragon_952020",
    "link_img": "https://live.staticflickr.com/65535/49711041468_8b865c3cd4_o.jpg",
    "id_image": "Dragon_952020",
    "count_view": 0
  },
  {
    "link_thumb": "https://live.staticflickr.com/65535/49711732677_11eb942417_n.jpg",
    "id_album": "850176884",
    "description": "Dragon_286248",
    "title": "Dragon_286248",
    "link_img": "https://live.staticflickr.com/65535/49711732677_c192670083_o.jpg",
    "id_image": "Dragon_286248",
    "count_view": 0
  },
  {
    "link_thumb": "https://live.staticflickr.com/65535/49711245218_146c452916_n.jpg",
    "id_album": "469960528",
    "description": "Knight_373296",
    "title": "Knight_373296",
    "link_img": "https://live.staticflickr.com/65535/49711245218_fabd09dab3_o.jpg",
    "id_image": "Knight_373296",
    "count_view": 0
  },
  {
    "link_thumb": "https://live.staticflickr.com/65535/49712293647_7d0d92cd91_n.jpg",
    "id_album": "-833110404",
    "description": "Landscape_559038",
    "title": "Landscape_559038",
    "link_img": "https://live.staticflickr.com/65535/49712293647_5707cbdc20_o.jpg",
    "id_image": "Landscape_559038",
    "count_view": 0
  },
  {
    "link_thumb": "https://live.staticflickr.com/65535/49711485306_9c5aa22b74_n.jpg",
    "id_album": "850176884",
    "description": "Dragon_568746",
    "title": "Dragon_568746",
    "link_img": "https://live.staticflickr.com/65535/49711485306_f27ae950f4_o.jpg",
    "id_image": "Dragon_568746",
    "count_view": 0
  },
  {
    "link_thumb": "https://live.staticflickr.com/65535/49710614613_8b840a9762_n.jpg",
    "id_album": "-437872736",
    "description": "Creature_165485",
    "title": "Creature_165485",
    "link_img": "https://live.staticflickr.com/65535/49710614613_058cf2db88_o.jpg",
    "id_image": "Creature_165485",
    "count_view": 0
  },
  {
    "link_thumb": "https://live.staticflickr.com/65535/49712039298_c648fbdd63_n.jpg",
    "id_album": "-1675918237",
    "description": "WomenWarrior_312272",
    "title": "WomenWarrior_312272",
    "link_img": "https://live.staticflickr.com/65535/49712039298_6e16607b25_o.jpg",
    "id_image": "WomenWarrior_312272",
    "count_view": 0
  },
  {
    "link_thumb": "https://live.staticflickr.com/65535/49712023037_39d92af963_n.jpg",
    "id_album": "-1083189875",
    "description": "Forest_554591",
    "title": "Forest_554591",
    "link_img": "https://live.staticflickr.com/65535/49712023037_5f3915ec1b_o.jpg",
    "id_image": "Forest_554591",
    "count_view": 0
  },
  {
    "link_thumb": "https://live.staticflickr.com/65535/49710977393_f216fe9acd_n.jpg",
    "id_album": "850176884",
    "description": "Dragon_714831",
    "title": "Dragon_714831",
    "link_img": "https://live.staticflickr.com/65535/49710977393_b624df7fae_o.jpg",
    "id_image": "Dragon_714831",
    "count_view": 0
  },
  {
    "link_thumb": "https://live.staticflickr.com/65535/49712843577_b505978017_n.jpg",
    "id_album": "-867594484",
    "description": "Women_599899",
    "title": "Women_599899",
    "link_img": "https://live.staticflickr.com/65535/49712843577_e29336bf0d_o.jpg",
    "id_image": "Women_599899",
    "count_view": 0
  },
  {
    "link_thumb": "https://live.staticflickr.com/65535/49711287342_b10d46684a_n.jpg",
    "id_album": "523598895",
    "description": "Artistic_359653",
    "title": "Artistic_359653",
    "link_img": "https://live.staticflickr.com/65535/49711287342_72aa3b18b8_o.jpg",
    "id_image": "Artistic_359653",
    "count_view": 0
  },
  {
    "link_thumb": "https://live.staticflickr.com/65535/49712413156_7f15974459_n.jpg",
    "id_album": "295204930",
    "description": "Women_710088",
    "title": "Women_710088",
    "link_img": "https://live.staticflickr.com/65535/49712413156_64a5533543_o.jpg",
    "id_image": "Women_710088",
    "count_view": 0
  },
  {
    "link_thumb": "https://live.staticflickr.com/65535/49712162481_bd2afd2287_n.jpg",
    "id_album": "405170427",
    "description": "Tiger_692780",
    "title": "Tiger_692780",
    "link_img": "https://live.staticflickr.com/65535/49712162481_7ef692f6f7_o.jpg",
    "id_image": "Tiger_692780",
    "count_view": 0
  },
  {
    "link_thumb": "https://live.staticflickr.com/65535/49711583766_0575ed9201_n.jpg",
    "id_album": "850176884",
    "description": "Dragon_973305",
    "title": "Dragon_973305",
    "link_img": "https://live.staticflickr.com/65535/49711583766_6ccd4d2d3c_o.jpg",
    "id_image": "Dragon_973305",
    "count_view": 0
  },
  {
    "link_thumb": "https://live.staticflickr.com/65535/49712076161_7522eecf45_n.jpg",
    "id_album": "-1326601535",
    "description": "Phoenix_697053",
    "title": "Phoenix_697053",
    "link_img": "https://live.staticflickr.com/65535/49712076161_3a19604a1a_o.jpg",
    "id_image": "Phoenix_697053",
    "count_view": 0
  },
  {
    "link_thumb": "https://live.staticflickr.com/65535/49799132112_6e094beef6_n.jpg",
    "id_album": "-1703946758",
    "description": "ANIME_PIC_726db04f5325b6545d1af0d788b0016d",
    "title": "ANIME_PIC_726db04f5325b6545d1af0d788b0016d",
    "link_img": "https://live.staticflickr.com/65535/49799132112_e29955b481_o.jpg",
    "id_image": "ANIME_PIC_726db04f5325b6545d1af0d788b0016d",
    "count_view": 0
  },
  {
    "link_thumb": "https://live.staticflickr.com/65535/49711537262_acba954e05_n.jpg",
    "id_album": "-437872736",
    "description": "Creature_348013",
    "title": "Creature_348013",
    "link_img": "https://live.staticflickr.com/65535/49711537262_eb984c916b_o.jpg",
    "id_image": "Creature_348013",
    "count_view": 0
  },
  {
    "link_thumb": "https://live.staticflickr.com/65535/49712346077_067e55a732_n.jpg",
    "id_album": "1721880108",
    "description": "Mermaid_116164",
    "title": "Mermaid_116164",
    "link_img": "https://live.staticflickr.com/65535/49712346077_8cac4dd839_o.jpg",
    "id_image": "Mermaid_116164",
    "count_view": 0
  },
  {
    "link_thumb": "https://live.staticflickr.com/65535/49711510061_256c06cbb7_n.jpg",
    "id_album": "850176884",
    "description": "Dragon_699826",
    "title": "Dragon_699826",
    "link_img": "https://live.staticflickr.com/65535/49711510061_0966449c43_o.jpg",
    "id_image": "Dragon_699826",
    "count_view": 0
  },
  {
    "link_thumb": "https://live.staticflickr.com/65535/49711720752_41f2ccd05c_n.jpg",
    "id_album": "850176884",
    "description": "Dragon_247121",
    "title": "Dragon_247121",
    "link_img": "https://live.staticflickr.com/65535/49711720752_5baf2772bf_o.jpg",
    "id_image": "Dragon_247121",
    "count_view": 0
  },
  {
    "link_thumb": "https://live.staticflickr.com/65535/49711658386_4dd5557419_n.jpg",
    "id_album": "-1972042284",
    "description": "Fairy_342619",
    "title": "Fairy_342619",
    "link_img": "https://live.staticflickr.com/65535/49711658386_9595d20eba_o.jpg",
    "id_image": "Fairy_342619",
    "count_view": 0
  },
  {
    "link_thumb": "https://live.staticflickr.com/65535/49711914422_99f0316617_n.jpg",
    "id_album": "850176884",
    "description": "Dragon_990493",
    "title": "Dragon_990493",
    "link_img": "https://live.staticflickr.com/65535/49711914422_7645fc7b59_o.jpg",
    "id_image": "Dragon_990493",
    "count_view": 0
  },
  {
    "link_thumb": "https://live.staticflickr.com/65535/49712312201_c501c55573_n.jpg",
    "id_album": "-1126835654",
    "description": "Women_863469",
    "title": "Women_863469",
    "link_img": "https://live.staticflickr.com/65535/49712312201_b57099a6ee_o.jpg",
    "id_image": "Women_863469",
    "count_view": 0
  },
  {
    "link_thumb": "https://live.staticflickr.com/65535/49710428373_e02e4fe34d_n.jpg",
    "id_album": "523598895",
    "description": "Artistic_343805",
    "title": "Artistic_343805",
    "link_img": "https://live.staticflickr.com/65535/49710428373_5e9e9bcd01_o.jpg",
    "id_image": "Artistic_343805",
    "count_view": 0
  },
  {
    "link_thumb": "https://live.staticflickr.com/65535/49711740156_e93282fe8e_n.jpg",
    "id_album": "402434752",
    "description": "Giant_995150",
    "title": "Giant_995150",
    "link_img": "https://live.staticflickr.com/65535/49711740156_8152d6dff4_o.jpg",
    "id_image": "Giant_995150",
    "count_view": 0
  },
  {
    "link_thumb": "https://live.staticflickr.com/65535/49711964411_dabe62395c_n.jpg",
    "id_album": "-833110404",
    "description": "Landscape_539864",
    "title": "Landscape_539864",
    "link_img": "https://live.staticflickr.com/65535/49711964411_aba474ae10_o.jpg",
    "id_image": "Landscape_539864",
    "count_view": 0
  },
  {
    "link_thumb": "https://live.staticflickr.com/65535/49711170156_b54e99e554_n.jpg",
    "id_album": "-437872736",
    "description": "Creature_267690",
    "title": "Creature_267690",
    "link_img": "https://live.staticflickr.com/65535/49711170156_54b370033c_o.jpg",
    "id_image": "Creature_267690",
    "count_view": 0
  },
  {
    "link_thumb": "https://live.staticflickr.com/65535/49710794563_0069648a23_n.jpg",
    "id_album": "1903411565",
    "description": "Deer_914910",
    "title": "Deer_914910",
    "link_img": "https://live.staticflickr.com/65535/49710794563_d42690abb2_o.jpg",
    "id_image": "Deer_914910",
    "count_view": 0
  },
  {
    "link_thumb": "https://live.staticflickr.com/65535/49711225957_680620141d_n.jpg",
    "id_album": "-1913845949",
    "description": "Animal_479548",
    "title": "Animal_479548",
    "link_img": "https://live.staticflickr.com/65535/49711225957_4593510f86_o.jpg",
    "id_image": "Animal_479548",
    "count_view": 0
  },
  {
    "link_thumb": "https://live.staticflickr.com/65535/49710462193_1c5c0a9551_n.jpg",
    "id_album": "1187037014",
    "description": "Battle_373440",
    "title": "Battle_373440",
    "link_img": "https://live.staticflickr.com/65535/49710462193_5a41cda2e8_o.jpg",
    "id_image": "Battle_373440",
    "count_view": 0
  },
  {
    "link_thumb": "https://live.staticflickr.com/65535/49711429626_1db2ae9d71_n.jpg",
    "id_album": "850176884",
    "description": "Dragon_347113",
    "title": "Dragon_347113",
    "link_img": "https://live.staticflickr.com/65535/49711429626_8c2edc16d1_o.jpg",
    "id_image": "Dragon_347113",
    "count_view": 0
  },
  {
    "link_thumb": "https://live.staticflickr.com/65535/49711071831_94f497d276_n.jpg",
    "id_album": "-1741487325",
    "description": "Cat_749873",
    "title": "Cat_749873",
    "link_img": "https://live.staticflickr.com/65535/49711071831_e3562e0530_o.jpg",
    "id_image": "Cat_749873",
    "count_view": 0
  },
  {
    "link_thumb": "https://live.staticflickr.com/65535/49712962142_fbb2dc24cf_n.jpg",
    "id_album": "-1675918237",
    "description": "WomenWarrior_557535",
    "title": "WomenWarrior_557535",
    "link_img": "https://live.staticflickr.com/65535/49712962142_ee311330de_o.jpg",
    "id_image": "WomenWarrior_557535",
    "count_view": 0
  },
  {
    "link_thumb": "https://live.staticflickr.com/65535/49712631007_e510c4a4b3_n.jpg",
    "id_album": "-1126835654",
    "description": "Women_847556",
    "title": "Women_847556",
    "link_img": "https://live.staticflickr.com/65535/49712631007_a363caf205_o.jpg",
    "id_image": "Women_847556",
    "count_view": 0
  },
  {
    "link_thumb": "https://live.staticflickr.com/65535/49712438116_5bc5462033_n.jpg",
    "id_album": "1861288871",
    "description": "Women_240978",
    "title": "Women_240978",
    "link_img": "https://live.staticflickr.com/65535/49712438116_255162fd2e_o.jpg",
    "id_image": "Women_240978",
    "count_view": 0
  },
  {
    "link_thumb": "https://live.staticflickr.com/65535/49711799058_d3a2386445_n.jpg",
    "id_album": "-1126835654",
    "description": "Women_903067",
    "title": "Women_903067",
    "link_img": "https://live.staticflickr.com/65535/49711799058_f8db2a4b4b_o.jpg",
    "id_image": "Women_903067",
    "count_view": 0
  },
  {
    "link_thumb": "https://live.staticflickr.com/65535/49711189693_c163a94813_n.jpg",
    "id_album": "-128218148",
    "description": "Fox_721029",
    "title": "Fox_721029",
    "link_img": "https://live.staticflickr.com/65535/49711189693_4d8827355d_o.jpg",
    "id_image": "Fox_721029",
    "count_view": 0
  },
  {
    "link_thumb": "https://live.staticflickr.com/65535/49711902228_d35ed7d0a2_n.jpg",
    "id_album": "1861288871",
    "description": "Women_235322",
    "title": "Women_235322",
    "link_img": "https://live.staticflickr.com/65535/49711902228_ca8f2e2954_o.jpg",
    "id_image": "Women_235322",
    "count_view": 0
  },
  {
    "link_thumb": "https://live.staticflickr.com/65535/49710985618_e09034f047_n.jpg",
    "id_album": "850176884",
    "description": "Dragon_760862",
    "title": "Dragon_760862",
    "link_img": "https://live.staticflickr.com/65535/49710985618_80de99c819_o.jpg",
    "id_image": "Dragon_760862",
    "count_view": 0
  },
  {
    "link_thumb": "https://live.staticflickr.com/65535/49711978131_a35286e15c_n.jpg",
    "id_album": "-1284959130",
    "description": "LegendOfTheFiveRings_647697",
    "title": "LegendOfTheFiveRings_647697",
    "link_img": "https://live.staticflickr.com/65535/49711978131_5a5a9b047e_o.jpg",
    "id_image": "LegendOfTheFiveRings_647697",
    "count_view": 0
  },
  {
    "link_thumb": "https://live.staticflickr.com/65535/49711244296_221c6785d8_n.jpg",
    "id_album": "-437872736",
    "description": "Creature_521898",
    "title": "Creature_521898",
    "link_img": "https://live.staticflickr.com/65535/49711244296_c64affb744_o.jpg",
    "id_image": "Creature_521898",
    "count_view": 0
  },
  {
    "link_thumb": "https://live.staticflickr.com/65535/49712479737_dc1a8b619e_n.jpg",
    "id_album": "405170427",
    "description": "Tiger_401819",
    "title": "Tiger_401819",
    "link_img": "https://live.staticflickr.com/65535/49712479737_c369939673_o.jpg",
    "id_image": "Tiger_401819",
    "count_view": 0
  },
  {
    "link_thumb": "https://live.staticflickr.com/65535/49712560222_b95cbd3560_n.jpg",
    "id_album": "-1261420436",
    "description": "Warrior_928641",
    "title": "Warrior_928641",
    "link_img": "https://live.staticflickr.com/65535/49712560222_d582cb8094_o.jpg",
    "id_image": "Warrior_928641",
    "count_view": 0
  },
  {
    "link_thumb": "https://live.staticflickr.com/65535/49711750898_abb914b169_n.jpg",
    "id_album": "-709711865",
    "description": "Wolf_675197",
    "title": "Wolf_675197",
    "link_img": "https://live.staticflickr.com/65535/49711750898_062c6fcb52_o.jpg",
    "id_image": "Wolf_675197",
    "count_view": 0
  },
  {
    "link_thumb": "https://live.staticflickr.com/65535/49712617901_8848efd4b7_n.jpg",
    "id_album": "-1675918237",
    "description": "WomenWarrior_496645",
    "title": "WomenWarrior_496645",
    "link_img": "https://live.staticflickr.com/65535/49712617901_3208025bdd_o.jpg",
    "id_image": "WomenWarrior_496645",
    "count_view": 0
  },
  {
    "link_thumb": "https://live.staticflickr.com/65535/49712705946_aa3d034848_n.jpg",
    "id_album": "-1207759647",
    "description": "Zodiac_480668",
    "title": "Zodiac_480668",
    "link_img": "https://live.staticflickr.com/65535/49712705946_4c186ced62_o.jpg",
    "id_image": "Zodiac_480668",
    "count_view": 0
  },
  {
    "link_thumb": "https://live.staticflickr.com/65535/49712217911_2e6d6b9f02_n.jpg",
    "id_album": "-1261420436",
    "description": "Warrior_679733",
    "title": "Warrior_679733",
    "link_img": "https://live.staticflickr.com/65535/49712217911_85033ea739_o.jpg",
    "id_image": "Warrior_679733",
    "count_view": 0
  },
  {
    "link_thumb": "https://live.staticflickr.com/65535/49711666021_b361bff38e_n.jpg",
    "id_album": "-1972042284",
    "description": "Fairy_452240",
    "title": "Fairy_452240",
    "link_img": "https://live.staticflickr.com/65535/49711666021_1819235f13_o.jpg",
    "id_image": "Fairy_452240",
    "count_view": 0
  },
  {
    "link_thumb": "https://live.staticflickr.com/65535/49710573953_bde92f1029_n.jpg",
    "id_album": "-1964113117",
    "description": "City_607469",
    "title": "City_607469",
    "link_img": "https://live.staticflickr.com/65535/49710573953_267071a64a_o.jpg",
    "id_image": "City_607469",
    "count_view": 0
  },
  {
    "link_thumb": "https://live.staticflickr.com/65535/49710912836_322dc8d80f_n.jpg",
    "id_album": "-1913845949",
    "description": "Animal_636312",
    "title": "Animal_636312",
    "link_img": "https://live.staticflickr.com/65535/49710912836_3e4c8536d4_o.jpg",
    "id_image": "Animal_636312",
    "count_view": 0
  },
  {
    "link_thumb": "https://live.staticflickr.com/65535/49711753927_c751b94476_n.jpg",
    "id_album": "850176884",
    "description": "Dragon_359499",
    "title": "Dragon_359499",
    "link_img": "https://live.staticflickr.com/65535/49711753927_fbaf945344_o.jpg",
    "id_image": "Dragon_359499",
    "count_view": 0
  },
  {
    "link_thumb": "https://live.staticflickr.com/65535/49710657693_bfe1c05dc4_n.jpg",
    "id_album": "-437872736",
    "description": "Creature_320767",
    "title": "Creature_320767",
    "link_img": "https://live.staticflickr.com/65535/49710657693_de65102c25_o.jpg",
    "id_image": "Creature_320767",
    "count_view": 0
  },
  {
    "link_thumb": "https://live.staticflickr.com/65535/49711188038_43976cd2b7_n.jpg",
    "id_album": "-128218148",
    "description": "Fox_177801",
    "title": "Fox_177801",
    "link_img": "https://live.staticflickr.com/65535/49711188038_6037a52444_o.jpg",
    "id_image": "Fox_177801",
    "count_view": 0
  },
  {
    "link_thumb": "https://live.staticflickr.com/65535/49711586603_1456e5a73c_n.jpg",
    "id_album": "407101116",
    "description": "SeaMonster_379188",
    "title": "SeaMonster_379188",
    "link_img": "https://live.staticflickr.com/65535/49711586603_c71ea4869b_o.jpg",
    "id_image": "SeaMonster_379188",
    "count_view": 0
  },
  {
    "link_thumb": "https://live.staticflickr.com/65535/49711049253_d7be6a6ff8_n.jpg",
    "id_album": "850176884",
    "description": "Dragon_972157",
    "title": "Dragon_972157",
    "link_img": "https://live.staticflickr.com/65535/49711049253_68cef3df88_o.jpg",
    "id_image": "Dragon_972157",
    "count_view": 0
  },
  {
    "link_thumb": "https://live.staticflickr.com/65535/49712248071_19e4c522f6_n.jpg",
    "id_album": "1173975892",
    "description": "Werewolf_646650",
    "title": "Werewolf_646650",
    "link_img": "https://live.staticflickr.com/65535/49712248071_a7d2524432_o.jpg",
    "id_image": "Werewolf_646650",
    "count_view": 0
  },
  {
    "link_thumb": "https://live.staticflickr.com/65535/49711752837_1fc961d6c0_n.jpg",
    "id_album": "850176884",
    "description": "Dragon_354832",
    "title": "Dragon_354832",
    "link_img": "https://live.staticflickr.com/65535/49711752837_9bcfda52a1_o.jpg",
    "id_image": "Dragon_354832",
    "count_view": 0
  },
  {
    "link_thumb": "https://live.staticflickr.com/65535/49712440271_d7d9c5b8dd_n.jpg",
    "id_album": "1861288871",
    "description": "Women_249421",
    "title": "Women_249421",
    "link_img": "https://live.staticflickr.com/65535/49712440271_f7ff1f2a42_o.jpg",
    "id_image": "Women_249421",
    "count_view": 0
  },
  {
    "link_thumb": "https://live.staticflickr.com/65535/49712296276_b2bbdc7c2a_n.jpg",
    "id_album": "-709711865",
    "description": "Wolf_900216",
    "title": "Wolf_900216",
    "link_img": "https://live.staticflickr.com/65535/49712296276_a7c224beac_o.jpg",
    "id_image": "Wolf_900216",
    "count_view": 0
  },
  {
    "link_thumb": "https://live.staticflickr.com/65535/49711745392_510d06cfae_n.jpg",
    "id_album": "850176884",
    "description": "Dragon_328331",
    "title": "Dragon_328331",
    "link_img": "https://live.staticflickr.com/65535/49711745392_59d26b92db_o.jpg",
    "id_image": "Dragon_328331",
    "count_view": 0
  },
  {
    "link_thumb": "https://live.staticflickr.com/65535/49712709557_f9c0695f1a_n.jpg",
    "id_album": "295204930",
    "description": "Women_383115",
    "title": "Women_383115",
    "link_img": "https://live.staticflickr.com/65535/49712709557_3b20e56668_o.jpg",
    "id_image": "Women_383115",
    "count_view": 0
  },
  {
    "link_thumb": "https://live.staticflickr.com/65535/49798849401_ae37901ff4_n.jpg",
    "id_album": "-1703946758",
    "description": "ANIME_PIC_f58f14520ec6d82f58ada6d7ba4404f8",
    "title": "ANIME_PIC_f58f14520ec6d82f58ada6d7ba4404f8",
    "link_img": "https://live.staticflickr.com/65535/49798849401_5be879d780_o.jpg",
    "id_image": "ANIME_PIC_f58f14520ec6d82f58ada6d7ba4404f8",
    "count_view": 0
  },
  {
    "link_thumb": "https://live.staticflickr.com/65535/49712581231_66180df9bb_n.jpg",
    "id_album": "-1675918237",
    "description": "WomenWarrior_326046",
    "title": "WomenWarrior_326046",
    "link_img": "https://live.staticflickr.com/65535/49712581231_c6f0c21ef0_o.jpg",
    "id_image": "WomenWarrior_326046",
    "count_view": 0
  },
  {
    "link_thumb": "https://live.staticflickr.com/65535/49711001393_7f08f9fdc7_n.jpg",
    "id_album": "850176884",
    "description": "Dragon_857306",
    "title": "Dragon_857306",
    "link_img": "https://live.staticflickr.com/65535/49711001393_cbdf5e0eee_o.jpg",
    "id_image": "Dragon_857306",
    "count_view": 0
  },
  {
    "link_thumb": "https://live.staticflickr.com/65535/49711300986_023c8a860d_n.jpg",
    "id_album": "-437872736",
    "description": "Creature_958948",
    "title": "Creature_958948",
    "link_img": "https://live.staticflickr.com/65535/49711300986_f6f284b3c6_o.jpg",
    "id_image": "Creature_958948",
    "count_view": 0
  },
  {
    "link_thumb": "https://live.staticflickr.com/65535/49711993031_daf6bae6b7_n.jpg",
    "id_album": "-1859457952",
    "description": "Love_113306",
    "title": "Love_113306",
    "link_img": "https://live.staticflickr.com/65535/49711993031_3e5d8c142b_o.jpg",
    "id_image": "Love_113306",
    "count_view": 0
  },
  {
    "link_thumb": "https://live.staticflickr.com/65535/49712004731_906d40922e_n.jpg",
    "id_album": "-1613076477",
    "description": "Magic_587764",
    "title": "Magic_587764",
    "link_img": "https://live.staticflickr.com/65535/49712004731_24e944e430_o.jpg",
    "id_image": "Magic_587764",
    "count_view": 0
  },
  {
    "link_thumb": "https://live.staticflickr.com/65535/49711569166_d030a6b1da_n.jpg",
    "id_album": "850176884",
    "description": "Dragon_928583",
    "title": "Dragon_928583",
    "link_img": "https://live.staticflickr.com/65535/49711569166_fe99367990_o.jpg",
    "id_image": "Dragon_928583",
    "count_view": 0
  },
  {
    "link_thumb": "https://live.staticflickr.com/65535/49711803117_526eb0b58a_n.jpg",
    "id_album": "850176884",
    "description": "Dragon_562952",
    "title": "Dragon_562952",
    "link_img": "https://live.staticflickr.com/65535/49711803117_51293c102e_o.jpg",
    "id_image": "Dragon_562952",
    "count_view": 0
  },
  {
    "link_thumb": "https://live.staticflickr.com/65535/49711674102_d555834b0f_n.jpg",
    "id_album": "850176884",
    "description": "DRAGON26101916500936",
    "title": "DRAGON26101916500936",
    "link_img": "https://live.staticflickr.com/65535/49711674102_2c92a9817f_o.jpg",
    "id_image": "DRAGON26101916500936",
    "count_view": 0
  },
  {
    "link_thumb": "https://live.staticflickr.com/65535/49711340166_792d196fee_n.jpg",
    "id_album": "7198985",
    "description": "Demon_697651",
    "title": "Demon_697651",
    "link_img": "https://live.staticflickr.com/65535/49711340166_ef2983863f_o.jpg",
    "id_image": "Demon_697651",
    "count_view": 0
  },
  {
    "link_thumb": "https://live.staticflickr.com/65535/49712089862_6f705350fa_n.jpg",
    "id_album": "1957967226",
    "description": "House_600182",
    "title": "House_600182",
    "link_img": "https://live.staticflickr.com/65535/49712089862_43674e0068_o.jpg",
    "id_image": "House_600182",
    "count_view": 0
  },
  {
    "link_thumb": "https://live.staticflickr.com/65535/49712443182_8ac55708a6_n.jpg",
    "id_album": "407101116",
    "description": "SeaMonster_343988",
    "title": "SeaMonster_343988",
    "link_img": "https://live.staticflickr.com/65535/49712443182_f195b8ca72_o.jpg",
    "id_image": "SeaMonster_343988",
    "count_view": 0
  },
  {
    "link_thumb": "https://live.staticflickr.com/65535/49712318221_7cede20f56_n.jpg",
    "id_album": "-1126835654",
    "description": "Women_875780",
    "title": "Women_875780",
    "link_img": "https://live.staticflickr.com/65535/49712318221_31e5a22f1e_o.jpg",
    "id_image": "Women_875780",
    "count_view": 0
  },
  {
    "link_thumb": "https://live.staticflickr.com/65535/49711830596_5a5dddd67c_n.jpg",
    "id_album": "1402713104",
    "description": "Landscape_861559",
    "title": "Landscape_861559",
    "link_img": "https://live.staticflickr.com/65535/49711830596_7abeefb29a_o.jpg",
    "id_image": "Landscape_861559",
    "count_view": 0
  },
  {
    "link_thumb": "https://live.staticflickr.com/65535/49711609172_188ccde2bc_n.jpg",
    "id_album": "-437872736",
    "description": "Creature_958697",
    "title": "Creature_958697",
    "link_img": "https://live.staticflickr.com/65535/49711609172_e7c7b5285c_o.jpg",
    "id_image": "Creature_958697",
    "count_view": 0
  },
  {
    "link_thumb": "https://live.staticflickr.com/65535/49711733591_9f3d9aaff5_n.jpg",
    "id_album": "402434752",
    "description": "Giant_611146",
    "title": "Giant_611146",
    "link_img": "https://live.staticflickr.com/65535/49711733591_7f01c1bdfb_o.jpg",
    "id_image": "Giant_611146",
    "count_view": 0
  },
  {
    "link_thumb": "https://live.staticflickr.com/65535/49711031146_255b2d143b_n.jpg",
    "id_album": "-1541846310",
    "description": "Castle_118601",
    "title": "Castle_118601",
    "link_img": "https://live.staticflickr.com/65535/49711031146_5e59432cfd_o.jpg",
    "id_image": "Castle_118601",
    "count_view": 0
  },
  {
    "link_thumb": "https://live.staticflickr.com/65535/49711184653_8492fe96b6_n.jpg",
    "id_album": "-1083189875",
    "description": "Forest_89284",
    "title": "Forest_89284",
    "link_img": "https://live.staticflickr.com/65535/49711184653_bf50df720b_o.jpg",
    "id_image": "Forest_89284",
    "count_view": 0
  },
  {
    "link_thumb": "https://live.staticflickr.com/65535/49711403676_cedc29e17f_n.jpg",
    "id_album": "850176884",
    "description": "Dragon_262304",
    "title": "Dragon_262304",
    "link_img": "https://live.staticflickr.com/65535/49711403676_4275e9ec80_o.jpg",
    "id_image": "Dragon_262304",
    "count_view": 0
  }
]